tb/Pics/EXTask4/pro_tbex4.vcd
$date
	Sat Jun 11 19:11:21 2022
$end
$version
	Icarus Verilog
$end
$timescale
	10ps
$end
$scope module pro_tb4 $end
$var wire 32 ! valE [31:0] $end
$var wire 32 " rdata [31:0] $end
$var wire 32 # r7 [31:0] $end
$var wire 32 $ r6 [31:0] $end
$var wire 32 % r5 [31:0] $end
$var wire 32 & r4 [31:0] $end
$var wire 32 ' r3 [31:0] $end
$var wire 32 ( r2 [31:0] $end
$var wire 32 ) r1 [31:0] $end
$var wire 32 * r0 [31:0] $end
$var wire 3 + cc [2:0] $end
$var reg 32 , addr [31:0] $end
$var reg 1 - clock $end
$var reg 1 . flg $end
$var reg 4 / rID [3:0] $end
$var reg 32 0 wdata [31:0] $end
$var reg 1 1 working $end
$var reg 1 2 wr $end
$scope module processor $end
$var wire 32 3 F_read [31:0] $end
$var wire 32 4 addr [31:0] $end
$var wire 1 - clock $end
$var wire 4 5 e_dstE [3:0] $end
$var wire 1 6 e_halt $end
$var wire 32 7 e_valA [31:0] $end
$var wire 32 8 e_valB [31:0] $end
$var wire 4 9 rID [3:0] $end
$var wire 32 : valE [31:0] $end
$var wire 4 ; w_dstE [3:0] $end
$var wire 4 < w_dstM [3:0] $end
$var wire 32 = w_valE [31:0] $end
$var wire 32 > w_valM [31:0] $end
$var wire 32 ? wdata [31:0] $end
$var wire 1 1 working $end
$var wire 1 2 wr $end
$var wire 32 @ rdata [31:0] $end
$var wire 32 A r7 [31:0] $end
$var wire 32 B r6 [31:0] $end
$var wire 32 C r5 [31:0] $end
$var wire 32 D r4 [31:0] $end
$var wire 32 E r3 [31:0] $end
$var wire 32 F r2 [31:0] $end
$var wire 32 G r1 [31:0] $end
$var wire 32 H r0 [31:0] $end
$var wire 32 I f_rdata [31:0] $end
$var wire 1 J f_rd $end
$var wire 32 K f_addr [31:0] $end
$var wire 32 L e_valM [31:0] $end
$var wire 32 M e_valE [31:0] $end
$var wire 4 N e_dstM [3:0] $end
$var wire 4 O e_alufun [3:0] $end
$var wire 1 P e_ZF $end
$var wire 1 Q e_SF $end
$var wire 1 R e_OF $end
$var wire 16 S d_valC [15:0] $end
$var wire 32 T d_valB_reg [31:0] $end
$var wire 32 U d_valB [31:0] $end
$var wire 32 V d_valA_reg [31:0] $end
$var wire 32 W d_valA [31:0] $end
$var wire 4 X d_rB [3:0] $end
$var wire 4 Y d_rA [3:0] $end
$var wire 32 Z d_jpc [31:0] $end
$var wire 1 [ d_jflg $end
$var wire 4 \ d_ifun [3:0] $end
$var wire 4 ] d_icode [3:0] $end
$var wire 1 ^ d_halt $end
$var wire 3 _ cc [2:0] $end
$var reg 1 ` D_halt $end
$var reg 4 a D_icode [3:0] $end
$var reg 4 b D_ifun [3:0] $end
$var reg 1 c D_jflg $end
$var reg 4 d D_rA [3:0] $end
$var reg 4 e D_rB [3:0] $end
$var reg 32 f D_valA [31:0] $end
$var reg 32 g D_valB [31:0] $end
$var reg 16 h D_valC [15:0] $end
$var reg 4 i E_dstE [3:0] $end
$var reg 4 j E_dstM [3:0] $end
$var reg 1 k E_halt $end
$var reg 32 l E_valE [31:0] $end
$var reg 32 m E_valM [31:0] $end
$var reg 32 n PC [31:0] $end
$var reg 1 o e_reg_rst $end
$scope module alu $end
$var wire 32 p A [31:0] $end
$var wire 32 q B [31:0] $end
$var wire 32 r E [31:0] $end
$var wire 32 s aluA [31:0] $end
$var wire 32 t aluB [31:0] $end
$var wire 4 u alufun [3:0] $end
$var wire 32 v valE [31:0] $end
$var wire 3 w cc [2:0] $end
$var wire 1 x ZF $end
$var wire 1 y SF $end
$var wire 1 z OF $end
$upscope $end
$scope module ram $end
$var wire 32 { addr [31:0] $end
$var wire 1 - clock $end
$var wire 1 J rd $end
$var wire 32 | wdata [31:0] $end
$var wire 1 2 wr $end
$var reg 32 } rdata [31:0] $end
$upscope $end
$scope module regfile $end
$var wire 1 - clock $end
$var wire 4 ~ dstE [3:0] $end
$var wire 4 !" dstM [3:0] $end
$var wire 4 "" rA [3:0] $end
$var wire 4 #" rB [3:0] $end
$var wire 1 o reset $end
$var wire 32 $" valE [31:0] $end
$var wire 32 %" valM [31:0] $end
$var wire 32 &" valB [31:0] $end
$var wire 32 '" valA [31:0] $end
$var wire 32 (" r7 [31:0] $end
$var wire 32 )" r6 [31:0] $end
$var wire 32 *" r5 [31:0] $end
$var wire 32 +" r4 [31:0] $end
$var wire 32 ," r3 [31:0] $end
$var wire 32 -" r2 [31:0] $end
$var wire 32 ." r1 [31:0] $end
$var wire 32 /" r0 [31:0] $end
$var reg 32 0" r_r0 [31:0] $end
$var reg 32 1" r_r1 [31:0] $end
$var reg 32 2" r_r2 [31:0] $end
$var reg 32 3" r_r3 [31:0] $end
$var reg 32 4" r_r4 [31:0] $end
$var reg 32 5" r_r5 [31:0] $end
$var reg 32 6" r_r6 [31:0] $end
$var reg 32 7" r_r7 [31:0] $end
$upscope $end
$upscope $end
$upscope $end
$enddefinitions $end
#0
$dumpvars
bx 7"
bx 6"
bx 5"
bx 4"
bx 3"
bx 2"
bx 1"
bx 0"
bx /"
bx ."
bx -"
bx ,"
bx +"
bx *"
bx )"
bx ("
bx '"
bx &"
bz %"
bz $"
bz #"
bz ""
bz !"
bz ~
bz }
b0 |
b0 {
xz
xy
xx
bx w
bx v
bx u
bz t
bz s
bx r
bz q
bz p
1o
b0 n
bz m
bz l
zk
bz j
bz i
bz h
bz g
bz f
bz e
bz d
0c
bz b
bz a
z`
bx _
x^
bz ]
bz \
0[
b0zzzzzzzzzzzzzzzzzzzzzzzz Z
bz Y
bz X
bx W
bx V
bx U
bx T
bz S
xR
xQ
xP
bx O
bx N
bx M
b0zzzzzzzzzzzzzzzz L
b0 K
0J
bz I
bx H
bx G
bx F
bx E
bx D
bx C
bx B
bx A
bz @
b0 ?
bz >
bz =
bz <
bz ;
bx :
b1111 9
bz 8
bz 7
z6
bz 5
b0 4
bz 3
02
01
b0 0
b1111 /
0.
0-
b0 ,
bx +
bx *
bx )
bx (
bx '
bx &
bx %
bx $
bx #
bz "
bx !
$end
#1000
bx =
bx l
bx $"
b1111 <
b1111 j
b1111 !"
b0 #
b0 A
b0 ("
b0 7"
b0 $
b0 B
b0 )"
b0 6"
b0 %
b0 C
b0 *"
b0 5"
b0 &
b0 D
b0 +"
b0 4"
b0 '
b0 E
b0 ,"
b0 3"
b0 (
b0 F
b0 -"
b0 2"
b0 )
b0 G
b0 ."
b0 1"
b0 *
b0 H
b0 /"
b0 0"
1-
#2000
b10000111100000000000000000001 0
b10000111100000000000000000001 ?
b10000111100000000000000000001 |
12
0o
0-
#3000
1-
#4000
b1 K
b1 {
b10000111100010000000000000010 0
b10000111100010000000000000010 ?
b10000111100010000000000000010 |
b1 ,
b1 4
0-
#5000
1-
#6000
b10 K
b10 {
b10000111100100000000000000011 0
b10000111100100000000000000011 ?
b10000111100100000000000000011 |
b10 ,
b10 4
0-
#7000
1-
#8000
b11 K
b11 {
b10000111100110000000000000100 0
b10000111100110000000000000100 ?
b10000111100110000000000000100 |
b11 ,
b11 4
0-
#9000
1-
#10000
b100 K
b100 {
b10000111101000000000000000101 0
b10000111101000000000000000101 ?
b10000111101000000000000000101 |
b100 ,
b100 4
0-
#11000
1-
#12000
b101 K
b101 {
b10000111101010000000000000110 0
b10000111101010000000000000110 ?
b10000111101010000000000000110 |
b101 ,
b101 4
0-
#13000
1-
#14000
b110 K
b110 {
b10000111101100000000000000111 0
b10000111101100000000000000111 ?
b10000111101100000000000000111 |
b110 ,
b110 4
0-
#15000
1-
#16000
b111 K
b111 {
b10000111101110000000000001000 0
b10000111101110000000000001000 ?
b10000111101110000000000001000 |
b111 ,
b111 4
0-
#17000
1-
#18000
b1000 K
b1000 {
b1110000000000000000000000001010 0
b1110000000000000000000000001010 ?
b1110000000000000000000000001010 |
b1000 ,
b1000 4
0-
#19000
1-
#20000
b1001 K
b1001 {
b100001011101100000000000000000 0
b100001011101100000000000000000 ?
b100001011101100000000000000000 |
b1001 ,
b1001 4
0-
#21000
1-
#22000
b1010 K
b1010 {
b100000011101100000000000000000 0
b100000011101100000000000000000 ?
b100000011101100000000000000000 |
b1010 ,
b1010 4
0-
#23000
1-
#24000
b1011 K
b1011 {
b100000000100000000000000000000 0
b100000000100000000000000000000 ?
b100000000100000000000000000000 |
b1011 ,
b1011 4
0-
#25000
1-
#26000
b1100 K
b1100 {
b100001011100000000000000000000 0
b100001011100000000000000000000 ?
b100001011100000000000000000000 |
b1100 ,
b1100 4
0-
#27000
1-
#28000
b1101 K
b1101 {
b1110101000000000000000000001011 0
b1110101000000000000000000001011 ?
b1110101000000000000000000001011 |
b1101 ,
b1101 4
0-
#29000
1-
#30000
b1110 K
b1110 {
b100000011101100000000000000000 0
b100000011101100000000000000000 ?
b100000011101100000000000000000 |
b1110 ,
b1110 4
0-
#31000
1-
#32000
b1111 K
b1111 {
b100000001000000000000000000000 0
b100000001000000000000000000000 ?
b100000001000000000000000000000 |
b1111 ,
b1111 4
0-
#33000
1-
#34000
b10000 K
b10000 {
b100001011100000000000000000000 0
b100001011100000000000000000000 ?
b100001011100000000000000000000 |
b10000 ,
b10000 4
0-
#35000
1-
#36000
b10001 K
b10001 {
b1110110000000000000000000001111 0
b1110110000000000000000000001111 ?
b1110110000000000000000000001111 |
b10001 ,
b10001 4
0-
#37000
1-
#38000
b10010 K
b10010 {
b100000011101010000000000000000 0
b100000011101010000000000000000 ?
b100000011101010000000000000000 |
b10010 ,
b10010 4
0-
#39000
1-
#40000
b10011 K
b10011 {
b100000001100000000000000000000 0
b100000001100000000000000000000 ?
b100000001100000000000000000000 |
b10011 ,
b10011 4
0-
#41000
1-
#42000
b10100 K
b10100 {
b100001011100000000000000000000 0
b100001011100000000000000000000 ?
b100001011100000000000000000000 |
b10100 ,
b10100 4
0-
#43000
1-
#44000
b10101 K
b10101 {
b1110011000000000000000000010011 0
b1110011000000000000000000010011 ?
b1110011000000000000000000010011 |
b10101 ,
b10101 4
0-
#45000
1-
#46000
b10110 K
b10110 {
b100000011101010000000000000000 0
b100000011101010000000000000000 ?
b100000011101010000000000000000 |
b10110 ,
b10110 4
0-
#47000
1-
#48000
b10111 K
b10111 {
b100000001100000000000000000000 0
b100000001100000000000000000000 ?
b100000001100000000000000000000 |
b10111 ,
b10111 4
0-
#49000
1-
#50000
b11000 K
b11000 {
b100001011100000000000000000000 0
b100001011100000000000000000000 ?
b100001011100000000000000000000 |
b11000 ,
b11000 4
0-
#51000
1-
#52000
b11001 K
b11001 {
b1110100000000000000000000010111 0
b1110100000000000000000000010111 ?
b1110100000000000000000000010111 |
b11001 ,
b11001 4
0-
#53000
1-
#54000
b11010 K
b11010 {
b100001011000000000000000000000 0
b100001011000000000000000000000 ?
b100001011000000000000000000000 |
b11010 ,
b11010 4
0-
#55000
1-
#56000
b11011 K
b11011 {
b100001011001110000000000000000 0
b100001011001110000000000000000 ?
b100001011001110000000000000000 |
b11011 ,
b11011 4
0-
#57000
1-
#58000
b11100 K
b11100 {
b1110001000000000000000000011010 0
b1110001000000000000000000011010 ?
b1110001000000000000000000011010 |
b11100 ,
b11100 4
0-
#59000
1-
#60000
b11101 K
b11101 {
b100001010100000000000000000000 0
b100001010100000000000000000000 ?
b100001010100000000000000000000 |
b11101 ,
b11101 4
0-
#61000
1-
#62000
b11110 K
b11110 {
b100001010101110000000000000000 0
b100001010101110000000000000000 ?
b100001010101110000000000000000 |
b11110 ,
b11110 4
0-
#63000
1-
#64000
b11111 K
b11111 {
b1110010000000000000000000011101 0
b1110010000000000000000000011101 ?
b1110010000000000000000000011101 |
b11111 ,
b11111 4
0-
#65000
1-
#66000
b0 K
b0 {
b0 0
b0 ?
b0 |
02
b0 ,
b0 4
0-
#67000
x[
1J
11
1-
#68000
0-
#69000
0[
0^
b0 T
b0 &"
bz V
bz '"
b0 \
b1 ]
b0 X
b0 #"
b1111 Y
b1111 ""
b111100000000000000000001 Z
b1 S
b1 K
b1 {
b10000111100000000000000000001 3
b10000111100000000000000000001 I
b10000111100000000000000000001 }
b1 n
x6
x`
bx q
bx 8
bx g
bx t
bx p
bx 7
bx f
bx s
1-
#70000
0-
#71000
b1 X
b1 #"
bx U
b0 N
bz O
bz u
b10 K
b10 {
b111100010000000000000010 Z
b10 S
xk
06
0`
b1 L
b1 h
b0 e
b1111 5
b1111 d
b0 b
b1 a
b10 n
b10000111100010000000000000010 3
b10000111100010000000000000010 I
b10000111100010000000000000010 }
1-
#72000
0-
#73000
b10 X
b10 #"
b0 U
b111100100000000000000011 Z
b11 S
b11 K
b11 {
b1 N
b10000111100100000000000000011 3
b10000111100100000000000000011 I
b10000111100100000000000000011 }
b11 n
b10 L
b10 h
b1 e
0k
b1111 ;
b1111 i
b1111 ~
b1 >
b1 m
b1 %"
b0 <
b0 j
b0 !"
1-
#74000
0-
#75000
b0 U
b11 X
b11 #"
b10 N
b100 K
b100 {
b111100110000000000000100 Z
b100 S
b10 >
b10 m
b10 %"
b1 <
b1 j
b1 !"
b11 L
b11 h
b10 e
b0 q
b0 8
b0 g
b0 t
b100 n
b10000111100110000000000000100 3
b10000111100110000000000000100 I
b10000111100110000000000000100 }
b1 *
b1 H
b1 /"
b1 0"
1-
#76000
0-
#77000
b100 X
b100 #"
b0 U
b111101000000000000000101 Z
b101 S
b101 K
b101 {
b11 N
b10000111101000000000000000101 3
b10000111101000000000000000101 I
b10000111101000000000000000101 }
b101 n
b100 L
b100 h
b11 e
b11 >
b11 m
b11 %"
b10 <
b10 j
b10 !"
b10 )
b10 G
b10 ."
b10 1"
1-
#78000
0-
#79000
b0 U
b101 X
b101 #"
b100 N
b110 K
b110 {
b111101010000000000000110 Z
b110 S
b100 >
b100 m
b100 %"
b11 <
b11 j
b11 !"
b101 L
b101 h
b100 e
b110 n
b10000111101010000000000000110 3
b10000111101010000000000000110 I
b10000111101010000000000000110 }
b11 (
b11 F
b11 -"
b11 2"
1-
#80000
0-
#81000
b110 X
b110 #"
b0 U
b111101100000000000000111 Z
b111 S
b111 K
b111 {
b101 N
b10000111101100000000000000111 3
b10000111101100000000000000111 I
b10000111101100000000000000111 }
b111 n
b110 L
b110 h
b101 e
b101 >
b101 m
b101 %"
b100 <
b100 j
b100 !"
b100 '
b100 E
b100 ,"
b100 3"
1-
#82000
0-
#83000
b0 U
b111 X
b111 #"
b110 N
b1000 K
b1000 {
b111101110000000000001000 Z
b1000 S
b110 >
b110 m
b110 %"
b101 <
b101 j
b101 !"
b111 L
b111 h
b110 e
b1000 n
b10000111101110000000000001000 3
b10000111101110000000000001000 I
b10000111101110000000000001000 }
b101 &
b101 D
b101 +"
b101 4"
1-
#84000
0-
#85000
1[
b1 W
b1 T
b1 &"
b1 V
b1 '"
b111 ]
b0 X
b0 #"
b0 Y
b0 ""
b1 U
b1010 Z
b1010 S
b1001 K
b1001 {
b111 N
b1110000000000000000000000001010 3
b1110000000000000000000000001010 I
b1110000000000000000000000001010 }
b1001 n
b1000 L
b1000 h
b111 e
b111 >
b111 m
b111 %"
b110 <
b110 j
b110 !"
b110 %
b110 C
b110 *"
b110 5"
1-
#86000
0-
#87000
0R
0z
0Q
0P
0y
0[
b0 +
b0 _
b0 w
0x
b1 r
b1 !
b1 :
b1 M
b1 v
b10 O
b10 u
b10 \
b1 ]
b1 W
b1 U
b1111 N
b1010 K
b1010 {
b0 Z
b0 S
b1000 >
b1000 m
b1000 %"
b111 <
b111 j
b111 !"
1c
b1010 L
b1010 h
b0 e
b0 5
b0 d
b1 q
b1 8
b1 g
b1 t
b1 p
b1 7
b1 f
b1 s
b10 a
b10 b
b1010 n
b100001011101100000000000000000 3
b100001011101100000000000000000 I
b100001011101100000000000000000 }
b111 $
b111 B
b111 )"
b111 6"
1-
#88000
0-
#89000
b111 U
b1000 W
b111 T
b111 &"
b1000 V
b1000 '"
b0 \
b10 ]
b110 X
b110 #"
b11101100000000000000000 Z
b111 Y
b111 ""
b1011 K
b1011 {
b100000011101100000000000000000 3
b100000011101100000000000000000 I
b100000011101100000000000000000 }
b1011 n
0c
b0 L
b0 h
b1 =
b1 l
b1 $"
b0 ;
b0 i
b0 ~
bz >
bz m
bz %"
b1111 <
b1111 j
b1111 !"
b1000 #
b1000 A
b1000 ("
b1000 7"
1-
#90000
0-
#91000
b1 U
b10 V
b10 '"
b1 T
b1 &"
b0 X
b0 #"
b100000000000000000000 Z
b1 Y
b1 ""
b1111 r
b1111 !
b1111 :
b1111 M
b1111 v
b10 W
b0 O
b0 u
b1100 K
b1100 {
b110 e
b111 5
b111 d
b111 q
b111 8
b111 g
b111 t
b1000 p
b1000 7
b1000 f
b1000 s
b0 b
b1100 n
b100000000100000000000000000000 3
b100000000100000000000000000000 I
b100000000100000000000000000000 }
1-
#92000
0-
#93000
b1000 V
b1000 '"
b1 \
b11100000000000000000000 Z
b111 Y
b111 ""
b1101 K
b1101 {
b1111 W
b11 r
b11 !
b11 :
b11 M
b11 v
b100001011100000000000000000000 3
b100001011100000000000000000000 I
b100001011100000000000000000000 }
b1101 n
b0 e
b1 5
b1 d
b1 q
b1 8
b1 g
b1 t
b10 p
b10 7
b10 f
b10 s
b1111 =
b1111 l
b1111 $"
b111 ;
b111 i
b111 ~
1-
#94000
0-
#95000
1[
0Q
b1 V
b1 '"
0P
0y
b101 \
b111 ]
b0 Y
b0 ""
b0 +
b0 _
b0 w
0x
b1 W
b1110 r
b1110 !
b1110 :
b1110 M
b1110 v
b1 O
b1 u
b1110 K
b1110 {
b1011 Z
b1011 S
b11 =
b11 l
b11 $"
b1 ;
b1 i
b1 ~
b111 5
b111 d
b1111 p
b1111 7
b1111 f
b1111 s
b1 b
b1110 n
b1110101000000000000000000001011 3
b1110101000000000000000000001011 I
b1110101000000000000000000001011 }
b1111 #
b1111 A
b1111 ("
b1111 7"
1-
#96000
0-
#97000
0[
0P
b0 +
b0 _
b0 w
0x
b10 \
b1 ]
b1 r
b1 !
b1 :
b1 M
b1 v
b10 O
b10 u
b0 Z
b0 S
b1011 K
b1011 {
b1 W
b1 U
b100000011101100000000000000000 3
b100000011101100000000000000000 I
b100000011101100000000000000000 }
b1011 n
1c
b1011 L
b1011 h
b0 5
b0 d
b1 p
b1 7
b1 f
b1 s
b10 b
b1110 =
b1110 l
b1110 $"
b111 ;
b111 i
b111 ~
b11 )
b11 G
b11 ."
b11 1"
1-
#98000
0-
#99000
b11 W
b11 V
b11 '"
b0 \
b10 ]
b100000000000000000000 Z
b1 Y
b1 ""
b1100 K
b1100 {
b1 =
b1 l
b1 $"
b0 ;
b0 i
b0 ~
0c
b0 L
b0 h
b1100 n
b100000000100000000000000000000 3
b100000000100000000000000000000 I
b100000000100000000000000000000 }
b1110 #
b1110 A
b1110 ("
b1110 7"
1-
#100000
0-
#101000
b1110 V
b1110 '"
b1 \
b11100000000000000000000 Z
b111 Y
b111 ""
b100 r
b100 !
b100 :
b100 M
b100 v
b1101 K
b1101 {
b1110 W
b0 O
b0 u
b100001011100000000000000000000 3
b100001011100000000000000000000 I
b100001011100000000000000000000 }
b1101 n
b1 5
b1 d
b11 p
b11 7
b11 f
b11 s
b0 b
1-
#102000
0-
#103000
1[
0Q
b1 V
b1 '"
0P
0y
b101 \
b111 ]
b0 Y
b0 ""
b0 +
b0 _
b0 w
0x
b1 W
b1101 r
b1101 !
b1101 :
b1101 M
b1101 v
b1 O
b1 u
b1110 K
b1110 {
b1011 Z
b1011 S
b100 =
b100 l
b100 $"
b1 ;
b1 i
b1 ~
b111 5
b111 d
b1110 p
b1110 7
b1110 f
b1110 s
b1 b
b1110 n
b1110101000000000000000000001011 3
b1110101000000000000000000001011 I
b1110101000000000000000000001011 }
1-
#104000
0-
#105000
0[
0P
b0 +
b0 _
b0 w
0x
b10 \
b1 ]
b1 r
b1 !
b1 :
b1 M
b1 v
b10 O
b10 u
b0 Z
b0 S
b1011 K
b1011 {
b1 W
b1 U
b100000011101100000000000000000 3
b100000011101100000000000000000 I
b100000011101100000000000000000 }
b1011 n
1c
b1011 L
b1011 h
b0 5
b0 d
b1 p
b1 7
b1 f
b1 s
b10 b
b1101 =
b1101 l
b1101 $"
b111 ;
b111 i
b111 ~
b100 )
b100 G
b100 ."
b100 1"
1-
#106000
0-
#107000
b100 W
b100 V
b100 '"
b0 \
b10 ]
b100000000000000000000 Z
b1 Y
b1 ""
b1100 K
b1100 {
b1 =
b1 l
b1 $"
b0 ;
b0 i
b0 ~
0c
b0 L
b0 h
b1100 n
b100000000100000000000000000000 3
b100000000100000000000000000000 I
b100000000100000000000000000000 }
b1101 #
b1101 A
b1101 ("
b1101 7"
1-
#108000
0-
#109000
b1101 V
b1101 '"
b1 \
b11100000000000000000000 Z
b111 Y
b111 ""
b101 r
b101 !
b101 :
b101 M
b101 v
b1101 K
b1101 {
b1101 W
b0 O
b0 u
b100001011100000000000000000000 3
b100001011100000000000000000000 I
b100001011100000000000000000000 }
b1101 n
b1 5
b1 d
b100 p
b100 7
b100 f
b100 s
b0 b
1-
#110000
0-
#111000
1[
0Q
b1 V
b1 '"
0P
0y
b101 \
b111 ]
b0 Y
b0 ""
b0 +
b0 _
b0 w
0x
b1 W
b1100 r
b1100 !
b1100 :
b1100 M
b1100 v
b1 O
b1 u
b1110 K
b1110 {
b1011 Z
b1011 S
b101 =
b101 l
b101 $"
b1 ;
b1 i
b1 ~
b111 5
b111 d
b1101 p
b1101 7
b1101 f
b1101 s
b1 b
b1110 n
b1110101000000000000000000001011 3
b1110101000000000000000000001011 I
b1110101000000000000000000001011 }
1-
#112000
0-
#113000
0[
0P
b0 +
b0 _
b0 w
0x
b10 \
b1 ]
b1 r
b1 !
b1 :
b1 M
b1 v
b10 O
b10 u
b0 Z
b0 S
b1011 K
b1011 {
b1 W
b1 U
b100000011101100000000000000000 3
b100000011101100000000000000000 I
b100000011101100000000000000000 }
b1011 n
1c
b1011 L
b1011 h
b0 5
b0 d
b1 p
b1 7
b1 f
b1 s
b10 b
b1100 =
b1100 l
b1100 $"
b111 ;
b111 i
b111 ~
b101 )
b101 G
b101 ."
b101 1"
1-
#114000
0-
#115000
b101 W
b101 V
b101 '"
b0 \
b10 ]
b100000000000000000000 Z
b1 Y
b1 ""
b1100 K
b1100 {
b1 =
b1 l
b1 $"
b0 ;
b0 i
b0 ~
0c
b0 L
b0 h
b1100 n
b100000000100000000000000000000 3
b100000000100000000000000000000 I
b100000000100000000000000000000 }
b1100 #
b1100 A
b1100 ("
b1100 7"
1-
#116000
0-
#117000
b1100 V
b1100 '"
b1 \
b11100000000000000000000 Z
b111 Y
b111 ""
b110 r
b110 !
b110 :
b110 M
b110 v
b1101 K
b1101 {
b1100 W
b0 O
b0 u
b100001011100000000000000000000 3
b100001011100000000000000000000 I
b100001011100000000000000000000 }
b1101 n
b1 5
b1 d
b101 p
b101 7
b101 f
b101 s
b0 b
1-
#118000
0-
#119000
1[
0Q
b1 V
b1 '"
0P
0y
b101 \
b111 ]
b0 Y
b0 ""
b0 +
b0 _
b0 w
0x
b1 W
b1011 r
b1011 !
b1011 :
b1011 M
b1011 v
b1 O
b1 u
b1110 K
b1110 {
b1011 Z
b1011 S
b110 =
b110 l
b110 $"
b1 ;
b1 i
b1 ~
b111 5
b111 d
b1100 p
b1100 7
b1100 f
b1100 s
b1 b
b1110 n
b1110101000000000000000000001011 3
b1110101000000000000000000001011 I
b1110101000000000000000000001011 }
1-
#120000
0-
#121000
0[
0P
b0 +
b0 _
b0 w
0x
b10 \
b1 ]
b1 r
b1 !
b1 :
b1 M
b1 v
b10 O
b10 u
b0 Z
b0 S
b1011 K
b1011 {
b1 W
b1 U
b100000011101100000000000000000 3
b100000011101100000000000000000 I
b100000011101100000000000000000 }
b1011 n
1c
b1011 L
b1011 h
b0 5
b0 d
b1 p
b1 7
b1 f
b1 s
b10 b
b1011 =
b1011 l
b1011 $"
b111 ;
b111 i
b111 ~
b110 )
b110 G
b110 ."
b110 1"
1-
#122000
0-
#123000
b110 W
b110 V
b110 '"
b0 \
b10 ]
b100000000000000000000 Z
b1 Y
b1 ""
b1100 K
b1100 {
b1 =
b1 l
b1 $"
b0 ;
b0 i
b0 ~
0c
b0 L
b0 h
b1100 n
b100000000100000000000000000000 3
b100000000100000000000000000000 I
b100000000100000000000000000000 }
b1011 #
b1011 A
b1011 ("
b1011 7"
1-
#124000
0-
#125000
b1011 V
b1011 '"
b1 \
b11100000000000000000000 Z
b111 Y
b111 ""
b111 r
b111 !
b111 :
b111 M
b111 v
b1101 K
b1101 {
b1011 W
b0 O
b0 u
b100001011100000000000000000000 3
b100001011100000000000000000000 I
b100001011100000000000000000000 }
b1101 n
b1 5
b1 d
b110 p
b110 7
b110 f
b110 s
b0 b
1-
#126000
0-
#127000
1[
0Q
b1 V
b1 '"
0P
0y
b101 \
b111 ]
b0 Y
b0 ""
b0 +
b0 _
b0 w
0x
b1 W
b1010 r
b1010 !
b1010 :
b1010 M
b1010 v
b1 O
b1 u
b1110 K
b1110 {
b1011 Z
b1011 S
b111 =
b111 l
b111 $"
b1 ;
b1 i
b1 ~
b111 5
b111 d
b1011 p
b1011 7
b1011 f
b1011 s
b1 b
b1110 n
b1110101000000000000000000001011 3
b1110101000000000000000000001011 I
b1110101000000000000000000001011 }
1-
#128000
0-
#129000
0[
0P
b0 +
b0 _
b0 w
0x
b10 \
b1 ]
b1 r
b1 !
b1 :
b1 M
b1 v
b10 O
b10 u
b0 Z
b0 S
b1011 K
b1011 {
b1 W
b1 U
b100000011101100000000000000000 3
b100000011101100000000000000000 I
b100000011101100000000000000000 }
b1011 n
1c
b1011 L
b1011 h
b0 5
b0 d
b1 p
b1 7
b1 f
b1 s
b10 b
b1010 =
b1010 l
b1010 $"
b111 ;
b111 i
b111 ~
b111 )
b111 G
b111 ."
b111 1"
1-
#130000
0-
#131000
b111 W
b111 V
b111 '"
b0 \
b10 ]
b100000000000000000000 Z
b1 Y
b1 ""
b1100 K
b1100 {
b1 =
b1 l
b1 $"
b0 ;
b0 i
b0 ~
0c
b0 L
b0 h
b1100 n
b100000000100000000000000000000 3
b100000000100000000000000000000 I
b100000000100000000000000000000 }
b1010 #
b1010 A
b1010 ("
b1010 7"
1-
#132000
0-
#133000
b1010 V
b1010 '"
b1 \
b11100000000000000000000 Z
b111 Y
b111 ""
b1000 r
b1000 !
b1000 :
b1000 M
b1000 v
b1101 K
b1101 {
b1010 W
b0 O
b0 u
b100001011100000000000000000000 3
b100001011100000000000000000000 I
b100001011100000000000000000000 }
b1101 n
b1 5
b1 d
b111 p
b111 7
b111 f
b111 s
b0 b
1-
#134000
0-
#135000
1[
0Q
b1 V
b1 '"
0P
0y
b101 \
b111 ]
b0 Y
b0 ""
b0 +
b0 _
b0 w
0x
b1 W
b1001 r
b1001 !
b1001 :
b1001 M
b1001 v
b1 O
b1 u
b1110 K
b1110 {
b1011 Z
b1011 S
b1000 =
b1000 l
b1000 $"
b1 ;
b1 i
b1 ~
b111 5
b111 d
b1010 p
b1010 7
b1010 f
b1010 s
b1 b
b1110 n
b1110101000000000000000000001011 3
b1110101000000000000000000001011 I
b1110101000000000000000000001011 }
1-
#136000
0-
#137000
0[
0P
b0 +
b0 _
b0 w
0x
b10 \
b1 ]
b1 r
b1 !
b1 :
b1 M
b1 v
b10 O
b10 u
b0 Z
b0 S
b1011 K
b1011 {
b1 W
b1 U
b100000011101100000000000000000 3
b100000011101100000000000000000 I
b100000011101100000000000000000 }
b1011 n
1c
b1011 L
b1011 h
b0 5
b0 d
b1 p
b1 7
b1 f
b1 s
b10 b
b1001 =
b1001 l
b1001 $"
b111 ;
b111 i
b111 ~
b1000 )
b1000 G
b1000 ."
b1000 1"
1-
#138000
0-
#139000
b1000 W
b1000 V
b1000 '"
b0 \
b10 ]
b100000000000000000000 Z
b1 Y
b1 ""
b1100 K
b1100 {
b1 =
b1 l
b1 $"
b0 ;
b0 i
b0 ~
0c
b0 L
b0 h
b1100 n
b100000000100000000000000000000 3
b100000000100000000000000000000 I
b100000000100000000000000000000 }
b1001 #
b1001 A
b1001 ("
b1001 7"
1-
#140000
0-
#141000
b1001 V
b1001 '"
b1 \
b11100000000000000000000 Z
b111 Y
b111 ""
b1001 r
b1001 !
b1001 :
b1001 M
b1001 v
b1101 K
b1101 {
b1001 W
b0 O
b0 u
b100001011100000000000000000000 3
b100001011100000000000000000000 I
b100001011100000000000000000000 }
b1101 n
b1 5
b1 d
b1000 p
b1000 7
b1000 f
b1000 s
b0 b
1-
#142000
0-
#143000
1[
0Q
b1 V
b1 '"
0P
0y
b101 \
b111 ]
b0 Y
b0 ""
b0 +
b0 _
b0 w
0x
b1 W
b1000 r
b1000 !
b1000 :
b1000 M
b1000 v
b1 O
b1 u
b1110 K
b1110 {
b1011 Z
b1011 S
b1001 =
b1001 l
b1001 $"
b1 ;
b1 i
b1 ~
b111 5
b111 d
b1001 p
b1001 7
b1001 f
b1001 s
b1 b
b1110 n
b1110101000000000000000000001011 3
b1110101000000000000000000001011 I
b1110101000000000000000000001011 }
1-
#144000
0-
#145000
0[
0P
b0 +
b0 _
b0 w
0x
b10 \
b1 ]
b1 r
b1 !
b1 :
b1 M
b1 v
b10 O
b10 u
b0 Z
b0 S
b1011 K
b1011 {
b1 W
b1 U
b100000011101100000000000000000 3
b100000011101100000000000000000 I
b100000011101100000000000000000 }
b1011 n
1c
b1011 L
b1011 h
b0 5
b0 d
b1 p
b1 7
b1 f
b1 s
b10 b
b1000 =
b1000 l
b1000 $"
b111 ;
b111 i
b111 ~
b1001 )
b1001 G
b1001 ."
b1001 1"
1-
#146000
0-
