tb/Pics/Task3/pro_tb3.vcd
$date
	Tue May 31 14:02:45 2022
$end
$version
	Icarus Verilog
$end
$timescale
	10ps
$end
$scope module pro_tb2 $end
$var wire 32 ! valB [31:0] $end
$var wire 32 " valA [31:0] $end
$var wire 32 # r7 [31:0] $end
$var wire 32 $ r6 [31:0] $end
$var wire 32 % r5 [31:0] $end
$var wire 32 & r4 [31:0] $end
$var wire 32 ' r3 [31:0] $end
$var wire 32 ( r2 [31:0] $end
$var wire 32 ) r1 [31:0] $end
$var wire 32 * r0 [31:0] $end
$var reg 9 + addr [8:0] $end
$var reg 1 , clock $end
$var reg 32 - wdata [31:0] $end
$var reg 1 . working $end
$var reg 1 / wr $end
$scope module processor $end
$var wire 32 0 F_read [31:0] $end
$var wire 9 1 addr [8:0] $end
$var wire 1 , clock $end
$var wire 4 2 d_rA [3:0] $end
$var wire 4 3 d_rB [3:0] $end
$var wire 32 4 valA [31:0] $end
$var wire 32 5 valB [31:0] $end
$var wire 32 6 wdata [31:0] $end
$var wire 1 . working $end
$var wire 1 / wr $end
$var wire 32 7 rdata [31:0] $end
$var wire 1 8 rd $end
$var wire 32 9 r7 [31:0] $end
$var wire 32 : r6 [31:0] $end
$var wire 32 ; r5 [31:0] $end
$var wire 32 < r4 [31:0] $end
$var wire 32 = r3 [31:0] $end
$var wire 32 > r2 [31:0] $end
$var wire 32 ? r1 [31:0] $end
$var wire 32 @ r0 [31:0] $end
$var wire 32 A d_valB [31:0] $end
$var wire 32 B d_valA [31:0] $end
$var wire 9 C addr_w [8:0] $end
$var reg 4 D D_icode [3:0] $end
$var reg 4 E D_ifun [3:0] $end
$var reg 4 F D_rA [3:0] $end
$var reg 4 G D_rB [3:0] $end
$var reg 32 H D_valA [31:0] $end
$var reg 32 I D_valB [31:0] $end
$var reg 16 J D_valC [15:0] $end
$var reg 4 K E_dstM [3:0] $end
$var reg 32 L E_valM [31:0] $end
$var reg 9 M PC [8:0] $end
$var reg 1 N e_reg_rst $end
$var reg 4 O w_dstM [3:0] $end
$var reg 32 P w_valM [31:0] $end
$scope module ram $end
$var wire 9 Q addr [8:0] $end
$var wire 1 , clock $end
$var wire 1 8 rd $end
$var wire 32 R wdata [31:0] $end
$var wire 1 / wr $end
$var reg 32 S rdata [31:0] $end
$upscope $end
$scope module regfile $end
$var wire 1 , clock $end
$var wire 4 T dstE [3:0] $end
$var wire 4 U dstM [3:0] $end
$var wire 32 V r0 [31:0] $end
$var wire 32 W r1 [31:0] $end
$var wire 32 X r2 [31:0] $end
$var wire 32 Y r3 [31:0] $end
$var wire 32 Z r4 [31:0] $end
$var wire 32 [ r5 [31:0] $end
$var wire 32 \ r6 [31:0] $end
$var wire 32 ] r7 [31:0] $end
$var wire 4 ^ rA [3:0] $end
$var wire 4 _ rB [3:0] $end
$var wire 1 N reset $end
$var wire 32 ` valA [31:0] $end
$var wire 32 a valB [31:0] $end
$var wire 32 b valE [31:0] $end
$var wire 32 c valM [31:0] $end
$var reg 32 d r_r0 [31:0] $end
$var reg 32 e r_r1 [31:0] $end
$var reg 32 f r_r2 [31:0] $end
$var reg 32 g r_r3 [31:0] $end
$var reg 32 h r_r4 [31:0] $end
$var reg 32 i r_r5 [31:0] $end
$var reg 32 j r_r6 [31:0] $end
$var reg 32 k r_r7 [31:0] $end
$var reg 32 l r_valA [31:0] $end
$var reg 32 m r_valB [31:0] $end
$upscope $end
$upscope $end
$upscope $end
$enddefinitions $end
#0
$dumpvars
bx m
bx l
bx k
bx j
bx i
bx h
bx g
bx f
bx e
bx d
bz c
bz b
bx a
bx `
bz _
bz ^
bx ]
bx \
bx [
bx Z
bx Y
bx X
bx W
bx V
bz U
bz T
bz S
b0 R
b0 Q
bz P
bz O
1N
b0 M
bz L
bz K
bz J
bz I
bz H
bz G
bz F
bz E
bz D
b0 C
bx B
bx A
bx @
bx ?
bx >
bx =
bx <
bx ;
bx :
bx 9
08
bz 7
b0 6
bx 5
bx 4
bz 3
bz 2
b0 1
bz 0
0/
0.
b0 -
0,
b0 +
bx *
bx )
bx (
bx '
bx &
bx %
bx $
bx #
bx "
bx !
$end
#1000
b0 #
b0 9
b0 ]
b0 k
b0 $
b0 :
b0 \
b0 j
b0 %
b0 ;
b0 [
b0 i
b0 &
b0 <
b0 Z
b0 h
b0 '
b0 =
b0 Y
b0 g
b0 (
b0 >
b0 X
b0 f
b0 )
b0 ?
b0 W
b0 e
b0 *
b0 @
b0 V
b0 d
b0 !
b0 5
b0 A
b0 a
b0 m
b0 "
b0 4
b0 B
b0 `
b0 l
1,
#2000
bz !
bz 5
bz A
bz a
bz m
bz "
bz 4
bz B
bz `
bz l
b10000111100000000000010000000 -
b10000111100000000000010000000 6
b10000111100000000000010000000 R
1/
0N
0,
#3000
1,
#4000
b1 C
b1 Q
b10000111100010000000010000001 -
b10000111100010000000010000001 6
b10000111100010000000010000001 R
b1 +
b1 1
0,
#5000
1,
#6000
b10 C
b10 Q
b10000111100100000000010000010 -
b10000111100100000000010000010 6
b10000111100100000000010000010 R
b10 +
b10 1
0,
#7000
1,
#8000
b11 C
b11 Q
b10000111100110000000010000011 -
b10000111100110000000010000011 6
b10000111100110000000010000011 R
b11 +
b11 1
0,
#9000
1,
#10000
b100 C
b100 Q
b10000111101000000000010000100 -
b10000111101000000000010000100 6
b10000111101000000000010000100 R
b100 +
b100 1
0,
#11000
1,
#12000
b101 C
b101 Q
b10000111101010000000010000101 -
b10000111101010000000010000101 6
b10000111101010000000010000101 R
b101 +
b101 1
0,
#13000
1,
#14000
b110 C
b110 Q
b10000111101100000000010000110 -
b10000111101100000000010000110 6
b10000111101100000000010000110 R
b110 +
b110 1
0,
#15000
1,
#16000
b111 C
b111 Q
b10000111101110000000010000111 -
b10000111101110000000010000111 6
b10000111101110000000010000111 R
b111 +
b111 1
0,
#17000
1,
#18000
b1000 C
b1000 Q
b100000000000010000000000000000 -
b100000000000010000000000000000 6
b100000000000010000000000000000 R
b1000 +
b1000 1
0,
#19000
1,
#20000
b1001 C
b1001 Q
b100001001000110000000000000000 -
b100001001000110000000000000000 6
b100001001000110000000000000000 R
b1001 +
b1001 1
0,
#21000
1,
#22000
b1010 C
b1010 Q
b100010010001010000000000000000 -
b100010010001010000000000000000 6
b100010010001010000000000000000 R
b1010 +
b1010 1
0,
#23000
1,
#24000
b1011 C
b1011 Q
b100011011001110000000000000000 -
b100011011001110000000000000000 6
b100011011001110000000000000000 R
b1011 +
b1011 1
0,
#25000
1,
#26000
b0 C
b0 Q
b0 -
b0 6
b0 R
0/
b0 +
b0 1
0,
#27000
18
1.
1,
#28000
0,
#29000
b1 C
b1 Q
b10000111100000000000010000000 0
b10000111100000000000010000000 7
b10000111100000000000010000000 S
b1 M
1,
#30000
0,
#31000
b10 C
b10 Q
b10000000 J
b0 3
b0 _
b0 G
b1111 2
b1111 ^
b1111 F
b0 E
b1 D
b10 M
b10000111100010000000010000001 0
b10000111100010000000010000001 7
b10000111100010000000010000001 S
1,
#32000
0,
#33000
b11 C
b11 Q
b10000111100100000000010000010 0
b10000111100100000000010000010 7
b10000111100100000000010000010 S
b11 M
b10000001 J
b1 3
b1 _
b1 G
b10000000 L
b0 K
b0 !
b0 5
b0 A
b0 a
b0 m
1,
#34000
0,
#35000
b100 C
b100 Q
b10000000 P
b10000000 c
b0 O
b0 U
b10000001 L
b1 K
b0 I
b10000010 J
b10 3
b10 _
b10 G
b100 M
b10000111100110000000010000011 0
b10000111100110000000010000011 7
b10000111100110000000010000011 S
1,
#36000
0,
#37000
b101 C
b101 Q
b10000111101000000000010000100 0
b10000111101000000000010000100 7
b10000111101000000000010000100 S
b101 M
b10000011 J
b11 3
b11 _
b11 G
b10000010 L
b10 K
b10000001 P
b10000001 c
b1 O
b1 U
b10000000 *
b10000000 @
b10000000 V
b10000000 d
1,
#38000
0,
#39000
b110 C
b110 Q
b10000010 P
b10000010 c
b10 O
b10 U
b10000011 L
b11 K
b10000100 J
b100 3
b100 _
b100 G
b110 M
b10000111101010000000010000101 0
b10000111101010000000010000101 7
b10000111101010000000010000101 S
b10000001 )
b10000001 ?
b10000001 W
b10000001 e
1,
#40000
0,
#41000
b111 C
b111 Q
b10000111101100000000010000110 0
b10000111101100000000010000110 7
b10000111101100000000010000110 S
b111 M
b10000101 J
b101 3
b101 _
b101 G
b10000100 L
b100 K
b10000011 P
b10000011 c
b11 O
b11 U
b10000010 (
b10000010 >
b10000010 X
b10000010 f
1,
#42000
0,
#43000
b1000 C
b1000 Q
b10000100 P
b10000100 c
b100 O
b100 U
b10000101 L
b101 K
b10000110 J
b110 3
b110 _
b110 G
b1000 M
b10000111101110000000010000111 0
b10000111101110000000010000111 7
b10000111101110000000010000111 S
b10000011 '
b10000011 =
b10000011 Y
b10000011 g
1,
#44000
0,
#45000
b1001 C
b1001 Q
b100000000000010000000000000000 0
b100000000000010000000000000000 7
b100000000000010000000000000000 S
b1001 M
b10000111 J
b111 3
b111 _
b111 G
b10000110 L
b110 K
b10000101 P
b10000101 c
b101 O
b101 U
b10000100 &
b10000100 <
b10000100 Z
b10000100 h
1,
#46000
0,
#47000
b1010 C
b1010 Q
b10000110 P
b10000110 c
b110 O
b110 U
b10000111 L
b111 K
b0 J
b1 3
b1 _
b1 G
b0 2
b0 ^
b0 F
b10 D
b1010 M
b100001001000110000000000000000 0
b100001001000110000000000000000 7
b100001001000110000000000000000 S
b10000101 %
b10000101 ;
b10000101 [
b10000101 i
1,
#48000
0,
#49000
b1011 C
b1011 Q
b100010010001010000000000000000 0
b100010010001010000000000000000 7
b100010010001010000000000000000 S
b1011 M
b11 3
b11 _
b11 G
b10 2
b10 ^
b10 F
b1 E
b10000111 P
b10000111 c
b111 O
b111 U
b10000001 !
b10000001 5
b10000001 A
b10000001 a
b10000001 m
b10000000 "
b10000000 4
b10000000 B
b10000000 `
b10000000 l
b10000110 $
b10000110 :
b10000110 \
b10000110 j
1,
#50000
0,
#51000
b1100 C
b1100 Q
b10000001 I
b10000000 H
b101 3
b101 _
b101 G
b100 2
b100 ^
b100 F
b10 E
b1100 M
b100011011001110000000000000000 0
b100011011001110000000000000000 7
b100011011001110000000000000000 S
b10000011 !
b10000011 5
b10000011 A
b10000011 a
b10000011 m
b10000010 "
b10000010 4
b10000010 B
b10000010 `
b10000010 l
b10000111 #
b10000111 9
b10000111 ]
b10000111 k
1,
#52000
0,
#53000
b1101 C
b1101 Q
bx 0
bx 7
bx S
b1101 M
b10000011 I
b10000010 H
b111 3
b111 _
b111 G
b110 2
b110 ^
b110 F
b11 E
b10000101 !
b10000101 5
b10000101 A
b10000101 a
b10000101 m
b10000100 "
b10000100 4
b10000100 B
b10000100 `
b10000100 l
1,
#54000
0,
#55000
b1110 C
b1110 Q
b10000101 I
b10000100 H
bx J
bx 3
bx _
bx G
bx 2
bx ^
bx F
bx E
bx D
b1110 M
b10000111 !
b10000111 5
b10000111 A
b10000111 a
b10000111 m
b10000110 "
b10000110 4
b10000110 B
b10000110 `
b10000110 l
1,
#56000
0,
#57000
b1111 C
b1111 Q
b1111 M
b10000111 I
b10000110 H
bz !
bz 5
bz A
bz a
bz m
bz "
bz 4
bz B
bz `
bz l
1,
#58000
0,
#59000
b10000 C
b10000 Q
bz I
bz H
b10000 M
1,
#60000
0,
#61000
b10001 C
b10001 Q
b10001 M
1,
#62000
0,
#63000
b10010 C
b10010 Q
b10010 M
1,
#64000
0,
#65000
b10011 C
b10011 Q
b10011 M
1,
#66000
0,
#67000
b10100 C
b10100 Q
b10100 M
1,
#68000
0,
#69000
b10101 C
b10101 Q
b10101 M
1,
#70000
0,
#71000
b10110 C
b10110 Q
b10110 M
1,
#72000
0,
#73000
b10111 C
b10111 Q
b10111 M
1,
#74000
0,
#75000
b11000 C
b11000 Q
b11000 M
1,
