tb/Simulations/pro_tbe2.vcd
$date
	Thu Jun 02 20:51:46 2022
$end
$version
	Icarus Verilog
$end
$timescale
	10ps
$end
$scope module pro_tb4 $end
$var wire 32 ! valE [31:0] $end
$var wire 32 " rdata [31:0] $end
$var wire 32 # r7 [31:0] $end
$var wire 32 $ r6 [31:0] $end
$var wire 32 % r5 [31:0] $end
$var wire 32 & r4 [31:0] $end
$var wire 32 ' r3 [31:0] $end
$var wire 32 ( r2 [31:0] $end
$var wire 32 ) r1 [31:0] $end
$var wire 32 * r0 [31:0] $end
$var wire 3 + cc [2:0] $end
$var reg 9 , addr [8:0] $end
$var reg 1 - clock $end
$var reg 1 . flg $end
$var reg 4 / rID [3:0] $end
$var reg 32 0 wdata [31:0] $end
$var reg 1 1 working $end
$var reg 1 2 wr $end
$scope module processor $end
$var wire 32 3 F_read [31:0] $end
$var wire 9 4 addr [8:0] $end
$var wire 1 - clock $end
$var wire 4 5 e_dstE [3:0] $end
$var wire 1 6 e_halt $end
$var wire 32 7 e_valA [31:0] $end
$var wire 32 8 e_valB [31:0] $end
$var wire 4 9 rID [3:0] $end
$var wire 32 : valE [31:0] $end
$var wire 32 ; wdata [31:0] $end
$var wire 1 1 working $end
$var wire 1 2 wr $end
$var wire 32 < rdata [31:0] $end
$var wire 32 = r7 [31:0] $end
$var wire 32 > r6 [31:0] $end
$var wire 32 ? r5 [31:0] $end
$var wire 32 @ r4 [31:0] $end
$var wire 32 A r3 [31:0] $end
$var wire 32 B r2 [31:0] $end
$var wire 32 C r1 [31:0] $end
$var wire 32 D r0 [31:0] $end
$var wire 32 E f_rdata [31:0] $end
$var wire 1 F f_rd $end
$var wire 9 G f_addr [8:0] $end
$var wire 32 H e_valE [31:0] $end
$var wire 4 I e_alufun [3:0] $end
$var wire 32 J d_valB_reg [31:0] $end
$var wire 32 K d_valB [31:0] $end
$var wire 32 L d_valA_reg [31:0] $end
$var wire 32 M d_valA [31:0] $end
$var wire 1 N d_halt $end
$var wire 3 O cc [2:0] $end
$var reg 1 P D_halt $end
$var reg 4 Q D_icode [3:0] $end
$var reg 4 R D_ifun [3:0] $end
$var reg 4 S D_rA [3:0] $end
$var reg 4 T D_rB [3:0] $end
$var reg 32 U D_valA [31:0] $end
$var reg 32 V D_valB [31:0] $end
$var reg 16 W D_valC [15:0] $end
$var reg 4 X E_dstE [3:0] $end
$var reg 4 Y E_dstM [3:0] $end
$var reg 1 Z E_halt $end
$var reg 32 [ E_valE [31:0] $end
$var reg 32 \ E_valM [31:0] $end
$var reg 9 ] PC [8:0] $end
$var reg 4 ^ d_icode [3:0] $end
$var reg 4 _ d_ifun [3:0] $end
$var reg 4 ` d_rA [3:0] $end
$var reg 4 a d_rB [3:0] $end
$var reg 16 b d_valC [15:0] $end
$var reg 1 c e_reg_rst $end
$var reg 4 d w_dstE [3:0] $end
$var reg 4 e w_dstM [3:0] $end
$var reg 32 f w_valE [31:0] $end
$var reg 32 g w_valM [31:0] $end
$scope module alu $end
$var wire 32 h A [31:0] $end
$var wire 32 i B [31:0] $end
$var wire 32 j E [31:0] $end
$var wire 32 k aluA [31:0] $end
$var wire 32 l aluB [31:0] $end
$var wire 4 m alufun [3:0] $end
$var wire 32 n valE [31:0] $end
$var wire 3 o cc [2:0] $end
$var wire 1 p ZF $end
$var wire 1 q SF $end
$var wire 1 r OF $end
$upscope $end
$scope module ram $end
$var wire 9 s addr [8:0] $end
$var wire 1 - clock $end
$var wire 1 F rd $end
$var wire 32 t wdata [31:0] $end
$var wire 1 2 wr $end
$var reg 32 u rdata [31:0] $end
$upscope $end
$scope module regfile $end
$var wire 1 - clock $end
$var wire 4 v dstE [3:0] $end
$var wire 4 w dstM [3:0] $end
$var wire 4 x rA [3:0] $end
$var wire 4 y rB [3:0] $end
$var wire 1 c reset $end
$var wire 32 z valE [31:0] $end
$var wire 32 { valM [31:0] $end
$var wire 32 | valB [31:0] $end
$var wire 32 } valA [31:0] $end
$var wire 32 ~ r7 [31:0] $end
$var wire 32 !" r6 [31:0] $end
$var wire 32 "" r5 [31:0] $end
$var wire 32 #" r4 [31:0] $end
$var wire 32 $" r3 [31:0] $end
$var wire 32 %" r2 [31:0] $end
$var wire 32 &" r1 [31:0] $end
$var wire 32 '" r0 [31:0] $end
$var reg 32 (" r_r0 [31:0] $end
$var reg 32 )" r_r1 [31:0] $end
$var reg 32 *" r_r2 [31:0] $end
$var reg 32 +" r_r3 [31:0] $end
$var reg 32 ," r_r4 [31:0] $end
$var reg 32 -" r_r5 [31:0] $end
$var reg 32 ." r_r6 [31:0] $end
$var reg 32 /" r_r7 [31:0] $end
$upscope $end
$upscope $end
$upscope $end
$enddefinitions $end
#0
$dumpvars
bx /"
bx ."
bx -"
bx ,"
bx +"
bx *"
bx )"
bx ("
bx '"
bx &"
bx %"
bx $"
bx #"
bx ""
bx !"
bx ~
bx }
bx |
bz {
bz z
bz y
bz x
bz w
bz v
bz u
b0 t
b0 s
xr
xq
xp
bx o
bx n
bx m
bz l
bz k
bx j
bz i
bz h
bz g
bz f
bz e
bz d
1c
bz b
bz a
bz `
bz _
bz ^
b0 ]
bz \
bz [
zZ
bz Y
bz X
bz W
bz V
bz U
bz T
bz S
bz R
bz Q
zP
bx O
xN
bx M
bx L
bx K
bx J
bx I
bx H
b0 G
0F
bz E
bx D
bx C
bx B
bx A
bx @
bx ?
bx >
bx =
bz <
b0 ;
bx :
b1111 9
bz 8
bz 7
z6
bz 5
b0 4
bz 3
02
01
b0 0
b1111 /
0.
0-
b0 ,
bx +
bx *
bx )
bx (
bx '
bx &
bx %
bx $
bx #
bz "
bx !
$end
#1000
bx [
b1111 Y
b0 #
b0 =
b0 ~
b0 /"
b0 $
b0 >
b0 !"
b0 ."
b0 %
b0 ?
b0 ""
b0 -"
b0 &
b0 @
b0 #"
b0 ,"
b0 '
b0 A
b0 $"
b0 +"
b0 (
b0 B
b0 %"
b0 *"
b0 )
b0 C
b0 &"
b0 )"
b0 *
b0 D
b0 '"
b0 ("
1-
#2000
b10000111100000000000010000000 0
b10000111100000000000010000000 ;
b10000111100000000000010000000 t
12
0c
0-
#3000
bx f
bx z
b1111 e
b1111 w
1-
#4000
b1 G
b1 s
b10000111100010000000010000001 0
b10000111100010000000010000001 ;
b10000111100010000000010000001 t
b1 ,
b1 4
0-
#5000
1-
#6000
b10 G
b10 s
b10000111100100000000010000010 0
b10000111100100000000010000010 ;
b10000111100100000000010000010 t
b10 ,
b10 4
0-
#7000
1-
#8000
b11 G
b11 s
b10000111100110000000010000011 0
b10000111100110000000010000011 ;
b10000111100110000000010000011 t
b11 ,
b11 4
0-
#9000
1-
#10000
b100 G
b100 s
b10000111101000000000010000100 0
b10000111101000000000010000100 ;
b10000111101000000000010000100 t
b100 ,
b100 4
0-
#11000
1-
#12000
b101 G
b101 s
b10000111101010000000010000101 0
b10000111101010000000010000101 ;
b10000111101010000000010000101 t
b101 ,
b101 4
0-
#13000
1-
#14000
b110 G
b110 s
b10000111101100000000010000110 0
b10000111101100000000010000110 ;
b10000111101100000000010000110 t
b110 ,
b110 4
0-
#15000
1-
#16000
b111 G
b111 s
b10000111101110000000010000111 0
b10000111101110000000010000111 ;
b10000111101110000000010000111 t
b111 ,
b111 4
0-
#17000
1-
#18000
b1000 G
b1000 s
b100000000100000000000000000000 0
b100000000100000000000000000000 ;
b100000000100000000000000000000 t
b1000 ,
b1000 4
0-
#19000
1-
#20000
b1001 G
b1001 s
b100001001000010000000000000000 0
b100001001000010000000000000000 ;
b100001001000010000000000000000 t
b1001 ,
b1001 4
0-
#21000
1-
#22000
b1010 G
b1010 s
b100010001100100000000000000000 0
b100010001100100000000000000000 ;
b100010001100100000000000000000 t
b1010 ,
b1010 4
0-
#23000
1-
#24000
b1011 G
b1011 s
b100011010000110000000000000000 0
b100011010000110000000000000000 ;
b100011010000110000000000000000 t
b1011 ,
b1011 4
0-
#25000
1-
#26000
b1100 G
b1100 s
b100001010000110000000000000000 0
b100001010000110000000000000000 ;
b100001010000110000000000000000 t
b1100 ,
b1100 4
0-
#27000
1-
#28000
b1101 G
b1101 s
b100010010000110000000000000000 0
b100010010000110000000000000000 ;
b100010010000110000000000000000 t
b1101 ,
b1101 4
0-
#29000
1-
#30000
b1110 G
b1110 s
b100000010000110000000000000000 0
b100000010000110000000000000000 ;
b100000010000110000000000000000 t
b1110 ,
b1110 4
0-
#31000
1-
#32000
b1111 G
b1111 s
b100011010000110000000000000000 0
b100011010000110000000000000000 ;
b100011010000110000000000000000 t
b1111 ,
b1111 4
0-
#33000
1-
#34000
b10000 G
b10000 s
b100000001101000000000000000000 0
b100000001101000000000000000000 ;
b100000001101000000000000000000 t
b10000 ,
b10000 4
0-
#35000
1-
#36000
b10001 G
b10001 s
b100001010000110000000000000000 0
b100001010000110000000000000000 ;
b100001010000110000000000000000 t
b10001 ,
b10001 4
0-
#37000
1-
#38000
b10010 G
b10010 s
b100011001101000000000000000000 0
b100011001101000000000000000000 ;
b100011001101000000000000000000 t
b10010 ,
b10010 4
0-
#39000
1-
#40000
b10011 G
b10011 s
b100010010000110000000000000000 0
b100010010000110000000000000000 ;
b100010010000110000000000000000 t
b10011 ,
b10011 4
0-
#41000
1-
#42000
b0 G
b0 s
b0 0
b0 ;
b0 t
02
b0 ,
b0 4
0-
#43000
1F
11
1-
#44000
0-
#45000
b1 G
b1 s
b10000111100000000000010000000 3
b10000111100000000000010000000 E
b10000111100000000000010000000 u
b1 ]
x6
xP
bx i
bx 8
bx V
bx l
bx h
bx 7
bx U
bx k
1-
#46000
0-
#47000
0N
b0 J
b0 |
bz L
bz }
b10 G
b10 s
xZ
b10000000 b
b0 a
b0 y
b1111 `
b1111 x
b0 _
b1 ^
b10 ]
b10000111100010000000010000001 3
b10000111100010000000010000001 E
b10000111100010000000010000001 u
1-
#48000
0-
#49000
b11 G
b11 s
bz I
bz m
b10000111100100000000010000010 3
b10000111100100000000010000010 E
b10000111100100000000010000010 u
b11 ]
06
0P
b10000000 W
b0 T
b1111 5
b1111 S
b0 R
b1 Q
b10000001 b
b1 a
b1 y
1-
#50000
0-
#51000
b100 G
b100 s
0Z
b1111 X
b10000000 \
b0 Y
b10000001 W
b1 T
b10000010 b
b10 a
b10 y
b100 ]
b10000111100110000000010000011 3
b10000111100110000000010000011 E
b10000111100110000000010000011 u
1-
#52000
0-
#53000
b0 K
b101 G
b101 s
b10000111101000000000010000100 3
b10000111101000000000010000100 E
b10000111101000000000010000100 u
b101 ]
b10000010 W
b10 T
b10000011 b
b11 a
b11 y
b10000001 \
b1 Y
b1111 d
b1111 v
b10000000 g
b10000000 {
b0 e
b0 w
1-
#54000
0-
#55000
b110 G
b110 s
b10000001 g
b10000001 {
b1 e
b1 w
b10000010 \
b10 Y
b10000011 W
b0 i
b0 8
b0 V
b0 l
b11 T
b10000100 b
b100 a
b100 y
b110 ]
b10000111101010000000010000101 3
b10000111101010000000010000101 E
b10000111101010000000010000101 u
b10000000 *
b10000000 D
b10000000 '"
b10000000 ("
1-
#56000
0-
#57000
b111 G
b111 s
b10000111101100000000010000110 3
b10000111101100000000010000110 E
b10000111101100000000010000110 u
b111 ]
b10000100 W
b100 T
b10000101 b
b101 a
b101 y
b10000011 \
b11 Y
b10000010 g
b10000010 {
b10 e
b10 w
b10000001 )
b10000001 C
b10000001 &"
b10000001 )"
1-
#58000
0-
#59000
b1000 G
b1000 s
b10000011 g
b10000011 {
b11 e
b11 w
b10000100 \
b100 Y
b10000101 W
b101 T
b10000110 b
b110 a
b110 y
b1000 ]
b10000111101110000000010000111 3
b10000111101110000000010000111 E
b10000111101110000000010000111 u
b10000010 (
b10000010 B
b10000010 %"
b10000010 *"
1-
#60000
0-
#61000
b1001 G
b1001 s
b100000000100000000000000000000 3
b100000000100000000000000000000 E
b100000000100000000000000000000 u
b1001 ]
b10000110 W
b110 T
b10000111 b
b111 a
b111 y
b10000101 \
b101 Y
b10000100 g
b10000100 {
b100 e
b100 w
b10000011 '
b10000011 A
b10000011 $"
b10000011 +"
1-
#62000
0-
#63000
b10000000 K
b10000001 L
b10000001 }
b10000000 J
b10000000 |
b10000001 M
b1010 G
b1010 s
b10000101 g
b10000101 {
b101 e
b101 w
b10000110 \
b110 Y
b10000111 W
b111 T
b0 b
b0 a
b0 y
b1 `
b1 x
b10 ^
b1010 ]
b100001001000010000000000000000 3
b100001001000010000000000000000 E
b100001001000010000000000000000 u
b10000100 &
b10000100 @
b10000100 #"
b10000100 ,"
1-
#64000
0-
#65000
0r
b10000010 M
0q
b0 +
b0 O
b0 o
0p
b10000010 L
b10000010 }
b1011 G
b1011 s
b100000001 j
b100000001 !
b100000001 :
b100000001 H
b100000001 n
b100000001 K
b0 I
b0 m
b10000001 J
b10000001 |
b100010001100100000000000000000 3
b100010001100100000000000000000 E
b100010001100100000000000000000 u
b1011 ]
b0 W
b10000000 i
b10000000 8
b10000000 V
b10000000 l
b10000001 h
b10000001 7
b10000001 U
b10000001 k
b0 T
b1 5
b1 S
b10 Q
b1 a
b1 y
b10 `
b10 x
b1 _
b10000111 \
b111 Y
b10000110 g
b10000110 {
b110 e
b110 w
b10000101 %
b10000101 ?
b10000101 ""
b10000101 -"
1-
#66000
0-
#67000
b10000011 M
1q
b10000011 L
b10000011 }
b10 +
b10 O
b10 o
0p
b11111111111111111111111110000001 K
b10000010 J
b10000010 |
b11111111111111111111111110000001 j
b11111111111111111111111110000001 !
b11111111111111111111111110000001 :
b11111111111111111111111110000001 H
b11111111111111111111111110000001 n
b1 I
b1 m
b1100 G
b1100 s
b10000111 g
b10000111 {
b111 e
b111 w
b100000001 [
b1 X
bz \
b1111 Y
b100000001 i
b100000001 8
b100000001 V
b100000001 l
b10000010 h
b10000010 7
b10000010 U
b10000010 k
b1 T
b10 5
b10 S
b1 R
b10 a
b10 y
b11 `
b11 x
b10 _
b1100 ]
b100011010000110000000000000000 3
b100011010000110000000000000000 E
b100011010000110000000000000000 u
b10000110 $
b10000110 >
b10000110 !"
b10000110 ."
1-
#68000
0-
#69000
b10000100 M
0q
b0 +
b0 O
b0 o
0r
b10000100 L
b10000100 }
b10000001 K
b10000011 J
b10000011 |
b10000001 j
b10000001 !
b10000001 :
b10000001 H
b10000001 n
b10 I
b10 m
b1101 G
b1101 s
b100001010000110000000000000000 3
b100001010000110000000000000000 E
b100001010000110000000000000000 u
b1101 ]
b11111111111111111111111110000001 i
b11111111111111111111111110000001 8
b11111111111111111111111110000001 V
b11111111111111111111111110000001 l
b10000011 h
b10000011 7
b10000011 U
b10000011 k
b10 T
b11 5
b11 S
b10 R
b11 a
b11 y
b100 `
b100 x
b11 _
b11111111111111111111111110000001 [
b10 X
b100000001 f
b100000001 z
b1 d
b1 v
bz g
bz {
b1111 e
b1111 w
b10000111 #
b10000111 =
b10000111 ~
b10000111 /"
1-
#70000
0-
#71000
b101 j
b101 !
b101 :
b101 H
b101 n
b11 I
b11 m
b101 M
b10000001 K
b1110 G
b1110 s
b11111111111111111111111110000001 f
b11111111111111111111111110000001 z
b10 d
b10 v
b10000001 [
b11 X
b10000001 i
b10000001 8
b10000001 V
b10000001 l
b10000100 h
b10000100 7
b10000100 U
b10000100 k
b11 T
b100 5
b100 S
b11 R
b1 _
b1110 ]
b100010010000110000000000000000 3
b100010010000110000000000000000 E
b100010010000110000000000000000 u
b100000001 )
b100000001 C
b100000001 &"
b100000001 )"
1-
#72000
0-
#73000
b10 +
b10 O
b10 o
1q
b11111111111111111111111110000100 M
b11111111111111111111111110000100 j
b11111111111111111111111110000100 !
b11111111111111111111111110000100 :
b11111111111111111111111110000100 H
b11111111111111111111111110000100 n
b1 I
b1 m
b1111 G
b1111 s
b100000010000110000000000000000 3
b100000010000110000000000000000 E
b100000010000110000000000000000 u
b1111 ]
b101 h
b101 7
b101 U
b101 k
b1 R
b10 _
b101 [
b100 X
b10000001 f
b10000001 z
b11 d
b11 v
b11111111111111111111111110000001 (
b11111111111111111111111110000001 B
b11111111111111111111111110000001 %"
b11111111111111111111111110000001 *"
1-
#74000
0-
#75000
0q
b0 +
b0 O
b0 o
0r
b10000001 J
b10000001 |
b10000001 K
b10000000 M
b10000000 j
b10000000 !
b10000000 :
b10000000 H
b10000000 n
b10 I
b10 m
b10000 G
b10000 s
b101 f
b101 z
b100 d
b100 v
b11111111111111111111111110000100 [
b11111111111111111111111110000100 h
b11111111111111111111111110000100 7
b11111111111111111111111110000100 U
b11111111111111111111111110000100 k
b10 R
b0 _
b10000 ]
b100011010000110000000000000000 3
b100011010000110000000000000000 E
b100011010000110000000000000000 u
b10000001 '
b10000001 A
b10000001 $"
b10000001 +"
1-
#76000
0-
#77000
b101 L
b101 }
b100000001 M
b100000001 j
b100000001 !
b100000001 :
b100000001 H
b100000001 n
b10001 G
b10001 s
b0 I
b0 m
b100000001101000000000000000000 3
b100000001101000000000000000000 E
b100000001101000000000000000000 u
b10001 ]
b10000000 h
b10000000 7
b10000000 U
b10000000 k
b0 R
b11 _
b10000000 [
b11111111111111111111111110000100 f
b11111111111111111111111110000100 z
b101 &
b101 @
b101 #"
b101 ,"
1-
#78000
0-
#79000
0r
b11111111111111111111111110000100 J
b11111111111111111111111110000100 |
b10000001 L
b10000001 }
0q
b0 +
b0 O
b0 o
0p
b110000000 j
b110000000 !
b110000000 :
b110000000 H
b110000000 n
b11 I
b11 m
b110000000 K
b10000001 M
b10010 G
b10010 s
b10000000 f
b10000000 z
b100000001 [
b100000001 h
b100000001 7
b100000001 U
b100000001 k
b11 R
b100 a
b100 y
b11 `
b11 x
b0 _
b10010 ]
b100001010000110000000000000000 3
b100001010000110000000000000000 E
b100001010000110000000000000000 u
b11111111111111111111111110000100 &
b11111111111111111111111110000100 @
b11111111111111111111111110000100 #"
b11111111111111111111111110000100 ,"
1-
#80000
0-
#81000
b10000001 J
b10000001 |
b10000000 L
b10000000 }
b1000000001 K
b1000000001 j
b1000000001 !
b1000000001 :
b1000000001 H
b1000000001 n
b10011 G
b10011 s
b0 I
b0 m
b110000000 M
b100011001101000000000000000000 3
b100011001101000000000000000000 E
b100011001101000000000000000000 u
b10011 ]
b110000000 i
b110000000 8
b110000000 V
b110000000 l
b10000001 h
b10000001 7
b10000001 U
b10000001 k
b100 T
b11 5
b11 S
b0 R
b11 a
b11 y
b100 `
b100 x
b1 _
b110000000 [
b100000001 f
b100000001 z
b10000000 &
b10000000 @
b10000000 #"
b10000000 ,"
1-
#82000
0-
#83000
b100000001 J
b100000001 |
b10000001 L
b10000001 }
1q
b10 +
b10 O
b10 o
0p
b11111111111111111111111101111111 K
b11111111111111111111111101111111 j
b11111111111111111111111101111111 !
b11111111111111111111111101111111 :
b11111111111111111111111101111111 H
b11111111111111111111111101111111 n
b1 I
b1 m
b1000000001 M
b10100 G
b10100 s
b110000000 f
b110000000 z
b1000000001 [
b11 X
b1000000001 i
b1000000001 8
b1000000001 V
b1000000001 l
b110000000 h
b110000000 7
b110000000 U
b110000000 k
b11 T
b100 5
b100 S
b1 R
b100 a
b100 y
b11 `
b11 x
b11 _
b10100 ]
b100010010000110000000000000000 3
b100010010000110000000000000000 E
b100010010000110000000000000000 u
b100000001 &
b100000001 @
b100000001 #"
b100000001 ,"
1-
#84000
0-
#85000
0p
1q
b10 +
b10 O
b10 o
0r
b10000001 J
b10000001 |
b110000000 L
b110000000 }
b11111111111111111111110101111110 K
b11111111111111111111110101111110 j
b11111111111111111111110101111110 !
b11111111111111111111110101111110 :
b11111111111111111111110101111110 H
b11111111111111111111110101111110 n
b11 I
b11 m
b10101 G
b10101 s
b11111111111111111111111101111111 M
bx 3
bx E
bx u
b10101 ]
b11111111111111111111111101111111 i
b11111111111111111111111101111111 8
b11111111111111111111111101111111 V
b11111111111111111111111101111111 l
b1000000001 h
b1000000001 7
b1000000001 U
b1000000001 k
b100 T
b11 5
b11 S
b11 R
b11 a
b11 y
b100 `
b100 x
b10 _
b11111111111111111111111101111111 [
b100 X
b1000000001 f
b1000000001 z
b11 d
b11 v
b110000000 &
b110000000 @
b110000000 #"
b110000000 ,"
1-
#86000
0-
#87000
b10 I
b10 m
xN
bx K
bx J
bx |
bx M
bx L
bx }
b10110 G
b10110 s
b11111111111111111111111101111111 f
b11111111111111111111111101111111 z
b100 d
b100 v
b11111111111111111111110101111110 [
b11 X
b11111111111111111111110101111110 i
b11111111111111111111110101111110 8
b11111111111111111111110101111110 V
b11111111111111111111110101111110 l
b11111111111111111111111101111111 h
b11111111111111111111111101111111 7
b11111111111111111111111101111111 U
b11111111111111111111111101111111 k
b11 T
b100 5
b100 S
b10 R
bx b
bx a
bx y
bx `
bx x
bx _
bx ^
b10110 ]
b1000000001 '
b1000000001 A
b1000000001 $"
b1000000001 +"
1-
#88000
0-
#89000
xr
xq
bx +
bx O
bx o
xp
bx j
bx !
bx :
bx H
bx n
b10111 G
b10111 s
bx I
bx m
b10111 ]
x6
xP
bx W
bx i
bx 8
bx V
bx l
bx h
bx 7
bx U
bx k
bx T
bx 5
bx S
bx R
bx Q
b100 X
b11111111111111111111110101111110 f
b11111111111111111111110101111110 z
b11 d
b11 v
b11111111111111111111111101111111 &
b11111111111111111111111101111111 @
b11111111111111111111111101111111 #"
b11111111111111111111111101111111 ,"
1-
#90000
0-
#91000
b11000 G
b11000 s
b100 d
b100 v
xZ
bx [
bx X
b11000 ]
b11111111111111111111110101111110 '
b11111111111111111111110101111110 A
b11111111111111111111110101111110 $"
b11111111111111111111110101111110 +"
1-
#92000
0-
#93000
b11001 G
b11001 s
b11001 ]
bx f
bx z
bx d
bx v
b11111111111111111111110101111110 &
b11111111111111111111110101111110 @
b11111111111111111111110101111110 #"
b11111111111111111111110101111110 ,"
1-
#94000
0-
#95000
b11010 G
b11010 s
b11010 ]
1-
#96000
0-
#97000
b11011 G
b11011 s
b11011 ]
1-
#98000
0-
#99000
0F
b0 G
b0 s
b11100 ]
1.
01
1-
#100000
0-
#101000
b10000000 "
b10000000 <
bz 3
bz E
bz u
b0 /
b0 9
1-
#102000
0-
#103000
b100000001 "
b100000001 <
b1 /
b1 9
1-
#104000
0-
#105000
b11111111111111111111111110000001 "
b11111111111111111111111110000001 <
b10 /
b10 9
1-
#106000
0-
#107000
b11111111111111111111110101111110 "
b11111111111111111111110101111110 <
b11 /
b11 9
1-
#108000
0-
#109000
b100 /
b100 9
1-
#110000
0-
#111000
b10000101 "
b10000101 <
b101 /
b101 9
1-
#112000
0-
#113000
b10000110 "
b10000110 <
b110 /
b110 9
1-
#114000
0-
#115000
b10000111 "
b10000111 <
b111 /
b111 9
1-
#116000
0-
#117000
bz "
bz <
b1000 /
b1000 9
1-
#118000
0-
#119000
b1001 /
b1001 9
1-
#120000
0-
#121000
b1010 /
b1010 9
1-
#122000
0-
#123000
b1011 /
b1011 9
1-
#124000
0-
#125000
b1100 /
b1100 9
1-
#126000
0-
#127000
b1101 /
b1101 9
1-
#128000
0-
#129000
b1110 /
b1110 9
1-
#130000
0-
#131000
b1111 /
b1111 9
1-
#132000
0-
#133000
b10000000 "
b10000000 <
b0 /
b0 9
1-
#134000
0-
#135000
b100000001 "
b100000001 <
b1 /
b1 9
1-
#136000
0-
#137000
b11111111111111111111111110000001 "
b11111111111111111111111110000001 <
b10 /
b10 9
1-
#138000
0-
#139000
b11111111111111111111110101111110 "
b11111111111111111111110101111110 <
b11 /
b11 9
1-
#140000
0-
#141000
b100 /
b100 9
1-
#142000
0-
#143000
b10000101 "
b10000101 <
b101 /
b101 9
1-
#144000
0-
#145000
b10000110 "
b10000110 <
b110 /
b110 9
1-
#146000
0-
#147000
b10000111 "
b10000111 <
b111 /
b111 9
1-
#148000
0-
#149000
bz "
bz <
b1000 /
b1000 9
1-
#150000
0-
#151000
b1001 /
b1001 9
1-
#152000
0-
#153000
b1010 /
b1010 9
1-
#154000
0-
#155000
b1011 /
b1011 9
1-
#156000
0-
#157000
b1100 /
b1100 9
1-
#158000
0-
#159000
b1101 /
b1101 9
1-
#160000
0-
#161000
b1110 /
b1110 9
1-
#162000
0-
#163000
b1111 /
b1111 9
1-
#164000
0-
#165000
b10000000 "
b10000000 <
b0 /
b0 9
1-
#166000
0-
#167000
b100000001 "
b100000001 <
b1 /
b1 9
1-
#168000
0-
#169000
b11111111111111111111111110000001 "
b11111111111111111111111110000001 <
b10 /
b10 9
1-
#170000
0-
#171000
b11111111111111111111110101111110 "
b11111111111111111111110101111110 <
b11 /
b11 9
1-
#172000
0-
#173000
b100 /
b100 9
1-
#174000
0-
#175000
b10000101 "
b10000101 <
b101 /
b101 9
1-
#176000
0-
#177000
b10000110 "
b10000110 <
b110 /
b110 9
1-
#178000
0-
#179000
b10000111 "
b10000111 <
b111 /
b111 9
1-
#180000
0-
#181000
bz "
bz <
b1000 /
b1000 9
1-
#182000
0-
#183000
b1001 /
b1001 9
1-
#184000
0-
#185000
b1010 /
b1010 9
1-
#186000
0-
#187000
b1011 /
b1011 9
1-
#188000
0-
#189000
b1100 /
b1100 9
1-
#190000
0-
#191000
b1101 /
b1101 9
1-
#192000
0-
#193000
b1110 /
b1110 9
1-
#194000
0-
#195000
b1111 /
b1111 9
1-
#196000
0-
#197000
b10000000 "
b10000000 <
b0 /
b0 9
1-
