tb/Simulations/pro_tbe4.vcd
$date
	Sat Jun 04 02:10:25 2022
$end
$version
	Icarus Verilog
$end
$timescale
	10ps
$end
$scope module pro_tb4 $end
$var wire 32 ! valE [31:0] $end
$var wire 32 " rdata [31:0] $end
$var wire 32 # r7 [31:0] $end
$var wire 32 $ r6 [31:0] $end
$var wire 32 % r5 [31:0] $end
$var wire 32 & r4 [31:0] $end
$var wire 32 ' r3 [31:0] $end
$var wire 32 ( r2 [31:0] $end
$var wire 32 ) r1 [31:0] $end
$var wire 32 * r0 [31:0] $end
$var wire 3 + cc [2:0] $end
$var reg 32 , addr [31:0] $end
$var reg 1 - clock $end
$var reg 1 . flg $end
$var reg 4 / rID [3:0] $end
$var reg 32 0 wdata [31:0] $end
$var reg 1 1 working $end
$var reg 1 2 wr $end
$scope module processor $end
$var wire 32 3 F_read [31:0] $end
$var wire 32 4 addr [31:0] $end
$var wire 1 - clock $end
$var wire 4 5 e_dstE [3:0] $end
$var wire 1 6 e_halt $end
$var wire 32 7 e_valA [31:0] $end
$var wire 32 8 e_valB [31:0] $end
$var wire 4 9 rID [3:0] $end
$var wire 32 : valE [31:0] $end
$var wire 4 ; w_dstE [3:0] $end
$var wire 4 < w_dstM [3:0] $end
$var wire 32 = w_valE [31:0] $end
$var wire 32 > w_valM [31:0] $end
$var wire 32 ? wdata [31:0] $end
$var wire 1 1 working $end
$var wire 1 2 wr $end
$var wire 32 @ rdata [31:0] $end
$var wire 32 A r7 [31:0] $end
$var wire 32 B r6 [31:0] $end
$var wire 32 C r5 [31:0] $end
$var wire 32 D r4 [31:0] $end
$var wire 32 E r3 [31:0] $end
$var wire 32 F r2 [31:0] $end
$var wire 32 G r1 [31:0] $end
$var wire 32 H r0 [31:0] $end
$var wire 32 I f_rdata [31:0] $end
$var wire 1 J f_rd $end
$var wire 32 K f_addr [31:0] $end
$var wire 32 L e_valE [31:0] $end
$var wire 4 M e_alufun [3:0] $end
$var wire 1 N e_ZF $end
$var wire 1 O e_SF $end
$var wire 1 P e_OF $end
$var wire 16 Q d_valC [15:0] $end
$var wire 32 R d_valB_reg [31:0] $end
$var wire 32 S d_valB [31:0] $end
$var wire 32 T d_valA_reg [31:0] $end
$var wire 32 U d_valA [31:0] $end
$var wire 4 V d_rB [3:0] $end
$var wire 4 W d_rA [3:0] $end
$var wire 32 X d_jpc [31:0] $end
$var wire 1 Y d_jflg $end
$var wire 4 Z d_ifun [3:0] $end
$var wire 4 [ d_icode [3:0] $end
$var wire 1 \ d_halt $end
$var wire 3 ] cc [2:0] $end
$var reg 1 ^ D_halt $end
$var reg 4 _ D_icode [3:0] $end
$var reg 4 ` D_ifun [3:0] $end
$var reg 1 a D_jflg $end
$var reg 4 b D_rA [3:0] $end
$var reg 4 c D_rB [3:0] $end
$var reg 32 d D_valA [31:0] $end
$var reg 32 e D_valB [31:0] $end
$var reg 16 f D_valC [15:0] $end
$var reg 4 g E_dstE [3:0] $end
$var reg 4 h E_dstM [3:0] $end
$var reg 1 i E_halt $end
$var reg 32 j E_valE [31:0] $end
$var reg 32 k E_valM [31:0] $end
$var reg 32 l PC [31:0] $end
$var reg 1 m e_reg_rst $end
$scope module alu $end
$var wire 32 n A [31:0] $end
$var wire 32 o B [31:0] $end
$var wire 32 p E [31:0] $end
$var wire 32 q aluA [31:0] $end
$var wire 32 r aluB [31:0] $end
$var wire 4 s alufun [3:0] $end
$var wire 32 t valE [31:0] $end
$var wire 3 u cc [2:0] $end
$var wire 1 v ZF $end
$var wire 1 w SF $end
$var wire 1 x OF $end
$upscope $end
$scope module ram $end
$var wire 32 y addr [31:0] $end
$var wire 1 - clock $end
$var wire 1 J rd $end
$var wire 32 z wdata [31:0] $end
$var wire 1 2 wr $end
$var reg 32 { rdata [31:0] $end
$upscope $end
$scope module regfile $end
$var wire 1 - clock $end
$var wire 4 | dstE [3:0] $end
$var wire 4 } dstM [3:0] $end
$var wire 4 ~ rA [3:0] $end
$var wire 4 !" rB [3:0] $end
$var wire 1 m reset $end
$var wire 32 "" valE [31:0] $end
$var wire 32 #" valM [31:0] $end
$var wire 32 $" valB [31:0] $end
$var wire 32 %" valA [31:0] $end
$var wire 32 &" r7 [31:0] $end
$var wire 32 '" r6 [31:0] $end
$var wire 32 (" r5 [31:0] $end
$var wire 32 )" r4 [31:0] $end
$var wire 32 *" r3 [31:0] $end
$var wire 32 +" r2 [31:0] $end
$var wire 32 ," r1 [31:0] $end
$var wire 32 -" r0 [31:0] $end
$var reg 32 ." r_r0 [31:0] $end
$var reg 32 /" r_r1 [31:0] $end
$var reg 32 0" r_r2 [31:0] $end
$var reg 32 1" r_r3 [31:0] $end
$var reg 32 2" r_r4 [31:0] $end
$var reg 32 3" r_r5 [31:0] $end
$var reg 32 4" r_r6 [31:0] $end
$var reg 32 5" r_r7 [31:0] $end
$upscope $end
$upscope $end
$upscope $end
$enddefinitions $end
#0
$dumpvars
bx 5"
bx 4"
bx 3"
bx 2"
bx 1"
bx 0"
bx /"
bx ."
bx -"
bx ,"
bx +"
bx *"
bx )"
bx ("
bx '"
bx &"
bx %"
bx $"
bz #"
bz ""
bz !"
bz ~
bz }
bz |
bz {
b0 z
b0 y
xx
xw
xv
bx u
bx t
bx s
bz r
bz q
bx p
bz o
bz n
1m
b0 l
bz k
bz j
zi
bz h
bz g
bz f
bz e
bz d
bz c
bz b
0a
bz `
bz _
z^
bx ]
x\
bz [
bz Z
0Y
b0zzzzzzzzzzzzzzzzzzzzzzzz X
bz W
bz V
bx U
bx T
bx S
bx R
bz Q
xP
xO
xN
bx M
bx L
b0 K
0J
bz I
bx H
bx G
bx F
bx E
bx D
bx C
bx B
bx A
bz @
b0 ?
bz >
bz =
bz <
bz ;
bx :
b1111 9
bz 8
bz 7
z6
bz 5
b0 4
bz 3
02
01
b0 0
b1111 /
0.
0-
b0 ,
bx +
bx *
bx )
bx (
bx '
bx &
bx %
bx $
bx #
bz "
bx !
$end
#1000
bx =
bx ""
bx j
b1111 <
b1111 h
b1111 }
b0 #
b0 A
b0 &"
b0 5"
b0 $
b0 B
b0 '"
b0 4"
b0 %
b0 C
b0 ("
b0 3"
b0 &
b0 D
b0 )"
b0 2"
b0 '
b0 E
b0 *"
b0 1"
b0 (
b0 F
b0 +"
b0 0"
b0 )
b0 G
b0 ,"
b0 /"
b0 *
b0 H
b0 -"
b0 ."
1-
#2000
b10000111100000000000000000001 0
b10000111100000000000000000001 ?
b10000111100000000000000000001 z
12
0m
0-
#3000
1-
#4000
b1 K
b1 y
b10000111100010000000000000010 0
b10000111100010000000000000010 ?
b10000111100010000000000000010 z
b1 ,
b1 4
0-
#5000
1-
#6000
b10 K
b10 y
b10000111100100000000000000011 0
b10000111100100000000000000011 ?
b10000111100100000000000000011 z
b10 ,
b10 4
0-
#7000
1-
#8000
b11 K
b11 y
b10000111100110000000000000100 0
b10000111100110000000000000100 ?
b10000111100110000000000000100 z
b11 ,
b11 4
0-
#9000
1-
#10000
b100 K
b100 y
b10000111101000000000000000101 0
b10000111101000000000000000101 ?
b10000111101000000000000000101 z
b100 ,
b100 4
0-
#11000
1-
#12000
b101 K
b101 y
b10000111101010000000000000110 0
b10000111101010000000000000110 ?
b10000111101010000000000000110 z
b101 ,
b101 4
0-
#13000
1-
#14000
b110 K
b110 y
b10000111101100000000000000111 0
b10000111101100000000000000111 ?
b10000111101100000000000000111 z
b110 ,
b110 4
0-
#15000
1-
#16000
b111 K
b111 y
b10000111101110000000000001000 0
b10000111101110000000000001000 ?
b10000111101110000000000001000 z
b111 ,
b111 4
0-
#17000
1-
#18000
b1000 K
b1000 y
b1110000000000000000000000001010 0
b1110000000000000000000000001010 ?
b1110000000000000000000000001010 z
b1000 ,
b1000 4
0-
#19000
1-
#20000
b1001 K
b1001 y
b100001011101100000000000000000 0
b100001011101100000000000000000 ?
b100001011101100000000000000000 z
b1001 ,
b1001 4
0-
#21000
1-
#22000
b1010 K
b1010 y
b100000011101100000000000000000 0
b100000011101100000000000000000 ?
b100000011101100000000000000000 z
b1010 ,
b1010 4
0-
#23000
1-
#24000
b1011 K
b1011 y
b100000000100000000000000000000 0
b100000000100000000000000000000 ?
b100000000100000000000000000000 z
b1011 ,
b1011 4
0-
#25000
1-
#26000
b1100 K
b1100 y
b100001011100000000000000000000 0
b100001011100000000000000000000 ?
b100001011100000000000000000000 z
b1100 ,
b1100 4
0-
#27000
1-
#28000
b1101 K
b1101 y
b1110101000000000000000000001011 0
b1110101000000000000000000001011 ?
b1110101000000000000000000001011 z
b1101 ,
b1101 4
0-
#29000
1-
#30000
b1110 K
b1110 y
b100000011101100000000000000000 0
b100000011101100000000000000000 ?
b100000011101100000000000000000 z
b1110 ,
b1110 4
0-
#31000
1-
#32000
b1111 K
b1111 y
b100000001000000000000000000000 0
b100000001000000000000000000000 ?
b100000001000000000000000000000 z
b1111 ,
b1111 4
0-
#33000
1-
#34000
b10000 K
b10000 y
b100001011100000000000000000000 0
b100001011100000000000000000000 ?
b100001011100000000000000000000 z
b10000 ,
b10000 4
0-
#35000
1-
#36000
b10001 K
b10001 y
b1110110000000000000000000001111 0
b1110110000000000000000000001111 ?
b1110110000000000000000000001111 z
b10001 ,
b10001 4
0-
#37000
1-
#38000
b10010 K
b10010 y
b100000011101010000000000000000 0
b100000011101010000000000000000 ?
b100000011101010000000000000000 z
b10010 ,
b10010 4
0-
#39000
1-
#40000
b10011 K
b10011 y
b100000001100000000000000000000 0
b100000001100000000000000000000 ?
b100000001100000000000000000000 z
b10011 ,
b10011 4
0-
#41000
1-
#42000
b10100 K
b10100 y
b100001011100000000000000000000 0
b100001011100000000000000000000 ?
b100001011100000000000000000000 z
b10100 ,
b10100 4
0-
#43000
1-
#44000
b10101 K
b10101 y
b1110011000000000000000000010011 0
b1110011000000000000000000010011 ?
b1110011000000000000000000010011 z
b10101 ,
b10101 4
0-
#45000
1-
#46000
b10110 K
b10110 y
b100000011101010000000000000000 0
b100000011101010000000000000000 ?
b100000011101010000000000000000 z
b10110 ,
b10110 4
0-
#47000
1-
#48000
b10111 K
b10111 y
b100000001100000000000000000000 0
b100000001100000000000000000000 ?
b100000001100000000000000000000 z
b10111 ,
b10111 4
0-
#49000
1-
#50000
b11000 K
b11000 y
b100001011100000000000000000000 0
b100001011100000000000000000000 ?
b100001011100000000000000000000 z
b11000 ,
b11000 4
0-
#51000
1-
#52000
b11001 K
b11001 y
b1110100000000000000000000010111 0
b1110100000000000000000000010111 ?
b1110100000000000000000000010111 z
b11001 ,
b11001 4
0-
#53000
1-
#54000
b11010 K
b11010 y
b100001011000000000000000000000 0
b100001011000000000000000000000 ?
b100001011000000000000000000000 z
b11010 ,
b11010 4
0-
#55000
1-
#56000
b11011 K
b11011 y
b100001011001110000000000000000 0
b100001011001110000000000000000 ?
b100001011001110000000000000000 z
b11011 ,
b11011 4
0-
#57000
1-
#58000
b11100 K
b11100 y
b1110001000000000000000000011010 0
b1110001000000000000000000011010 ?
b1110001000000000000000000011010 z
b11100 ,
b11100 4
0-
#59000
1-
#60000
b11101 K
b11101 y
b100001010100000000000000000000 0
b100001010100000000000000000000 ?
b100001010100000000000000000000 z
b11101 ,
b11101 4
0-
#61000
1-
#62000
b11110 K
b11110 y
b100001010101110000000000000000 0
b100001010101110000000000000000 ?
b100001010101110000000000000000 z
b11110 ,
b11110 4
0-
#63000
1-
#64000
b11111 K
b11111 y
b1110010000000000000000000011101 0
b1110010000000000000000000011101 ?
b1110010000000000000000000011101 z
b11111 ,
b11111 4
0-
#65000
1-
#66000
b0 K
b0 y
b0 0
b0 ?
b0 z
02
b0 ,
b0 4
0-
#67000
xY
1J
11
1-
#68000
0-
#69000
0Y
0\
b0 R
b0 $"
bz T
bz %"
b0 Z
b1 [
b0 V
b0 !"
b1111 W
b1111 ~
b111100000000000000000001 X
b1 Q
b1 K
b1 y
b10000111100000000000000000001 3
b10000111100000000000000000001 I
b10000111100000000000000000001 {
b1 l
x6
x^
bx o
bx 8
bx e
bx r
bx n
bx 7
bx d
bx q
1-
#70000
0-
#71000
b1 V
b1 !"
bz M
bz s
b10 K
b10 y
b111100010000000000000010 X
b10 Q
xi
06
0^
b1 f
b0 c
b1111 5
b1111 b
b0 `
b1 _
b10 l
b10000111100010000000000000010 3
b10000111100010000000000000010 I
b10000111100010000000000000010 {
1-
#72000
0-
#73000
b10 V
b10 !"
b0 S
b111100100000000000000011 X
b11 Q
b11 K
b11 y
b10000111100100000000000000011 3
b10000111100100000000000000011 I
b10000111100100000000000000011 {
b11 l
b10 f
b1 c
0i
b1111 ;
b1111 |
b1111 g
b1 >
b1 k
b1 #"
b0 <
b0 h
b0 }
1-
#74000
0-
#75000
b11 V
b11 !"
b100 K
b100 y
b111100110000000000000100 X
b100 Q
b10 >
b10 k
b10 #"
b1 <
b1 h
b1 }
b11 f
b10 c
b0 o
b0 8
b0 e
b0 r
b100 l
b10000111100110000000000000100 3
b10000111100110000000000000100 I
b10000111100110000000000000100 {
b1 *
b1 H
b1 -"
b1 ."
1-
#76000
0-
#77000
b100 V
b100 !"
b111101000000000000000101 X
b101 Q
b101 K
b101 y
b10000111101000000000000000101 3
b10000111101000000000000000101 I
b10000111101000000000000000101 {
b101 l
b100 f
b11 c
b11 >
b11 k
b11 #"
b10 <
b10 h
b10 }
b10 )
b10 G
b10 ,"
b10 /"
1-
#78000
0-
#79000
b101 V
b101 !"
b110 K
b110 y
b111101010000000000000110 X
b110 Q
b100 >
b100 k
b100 #"
b11 <
b11 h
b11 }
b101 f
b100 c
b110 l
b10000111101010000000000000110 3
b10000111101010000000000000110 I
b10000111101010000000000000110 {
b11 (
b11 F
b11 +"
b11 0"
1-
#80000
0-
#81000
b110 V
b110 !"
b111101100000000000000111 X
b111 Q
b111 K
b111 y
b10000111101100000000000000111 3
b10000111101100000000000000111 I
b10000111101100000000000000111 {
b111 l
b110 f
b101 c
b101 >
b101 k
b101 #"
b100 <
b100 h
b100 }
b100 '
b100 E
b100 *"
b100 1"
1-
#82000
0-
#83000
b111 V
b111 !"
b1000 K
b1000 y
b111101110000000000001000 X
b1000 Q
b110 >
b110 k
b110 #"
b101 <
b101 h
b101 }
b111 f
b110 c
b1000 l
b10000111101110000000000001000 3
b10000111101110000000000001000 I
b10000111101110000000000001000 {
b101 &
b101 D
b101 )"
b101 2"
1-
#84000
0-
#85000
b1 S
1Y
b1 R
b1 $"
b1 U
b1 T
b1 %"
b111 [
b0 V
b0 !"
b0 W
b0 ~
b1010 X
b1010 Q
b1001 K
b1001 y
b1110000000000000000000000001010 3
b1110000000000000000000000001010 I
b1110000000000000000000000001010 {
b1001 l
b1000 f
b111 c
b111 >
b111 k
b111 #"
b110 <
b110 h
b110 }
b110 %
b110 C
b110 ("
b110 3"
1-
#86000
0-
#87000
0P
0x
0O
0N
0w
0Y
b0 +
b0 ]
b0 u
0v
b1 p
b1 !
b1 :
b1 L
b1 t
b10 M
b10 s
b10 Z
b1 [
b1 U
b1 S
b1010 K
b1010 y
b0 X
b0 Q
b1000 >
b1000 k
b1000 #"
b111 <
b111 h
b111 }
1a
b1010 f
b0 c
b0 5
b0 b
b1 o
b1 8
b1 e
b1 r
b1 n
b1 7
b1 d
b1 q
b10 _
b10 `
b1010 l
b100001011101100000000000000000 3
b100001011101100000000000000000 I
b100001011101100000000000000000 {
b111 $
b111 B
b111 '"
b111 4"
1-
#88000
0-
#89000
b111 S
b1000 U
b111 R
b111 $"
b1000 T
b1000 %"
b0 Z
b10 [
b110 V
b110 !"
b11101100000000000000000 X
b111 W
b111 ~
b1011 K
b1011 y
b100000011101100000000000000000 3
b100000011101100000000000000000 I
b100000011101100000000000000000 {
b1011 l
0a
b0 f
b1 =
b1 ""
b1 j
b0 ;
b0 |
b0 g
bz >
bz k
bz #"
b1111 <
b1111 h
b1111 }
b1000 #
b1000 A
b1000 &"
b1000 5"
1-
#90000
0-
#91000
b1 S
b10 T
b10 %"
b1 R
b1 $"
b0 V
b0 !"
b100000000000000000000 X
b1 W
b1 ~
b1111 p
b1111 !
b1111 :
b1111 L
b1111 t
b10 U
b0 M
b0 s
b1100 K
b1100 y
b110 c
b111 5
b111 b
b111 o
b111 8
b111 e
b111 r
b1000 n
b1000 7
b1000 d
b1000 q
b0 `
b1100 l
b100000000100000000000000000000 3
b100000000100000000000000000000 I
b100000000100000000000000000000 {
1-
#92000
0-
#93000
b1000 T
b1000 %"
b1 Z
b11100000000000000000000 X
b111 W
b111 ~
b1101 K
b1101 y
b1111 U
b11 p
b11 !
b11 :
b11 L
b11 t
b100001011100000000000000000000 3
b100001011100000000000000000000 I
b100001011100000000000000000000 {
b1101 l
b0 c
b1 5
b1 b
b1 o
b1 8
b1 e
b1 r
b10 n
b10 7
b10 d
b10 q
b1111 =
b1111 ""
b1111 j
b111 ;
b111 |
b111 g
1-
#94000
0-
#95000
1Y
0O
b1 T
b1 %"
0N
0w
b101 Z
b111 [
b0 W
b0 ~
b0 +
b0 ]
b0 u
0v
b1 U
b1110 p
b1110 !
b1110 :
b1110 L
b1110 t
b1 M
b1 s
b1110 K
b1110 y
b1011 X
b1011 Q
b11 =
b11 ""
b11 j
b1 ;
b1 |
b1 g
b111 5
b111 b
b1111 n
b1111 7
b1111 d
b1111 q
b1 `
b1110 l
b1110101000000000000000000001011 3
b1110101000000000000000000001011 I
b1110101000000000000000000001011 {
b1111 #
b1111 A
b1111 &"
b1111 5"
1-
#96000
0-
#97000
0Y
0N
b0 +
b0 ]
b0 u
0v
b10 Z
b1 [
b1 p
b1 !
b1 :
b1 L
b1 t
b10 M
b10 s
b0 X
b0 Q
b1011 K
b1011 y
b1 U
b1 S
b100000011101100000000000000000 3
b100000011101100000000000000000 I
b100000011101100000000000000000 {
b1011 l
1a
b1011 f
b0 5
b0 b
b1 n
b1 7
b1 d
b1 q
b10 `
b1110 =
b1110 ""
b1110 j
b111 ;
b111 |
b111 g
b11 )
b11 G
b11 ,"
b11 /"
1-
#98000
0-
#99000
b11 U
b11 T
b11 %"
b0 Z
b10 [
b100000000000000000000 X
b1 W
b1 ~
b1100 K
b1100 y
b1 =
b1 ""
b1 j
b0 ;
b0 |
b0 g
0a
b0 f
b1100 l
b100000000100000000000000000000 3
b100000000100000000000000000000 I
b100000000100000000000000000000 {
b1110 #
b1110 A
b1110 &"
b1110 5"
1-
#100000
0-
#101000
b1110 T
b1110 %"
b1 Z
b11100000000000000000000 X
b111 W
b111 ~
b100 p
b100 !
b100 :
b100 L
b100 t
b1101 K
b1101 y
b1110 U
b0 M
b0 s
b100001011100000000000000000000 3
b100001011100000000000000000000 I
b100001011100000000000000000000 {
b1101 l
b1 5
b1 b
b11 n
b11 7
b11 d
b11 q
b0 `
1-
#102000
0-
#103000
1Y
0O
b1 T
b1 %"
0N
0w
b101 Z
b111 [
b0 W
b0 ~
b0 +
b0 ]
b0 u
0v
b1 U
b1101 p
b1101 !
b1101 :
b1101 L
b1101 t
b1 M
b1 s
b1110 K
b1110 y
b1011 X
b1011 Q
b100 =
b100 ""
b100 j
b1 ;
b1 |
b1 g
b111 5
b111 b
b1110 n
b1110 7
b1110 d
b1110 q
b1 `
b1110 l
b1110101000000000000000000001011 3
b1110101000000000000000000001011 I
b1110101000000000000000000001011 {
1-
#104000
0-
#105000
0Y
0N
b0 +
b0 ]
b0 u
0v
b10 Z
b1 [
b1 p
b1 !
b1 :
b1 L
b1 t
b10 M
b10 s
b0 X
b0 Q
b1011 K
b1011 y
b1 U
b1 S
b100000011101100000000000000000 3
b100000011101100000000000000000 I
b100000011101100000000000000000 {
b1011 l
1a
b1011 f
b0 5
b0 b
b1 n
b1 7
b1 d
b1 q
b10 `
b1101 =
b1101 ""
b1101 j
b111 ;
b111 |
b111 g
b100 )
b100 G
b100 ,"
b100 /"
1-
#106000
0-
#107000
b100 U
b100 T
b100 %"
b0 Z
b10 [
b100000000000000000000 X
b1 W
b1 ~
b1100 K
b1100 y
b1 =
b1 ""
b1 j
b0 ;
b0 |
b0 g
0a
b0 f
b1100 l
b100000000100000000000000000000 3
b100000000100000000000000000000 I
b100000000100000000000000000000 {
b1101 #
b1101 A
b1101 &"
b1101 5"
1-
#108000
0-
#109000
b1101 T
b1101 %"
b1 Z
b11100000000000000000000 X
b111 W
b111 ~
b101 p
b101 !
b101 :
b101 L
b101 t
b1101 K
b1101 y
b1101 U
b0 M
b0 s
b100001011100000000000000000000 3
b100001011100000000000000000000 I
b100001011100000000000000000000 {
b1101 l
b1 5
b1 b
b100 n
b100 7
b100 d
b100 q
b0 `
1-
#110000
0-
#111000
1Y
0O
b1 T
b1 %"
0N
0w
b101 Z
b111 [
b0 W
b0 ~
b0 +
b0 ]
b0 u
0v
b1 U
b1100 p
b1100 !
b1100 :
b1100 L
b1100 t
b1 M
b1 s
b1110 K
b1110 y
b1011 X
b1011 Q
b101 =
b101 ""
b101 j
b1 ;
b1 |
b1 g
b111 5
b111 b
b1101 n
b1101 7
b1101 d
b1101 q
b1 `
b1110 l
b1110101000000000000000000001011 3
b1110101000000000000000000001011 I
b1110101000000000000000000001011 {
1-
#112000
0-
#113000
0Y
0N
b0 +
b0 ]
b0 u
0v
b10 Z
b1 [
b1 p
b1 !
b1 :
b1 L
b1 t
b10 M
b10 s
b0 X
b0 Q
b1011 K
b1011 y
b1 U
b1 S
b100000011101100000000000000000 3
b100000011101100000000000000000 I
b100000011101100000000000000000 {
b1011 l
1a
b1011 f
b0 5
b0 b
b1 n
b1 7
b1 d
b1 q
b10 `
b1100 =
b1100 ""
b1100 j
b111 ;
b111 |
b111 g
b101 )
b101 G
b101 ,"
b101 /"
1-
#114000
0-
#115000
b101 U
b101 T
b101 %"
b0 Z
b10 [
b100000000000000000000 X
b1 W
b1 ~
b1100 K
b1100 y
b1 =
b1 ""
b1 j
b0 ;
b0 |
b0 g
0a
b0 f
b1100 l
b100000000100000000000000000000 3
b100000000100000000000000000000 I
b100000000100000000000000000000 {
b1100 #
b1100 A
b1100 &"
b1100 5"
1-
#116000
0-
#117000
b1100 T
b1100 %"
b1 Z
b11100000000000000000000 X
b111 W
b111 ~
b110 p
b110 !
b110 :
b110 L
b110 t
b1101 K
b1101 y
b1100 U
b0 M
b0 s
b100001011100000000000000000000 3
b100001011100000000000000000000 I
b100001011100000000000000000000 {
b1101 l
b1 5
b1 b
b101 n
b101 7
b101 d
b101 q
b0 `
1-
#118000
0-
#119000
1Y
0O
b1 T
b1 %"
0N
0w
b101 Z
b111 [
b0 W
b0 ~
b0 +
b0 ]
b0 u
0v
b1 U
b1011 p
b1011 !
b1011 :
b1011 L
b1011 t
b1 M
b1 s
b1110 K
b1110 y
b1011 X
b1011 Q
b110 =
b110 ""
b110 j
b1 ;
b1 |
b1 g
b111 5
b111 b
b1100 n
b1100 7
b1100 d
b1100 q
b1 `
b1110 l
b1110101000000000000000000001011 3
b1110101000000000000000000001011 I
b1110101000000000000000000001011 {
1-
#120000
0-
#121000
0Y
0N
b0 +
b0 ]
b0 u
0v
b10 Z
b1 [
b1 p
b1 !
b1 :
b1 L
b1 t
b10 M
b10 s
b0 X
b0 Q
b1011 K
b1011 y
b1 U
b1 S
b100000011101100000000000000000 3
b100000011101100000000000000000 I
b100000011101100000000000000000 {
b1011 l
1a
b1011 f
b0 5
b0 b
b1 n
b1 7
b1 d
b1 q
b10 `
b1011 =
b1011 ""
b1011 j
b111 ;
b111 |
b111 g
b110 )
b110 G
b110 ,"
b110 /"
1-
#122000
0-
#123000
b110 U
b110 T
b110 %"
b0 Z
b10 [
b100000000000000000000 X
b1 W
b1 ~
b1100 K
b1100 y
b1 =
b1 ""
b1 j
b0 ;
b0 |
b0 g
0a
b0 f
b1100 l
b100000000100000000000000000000 3
b100000000100000000000000000000 I
b100000000100000000000000000000 {
b1011 #
b1011 A
b1011 &"
b1011 5"
1-
#124000
0-
#125000
b1011 T
b1011 %"
b1 Z
b11100000000000000000000 X
b111 W
b111 ~
b111 p
b111 !
b111 :
b111 L
b111 t
b1101 K
b1101 y
b1011 U
b0 M
b0 s
b100001011100000000000000000000 3
b100001011100000000000000000000 I
b100001011100000000000000000000 {
b1101 l
b1 5
b1 b
b110 n
b110 7
b110 d
b110 q
b0 `
1-
#126000
0-
#127000
1Y
0O
b1 T
b1 %"
0N
0w
b101 Z
b111 [
b0 W
b0 ~
b0 +
b0 ]
b0 u
0v
b1 U
b1010 p
b1010 !
b1010 :
b1010 L
b1010 t
b1 M
b1 s
b1110 K
b1110 y
b1011 X
b1011 Q
b111 =
b111 ""
b111 j
b1 ;
b1 |
b1 g
b111 5
b111 b
b1011 n
b1011 7
b1011 d
b1011 q
b1 `
b1110 l
b1110101000000000000000000001011 3
b1110101000000000000000000001011 I
b1110101000000000000000000001011 {
1-
#128000
0-
#129000
0Y
0N
b0 +
b0 ]
b0 u
0v
b10 Z
b1 [
b1 p
b1 !
b1 :
b1 L
b1 t
b10 M
b10 s
b0 X
b0 Q
b1011 K
b1011 y
b1 U
b1 S
b100000011101100000000000000000 3
b100000011101100000000000000000 I
b100000011101100000000000000000 {
b1011 l
1a
b1011 f
b0 5
b0 b
b1 n
b1 7
b1 d
b1 q
b10 `
b1010 =
b1010 ""
b1010 j
b111 ;
b111 |
b111 g
b111 )
b111 G
b111 ,"
b111 /"
1-
#130000
0-
#131000
b111 U
b111 T
b111 %"
b0 Z
b10 [
b100000000000000000000 X
b1 W
b1 ~
b1100 K
b1100 y
b1 =
b1 ""
b1 j
b0 ;
b0 |
b0 g
0a
b0 f
b1100 l
b100000000100000000000000000000 3
b100000000100000000000000000000 I
b100000000100000000000000000000 {
b1010 #
b1010 A
b1010 &"
b1010 5"
1-
#132000
0-
#133000
b1010 T
b1010 %"
b1 Z
b11100000000000000000000 X
b111 W
b111 ~
b1000 p
b1000 !
b1000 :
b1000 L
b1000 t
b1101 K
b1101 y
b1010 U
b0 M
b0 s
b100001011100000000000000000000 3
b100001011100000000000000000000 I
b100001011100000000000000000000 {
b1101 l
b1 5
b1 b
b111 n
b111 7
b111 d
b111 q
b0 `
1-
#134000
0-
#135000
1Y
0O
b1 T
b1 %"
0N
0w
b101 Z
b111 [
b0 W
b0 ~
b0 +
b0 ]
b0 u
0v
b1 U
b1001 p
b1001 !
b1001 :
b1001 L
b1001 t
b1 M
b1 s
b1110 K
b1110 y
b1011 X
b1011 Q
b1000 =
b1000 ""
b1000 j
b1 ;
b1 |
b1 g
b111 5
b111 b
b1010 n
b1010 7
b1010 d
b1010 q
b1 `
b1110 l
b1110101000000000000000000001011 3
b1110101000000000000000000001011 I
b1110101000000000000000000001011 {
1-
#136000
0-
#137000
0Y
0N
b0 +
b0 ]
b0 u
0v
b10 Z
b1 [
b1 p
b1 !
b1 :
b1 L
b1 t
b10 M
b10 s
b0 X
b0 Q
b1011 K
b1011 y
b1 U
b1 S
b100000011101100000000000000000 3
b100000011101100000000000000000 I
b100000011101100000000000000000 {
b1011 l
1a
b1011 f
b0 5
b0 b
b1 n
b1 7
b1 d
b1 q
b10 `
b1001 =
b1001 ""
b1001 j
b111 ;
b111 |
b111 g
b1000 )
b1000 G
b1000 ,"
b1000 /"
1-
#138000
0-
#139000
b1000 U
b1000 T
b1000 %"
b0 Z
b10 [
b100000000000000000000 X
b1 W
b1 ~
b1100 K
b1100 y
b1 =
b1 ""
b1 j
b0 ;
b0 |
b0 g
0a
b0 f
b1100 l
b100000000100000000000000000000 3
b100000000100000000000000000000 I
b100000000100000000000000000000 {
b1001 #
b1001 A
b1001 &"
b1001 5"
1-
#140000
0-
#141000
b1001 T
b1001 %"
b1 Z
b11100000000000000000000 X
b111 W
b111 ~
b1001 p
b1001 !
b1001 :
b1001 L
b1001 t
b1101 K
b1101 y
b1001 U
b0 M
b0 s
b100001011100000000000000000000 3
b100001011100000000000000000000 I
b100001011100000000000000000000 {
b1101 l
b1 5
b1 b
b1000 n
b1000 7
b1000 d
b1000 q
b0 `
1-
#142000
0-
#143000
1Y
0O
b1 T
b1 %"
0N
0w
b101 Z
b111 [
b0 W
b0 ~
b0 +
b0 ]
b0 u
0v
b1 U
b1000 p
b1000 !
b1000 :
b1000 L
b1000 t
b1 M
b1 s
b1110 K
b1110 y
b1011 X
b1011 Q
b1001 =
b1001 ""
b1001 j
b1 ;
b1 |
b1 g
b111 5
b111 b
b1001 n
b1001 7
b1001 d
b1001 q
b1 `
b1110 l
b1110101000000000000000000001011 3
b1110101000000000000000000001011 I
b1110101000000000000000000001011 {
1-
#144000
0-
#145000
0Y
0N
b0 +
b0 ]
b0 u
0v
b10 Z
b1 [
b1 p
b1 !
b1 :
b1 L
b1 t
b10 M
b10 s
b0 X
b0 Q
b1011 K
b1011 y
b1 U
b1 S
b100000011101100000000000000000 3
b100000011101100000000000000000 I
b100000011101100000000000000000 {
b1011 l
1a
b1011 f
b0 5
b0 b
b1 n
b1 7
b1 d
b1 q
b10 `
b1000 =
b1000 ""
b1000 j
b111 ;
b111 |
b111 g
b1001 )
b1001 G
b1001 ,"
b1001 /"
1-
#146000
0-
#147000
b1001 U
b1001 T
b1001 %"
b0 Z
b10 [
b100000000000000000000 X
b1 W
b1 ~
b1100 K
b1100 y
b1 =
b1 ""
b1 j
b0 ;
b0 |
b0 g
0a
b0 f
b1100 l
b100000000100000000000000000000 3
b100000000100000000000000000000 I
b100000000100000000000000000000 {
b1000 #
b1000 A
b1000 &"
b1000 5"
1-
#148000
0-
#149000
b1000 T
b1000 %"
b1 Z
b11100000000000000000000 X
b111 W
b111 ~
b1010 p
b1010 !
b1010 :
b1010 L
b1010 t
b1101 K
b1101 y
b1000 U
b0 M
b0 s
b100001011100000000000000000000 3
b100001011100000000000000000000 I
b100001011100000000000000000000 {
b1101 l
b1 5
b1 b
b1001 n
b1001 7
b1001 d
b1001 q
b0 `
1-
