tb/Simulations/pro_tb3.vcd
$date
	Tue May 31 17:24:07 2022
$end
$version
	Icarus Verilog
$end
$timescale
	10ps
$end
$scope module pro_tb2 $end
$var wire 32 ! valE [31:0] $end
$var wire 32 " r7 [31:0] $end
$var wire 32 # r6 [31:0] $end
$var wire 32 $ r5 [31:0] $end
$var wire 32 % r4 [31:0] $end
$var wire 32 & r3 [31:0] $end
$var wire 32 ' r2 [31:0] $end
$var wire 32 ( r1 [31:0] $end
$var wire 32 ) r0 [31:0] $end
$var reg 9 * addr [8:0] $end
$var reg 1 + clock $end
$var reg 32 , wdata [31:0] $end
$var reg 1 - working $end
$var reg 1 . wr $end
$scope module processor $end
$var wire 32 / F_read [31:0] $end
$var wire 9 0 addr [8:0] $end
$var wire 1 + clock $end
$var wire 32 1 valE [31:0] $end
$var wire 32 2 wdata [31:0] $end
$var wire 1 - working $end
$var wire 1 . wr $end
$var wire 32 3 rdata [31:0] $end
$var wire 1 4 rd $end
$var wire 32 5 r7 [31:0] $end
$var wire 32 6 r6 [31:0] $end
$var wire 32 7 r5 [31:0] $end
$var wire 32 8 r4 [31:0] $end
$var wire 32 9 r3 [31:0] $end
$var wire 32 : r2 [31:0] $end
$var wire 32 ; r1 [31:0] $end
$var wire 32 < r0 [31:0] $end
$var wire 32 = d_valB [31:0] $end
$var wire 32 > d_valA [31:0] $end
$var wire 9 ? addr_w [8:0] $end
$var reg 4 @ D_icode [3:0] $end
$var reg 4 A D_ifun [3:0] $end
$var reg 4 B D_rA [3:0] $end
$var reg 4 C D_rB [3:0] $end
$var reg 32 D D_valA [31:0] $end
$var reg 32 E D_valB [31:0] $end
$var reg 16 F D_valC [15:0] $end
$var reg 4 G E_dstM [3:0] $end
$var reg 32 H E_valM [31:0] $end
$var reg 9 I PC [8:0] $end
$var reg 4 J d_icode [3:0] $end
$var reg 4 K d_ifun [3:0] $end
$var reg 4 L d_rA [3:0] $end
$var reg 4 M d_rB [3:0] $end
$var reg 16 N d_valC [15:0] $end
$var reg 1 O e_reg_rst $end
$var reg 4 P w_dstM [3:0] $end
$var reg 32 Q w_valM [31:0] $end
$scope module ram $end
$var wire 9 R addr [8:0] $end
$var wire 1 + clock $end
$var wire 1 4 rd $end
$var wire 32 S wdata [31:0] $end
$var wire 1 . wr $end
$var reg 32 T rdata [31:0] $end
$upscope $end
$scope module regfile $end
$var wire 1 + clock $end
$var wire 4 U dstE [3:0] $end
$var wire 4 V dstM [3:0] $end
$var wire 4 W rA [3:0] $end
$var wire 4 X rB [3:0] $end
$var wire 1 O reset $end
$var wire 32 Y valE [31:0] $end
$var wire 32 Z valM [31:0] $end
$var wire 32 [ valB [31:0] $end
$var wire 32 \ valA [31:0] $end
$var wire 32 ] r7 [31:0] $end
$var wire 32 ^ r6 [31:0] $end
$var wire 32 _ r5 [31:0] $end
$var wire 32 ` r4 [31:0] $end
$var wire 32 a r3 [31:0] $end
$var wire 32 b r2 [31:0] $end
$var wire 32 c r1 [31:0] $end
$var wire 32 d r0 [31:0] $end
$var reg 32 e r_r0 [31:0] $end
$var reg 32 f r_r1 [31:0] $end
$var reg 32 g r_r2 [31:0] $end
$var reg 32 h r_r3 [31:0] $end
$var reg 32 i r_r4 [31:0] $end
$var reg 32 j r_r5 [31:0] $end
$var reg 32 k r_r6 [31:0] $end
$var reg 32 l r_r7 [31:0] $end
$upscope $end
$upscope $end
$upscope $end
$enddefinitions $end
#0
$dumpvars
bx l
bx k
bx j
bx i
bx h
bx g
bx f
bx e
bx d
bx c
bx b
bx a
bx `
bx _
bx ^
bx ]
bx \
bx [
bz Z
bz Y
bz X
bz W
bz V
bz U
bz T
b0 S
b0 R
bz Q
bz P
1O
bz N
bz M
bz L
bz K
bz J
b0 I
bz H
bz G
bz F
bz E
bz D
bz C
bz B
bz A
bz @
b0 ?
bx >
bx =
bx <
bx ;
bx :
bx 9
bx 8
bx 7
bx 6
bx 5
04
bz 3
b0 2
bz 1
b0 0
bz /
0.
0-
b0 ,
0+
b0 *
bx )
bx (
bx '
bx &
bx %
bx $
bx #
bx "
bz !
$end
#1000
b0 "
b0 5
b0 ]
b0 l
b0 #
b0 6
b0 ^
b0 k
b0 $
b0 7
b0 _
b0 j
b0 %
b0 8
b0 `
b0 i
b0 &
b0 9
b0 a
b0 h
b0 '
b0 :
b0 b
b0 g
b0 (
b0 ;
b0 c
b0 f
b0 )
b0 <
b0 d
b0 e
1+
#2000
b10000111100000000000010000000 ,
b10000111100000000000010000000 2
b10000111100000000000010000000 S
1.
0O
0+
#3000
1+
#4000
b1 ?
b1 R
b10000111100010000000010000001 ,
b10000111100010000000010000001 2
b10000111100010000000010000001 S
b1 *
b1 0
0+
#5000
1+
#6000
b10 ?
b10 R
b10000111100100000000010000010 ,
b10000111100100000000010000010 2
b10000111100100000000010000010 S
b10 *
b10 0
0+
#7000
1+
#8000
b11 ?
b11 R
b10000111100110000000010000011 ,
b10000111100110000000010000011 2
b10000111100110000000010000011 S
b11 *
b11 0
0+
#9000
1+
#10000
b100 ?
b100 R
b10000111101000000000010000100 ,
b10000111101000000000010000100 2
b10000111101000000000010000100 S
b100 *
b100 0
0+
#11000
1+
#12000
b101 ?
b101 R
b10000111101010000000010000101 ,
b10000111101010000000010000101 2
b10000111101010000000010000101 S
b101 *
b101 0
0+
#13000
1+
#14000
b110 ?
b110 R
b10000111101100000000010000110 ,
b10000111101100000000010000110 2
b10000111101100000000010000110 S
b110 *
b110 0
0+
#15000
1+
#16000
b111 ?
b111 R
b10000111101110000000010000111 ,
b10000111101110000000010000111 2
b10000111101110000000010000111 S
b111 *
b111 0
0+
#17000
1+
#18000
b1000 ?
b1000 R
b100000000000010000000000000000 ,
b100000000000010000000000000000 2
b100000000000010000000000000000 S
b1000 *
b1000 0
0+
#19000
1+
#20000
b1001 ?
b1001 R
b100001001000110000000000000000 ,
b100001001000110000000000000000 2
b100001001000110000000000000000 S
b1001 *
b1001 0
0+
#21000
1+
#22000
b1010 ?
b1010 R
b100010010001010000000000000000 ,
b100010010001010000000000000000 2
b100010010001010000000000000000 S
b1010 *
b1010 0
0+
#23000
1+
#24000
b1011 ?
b1011 R
b100011011001110000000000000000 ,
b100011011001110000000000000000 2
b100011011001110000000000000000 S
b1011 *
b1011 0
0+
#25000
1+
#26000
b0 ?
b0 R
b0 ,
b0 2
b0 S
0.
b0 *
b0 0
0+
#27000
14
1-
1+
#28000
0+
#29000
b1 ?
b1 R
b10000111100000000000010000000 /
b10000111100000000000010000000 3
b10000111100000000000010000000 T
b1 I
bx E
bx D
1+
#30000
0+
#31000
b0 =
b0 [
bz >
bz \
b10 ?
b10 R
b10000000 N
b0 M
b0 X
b1111 L
b1111 W
b0 K
b1 J
b10 I
b10000111100010000000010000001 /
b10000111100010000000010000001 3
b10000111100010000000010000001 T
1+
#32000
0+
#33000
b11 ?
b11 R
b10000111100100000000010000010 /
b10000111100100000000010000010 3
b10000111100100000000010000010 T
b11 I
b0 E
bz D
b10000000 F
b0 C
b1111 B
b0 A
b1 @
b10000001 N
b1 M
b1 X
1+
#34000
0+
#35000
b100 ?
b100 R
b10000000 H
b0 G
b10000001 F
b1 C
b10000010 N
b10 M
b10 X
b100 I
b10000111100110000000010000011 /
b10000111100110000000010000011 3
b10000111100110000000010000011 T
1+
#36000
0+
#37000
b101 ?
b101 R
b10000111101000000000010000100 /
b10000111101000000000010000100 3
b10000111101000000000010000100 T
b101 I
b10000010 F
b10 C
b10000011 N
b11 M
b11 X
b10000001 H
b1 G
b10000000 Q
b10000000 Z
b0 P
b0 V
1+
#38000
0+
#39000
b110 ?
b110 R
b10000001 Q
b10000001 Z
b1 P
b1 V
b10000010 H
b10 G
b10000011 F
b11 C
b10000100 N
b100 M
b100 X
b110 I
b10000111101010000000010000101 /
b10000111101010000000010000101 3
b10000111101010000000010000101 T
b10000000 )
b10000000 <
b10000000 d
b10000000 e
1+
#40000
0+
#41000
b111 ?
b111 R
b10000111101100000000010000110 /
b10000111101100000000010000110 3
b10000111101100000000010000110 T
b111 I
b10000100 F
b100 C
b10000101 N
b101 M
b101 X
b10000011 H
b11 G
b10000010 Q
b10000010 Z
b10 P
b10 V
b10000001 (
b10000001 ;
b10000001 c
b10000001 f
1+
#42000
0+
#43000
b1000 ?
b1000 R
b10000011 Q
b10000011 Z
b11 P
b11 V
b10000100 H
b100 G
b10000101 F
b101 C
b10000110 N
b110 M
b110 X
b1000 I
b10000111101110000000010000111 /
b10000111101110000000010000111 3
b10000111101110000000010000111 T
b10000010 '
b10000010 :
b10000010 b
b10000010 g
1+
#44000
0+
#45000
b1001 ?
b1001 R
b100000000000010000000000000000 /
b100000000000010000000000000000 3
b100000000000010000000000000000 T
b1001 I
b10000110 F
b110 C
b10000111 N
b111 M
b111 X
b10000101 H
b101 G
b10000100 Q
b10000100 Z
b100 P
b100 V
b10000011 &
b10000011 9
b10000011 a
b10000011 h
1+
#46000
0+
#47000
b10000001 =
b10000001 [
b10000000 >
b10000000 \
b1010 ?
b1010 R
b10000101 Q
b10000101 Z
b101 P
b101 V
b10000110 H
b110 G
b10000111 F
b111 C
b0 N
b1 M
b1 X
b0 L
b0 W
b10 J
b1010 I
b100001001000110000000000000000 /
b100001001000110000000000000000 3
b100001001000110000000000000000 T
b10000100 %
b10000100 8
b10000100 `
b10000100 i
1+
#48000
0+
#49000
b10000011 =
b10000011 [
b1011 ?
b1011 R
b10000010 >
b10000010 \
b100010010001010000000000000000 /
b100010010001010000000000000000 3
b100010010001010000000000000000 T
b1011 I
b10000001 E
b10000000 D
b0 F
b1 C
b0 B
b10 @
b11 M
b11 X
b10 L
b10 W
b1 K
b10000111 H
b111 G
b10000110 Q
b10000110 Z
b110 P
b110 V
b10000101 $
b10000101 7
b10000101 _
b10000101 j
1+
#50000
0+
#51000
b10000101 =
b10000101 [
b10000100 >
b10000100 \
b1100 ?
b1100 R
b10000111 Q
b10000111 Z
b111 P
b111 V
b10000011 E
b10000010 D
b11 C
b10 B
b1 A
b101 M
b101 X
b100 L
b100 W
b10 K
b1100 I
b100011011001110000000000000000 /
b100011011001110000000000000000 3
b100011011001110000000000000000 T
b10000110 #
b10000110 6
b10000110 ^
b10000110 k
1+
#52000
0+
#53000
b10000111 =
b10000111 [
b10000110 >
b10000110 \
b1101 ?
b1101 R
bx /
bx 3
bx T
b1101 I
b10000101 E
b10000100 D
b101 C
b100 B
b10 A
b111 M
b111 X
b110 L
b110 W
b11 K
b10000111 "
b10000111 5
b10000111 ]
b10000111 l
1+
#54000
0+
#55000
bx =
bx [
bx >
bx \
b1110 ?
b1110 R
b10000111 E
b10000110 D
b111 C
b110 B
b11 A
bx N
bx M
bx X
bx L
bx W
bx K
bx J
b1110 I
1+
#56000
0+
#57000
b1111 ?
b1111 R
b1111 I
bx E
bx D
bx F
bx C
bx B
bx A
bx @
1+
#58000
0+
#59000
b10000 ?
b10000 R
b10000 I
1+
#60000
0+
#61000
b10001 ?
b10001 R
b10001 I
1+
#62000
0+
#63000
b10010 ?
b10010 R
b10010 I
1+
#64000
0+
#65000
b10011 ?
b10011 R
b10011 I
1+
#66000
0+
#67000
b10100 ?
b10100 R
b10100 I
1+
#68000
0+
#69000
b10101 ?
b10101 R
b10101 I
1+
#70000
0+
#71000
b10110 ?
b10110 R
b10110 I
1+
#72000
0+
#73000
b10111 ?
b10111 R
b10111 I
1+
#74000
0+
#75000
b11000 ?
b11000 R
b11000 I
1+
