tb/Simulations/pro_tb2.vcd
$date
	Tue May 31 11:02:53 2022
$end
$version
	Icarus Verilog
$end
$timescale
	10ps
$end
$scope module pro_tb2 $end
$var wire 32 ! r7 [31:0] $end
$var wire 32 " r6 [31:0] $end
$var wire 32 # r5 [31:0] $end
$var wire 32 $ r4 [31:0] $end
$var wire 32 % r3 [31:0] $end
$var wire 32 & r2 [31:0] $end
$var wire 32 ' r1 [31:0] $end
$var wire 32 ( r0 [31:0] $end
$var reg 9 ) addr [8:0] $end
$var reg 1 * clock $end
$var reg 32 + wdata [31:0] $end
$var reg 1 , working $end
$var reg 1 - wr $end
$scope module processor $end
$var wire 32 . F_read [31:0] $end
$var wire 9 / addr [8:0] $end
$var wire 1 * clock $end
$var wire 32 0 wdata [31:0] $end
$var wire 1 , working $end
$var wire 1 - wr $end
$var wire 32 1 rdata [31:0] $end
$var wire 1 2 rd $end
$var wire 32 3 r7 [31:0] $end
$var wire 32 4 r6 [31:0] $end
$var wire 32 5 r5 [31:0] $end
$var wire 32 6 r4 [31:0] $end
$var wire 32 7 r3 [31:0] $end
$var wire 32 8 r2 [31:0] $end
$var wire 32 9 r1 [31:0] $end
$var wire 32 : r0 [31:0] $end
$var wire 9 ; addr_w [8:0] $end
$var reg 4 < D_icode [3:0] $end
$var reg 4 = D_ifun [3:0] $end
$var reg 4 > D_rA [3:0] $end
$var reg 4 ? D_rB [3:0] $end
$var reg 16 @ D_valC [15:0] $end
$var reg 4 A E_dstM [3:0] $end
$var reg 32 B E_valM [31:0] $end
$var reg 9 C PC [8:0] $end
$var reg 1 D e_reg_rst $end
$var reg 4 E w_dstM [3:0] $end
$var reg 32 F w_valM [31:0] $end
$scope module ram $end
$var wire 9 G addr [8:0] $end
$var wire 1 * clock $end
$var wire 1 2 rd $end
$var wire 32 H wdata [31:0] $end
$var wire 1 - wr $end
$var reg 32 I rdata [31:0] $end
$upscope $end
$scope module regfile $end
$var wire 1 * clock $end
$var wire 4 J dstE [3:0] $end
$var wire 4 K dstM [3:0] $end
$var wire 32 L r0 [31:0] $end
$var wire 32 M r1 [31:0] $end
$var wire 32 N r2 [31:0] $end
$var wire 32 O r3 [31:0] $end
$var wire 32 P r4 [31:0] $end
$var wire 32 Q r5 [31:0] $end
$var wire 32 R r6 [31:0] $end
$var wire 32 S r7 [31:0] $end
$var wire 1 D reset $end
$var wire 32 T valE [31:0] $end
$var wire 32 U valM [31:0] $end
$var wire 1 V valB $end
$var wire 1 W valA $end
$var reg 32 X r_r0 [31:0] $end
$var reg 32 Y r_r1 [31:0] $end
$var reg 32 Z r_r2 [31:0] $end
$var reg 32 [ r_r3 [31:0] $end
$var reg 32 \ r_r4 [31:0] $end
$var reg 32 ] r_r5 [31:0] $end
$var reg 32 ^ r_r6 [31:0] $end
$var reg 32 _ r_r7 [31:0] $end
$var reg 32 ` r_valA [31:0] $end
$var reg 32 a r_valB [31:0] $end
$upscope $end
$upscope $end
$upscope $end
$enddefinitions $end
#0
$dumpvars
bx a
bx `
bx _
bx ^
bx ]
bx \
bx [
bx Z
bx Y
bx X
xW
xV
bz U
bz T
bx S
bx R
bx Q
bx P
bx O
bx N
bx M
bx L
bz K
bz J
bz I
b0 H
b0 G
bz F
bz E
1D
b0 C
bz B
bz A
bz @
bz ?
bz >
bz =
bz <
b0 ;
bx :
bx 9
bx 8
bx 7
bx 6
bx 5
bx 4
bx 3
02
bz 1
b0 0
b0 /
bz .
0-
0,
b0 +
0*
b0 )
bx (
bx '
bx &
bx %
bx $
bx #
bx "
bx !
$end
#1000
0V
0W
b0 !
b0 3
b0 S
b0 _
b0 "
b0 4
b0 R
b0 ^
b0 #
b0 5
b0 Q
b0 ]
b0 $
b0 6
b0 P
b0 \
b0 %
b0 7
b0 O
b0 [
b0 &
b0 8
b0 N
b0 Z
b0 '
b0 9
b0 M
b0 Y
b0 (
b0 :
b0 L
b0 X
b0 a
b0 `
1*
#2000
b10000111100000000000010000000 +
b10000111100000000000010000000 0
b10000111100000000000010000000 H
1-
0D
0*
#3000
1*
#4000
b1 ;
b1 G
b10000111100010000000010000001 +
b10000111100010000000010000001 0
b10000111100010000000010000001 H
b1 )
b1 /
0*
#5000
1*
#6000
b10 ;
b10 G
b10000111100100000000010000010 +
b10000111100100000000010000010 0
b10000111100100000000010000010 H
b10 )
b10 /
0*
#7000
1*
#8000
b11 ;
b11 G
b10000111100110000000010000011 +
b10000111100110000000010000011 0
b10000111100110000000010000011 H
b11 )
b11 /
0*
#9000
1*
#10000
b100 ;
b100 G
b10000111101000000000010000100 +
b10000111101000000000010000100 0
b10000111101000000000010000100 H
b100 )
b100 /
0*
#11000
1*
#12000
b101 ;
b101 G
b10000111101010000000010000101 +
b10000111101010000000010000101 0
b10000111101010000000010000101 H
b101 )
b101 /
0*
#13000
1*
#14000
b110 ;
b110 G
b10000111101100000000010000110 +
b10000111101100000000010000110 0
b10000111101100000000010000110 H
b110 )
b110 /
0*
#15000
1*
#16000
b111 ;
b111 G
b10000111101110000000010000111 +
b10000111101110000000010000111 0
b10000111101110000000010000111 H
b111 )
b111 /
0*
#17000
1*
#18000
b0 ;
b0 G
b0 +
b0 0
b0 H
0-
b0 )
b0 /
0*
#19000
12
1,
1*
#20000
0*
#21000
b1 ;
b1 G
b10000111100000000000010000000 .
b10000111100000000000010000000 1
b10000111100000000000010000000 I
b1 C
1*
#22000
0*
#23000
b10 ;
b10 G
b10000000 @
b0 ?
b1111 >
b0 =
b1 <
b10 C
b10000111100010000000010000001 .
b10000111100010000000010000001 1
b10000111100010000000010000001 I
1*
#24000
0*
#25000
b11 ;
b11 G
b10000111100100000000010000010 .
b10000111100100000000010000010 1
b10000111100100000000010000010 I
b11 C
b10000001 @
b1 ?
b10000000 B
b0 A
1*
#26000
0*
#27000
b100 ;
b100 G
b10000000 F
b10000000 U
b0 E
b0 K
b10000001 B
b1 A
b10000010 @
b10 ?
b100 C
b10000111100110000000010000011 .
b10000111100110000000010000011 1
b10000111100110000000010000011 I
1*
#28000
0*
#29000
b101 ;
b101 G
b10000111101000000000010000100 .
b10000111101000000000010000100 1
b10000111101000000000010000100 I
b101 C
b10000011 @
b11 ?
b10000010 B
b10 A
b10000001 F
b10000001 U
b1 E
b1 K
b10000000 (
b10000000 :
b10000000 L
b10000000 X
1*
#30000
0*
#31000
b110 ;
b110 G
b10000010 F
b10000010 U
b10 E
b10 K
b10000011 B
b11 A
b10000100 @
b100 ?
b110 C
b10000111101010000000010000101 .
b10000111101010000000010000101 1
b10000111101010000000010000101 I
b10000001 '
b10000001 9
b10000001 M
b10000001 Y
1*
#32000
0*
#33000
b111 ;
b111 G
b10000111101100000000010000110 .
b10000111101100000000010000110 1
b10000111101100000000010000110 I
b111 C
b10000101 @
b101 ?
b10000100 B
b100 A
b10000011 F
b10000011 U
b11 E
b11 K
b10000010 &
b10000010 8
b10000010 N
b10000010 Z
1*
#34000
0*
#35000
b1000 ;
b1000 G
b10000100 F
b10000100 U
b100 E
b100 K
b10000101 B
b101 A
b10000110 @
b110 ?
b1000 C
b10000111101110000000010000111 .
b10000111101110000000010000111 1
b10000111101110000000010000111 I
b10000011 %
b10000011 7
b10000011 O
b10000011 [
1*
#36000
0*
#37000
b1001 ;
b1001 G
bx .
bx 1
bx I
b1001 C
b10000111 @
b111 ?
b10000110 B
b110 A
b10000101 F
b10000101 U
b101 E
b101 K
b10000100 $
b10000100 6
b10000100 P
b10000100 \
1*
#38000
0*
#39000
b1010 ;
b1010 G
b10000110 F
b10000110 U
b110 E
b110 K
b10000111 B
b111 A
bx @
bx ?
bx >
bx =
bx <
b1010 C
b10000101 #
b10000101 5
b10000101 Q
b10000101 ]
1*
#40000
0*
#41000
b1011 ;
b1011 G
b1011 C
b10000111 F
b10000111 U
b111 E
b111 K
b10000110 "
b10000110 4
b10000110 R
b10000110 ^
1*
#42000
0*
#43000
b1100 ;
b1100 G
b1100 C
b10000111 !
b10000111 3
b10000111 S
b10000111 _
1*
#44000
0*
#45000
b1101 ;
b1101 G
b1101 C
1*
#46000
0*
#47000
b1110 ;
b1110 G
b1110 C
1*
#48000
0*
#49000
b1111 ;
b1111 G
b1111 C
1*
#50000
0*
#51000
b10000 ;
b10000 G
b10000 C
1*
#52000
0*
#53000
b10001 ;
b10001 G
b10001 C
1*
#54000
0*
#55000
b10010 ;
b10010 G
b10010 C
1*
#56000
0*
#57000
b10011 ;
b10011 G
b10011 C
1*
#58000
0*
#59000
b10100 ;
b10100 G
b10100 C
1*
#60000
0*
#61000
b10101 ;
b10101 G
b10101 C
1*
#62000
0*
#63000
b10110 ;
b10110 G
b10110 C
1*
#64000
0*
#65000
b10111 ;
b10111 G
b10111 C
1*
#66000
0*
#67000
b11000 ;
b11000 G
b11000 C
1*
