tb/Pics/EXTask1/pro_tbe1.vcd
$date
	Thu Jun 02 15:27:27 2022
$end
$version
	Icarus Verilog
$end
$timescale
	10ps
$end
$scope module pro_tb4 $end
$var wire 32 ! valE [31:0] $end
$var wire 32 " rdata [31:0] $end
$var wire 32 # r7 [31:0] $end
$var wire 32 $ r6 [31:0] $end
$var wire 32 % r5 [31:0] $end
$var wire 32 & r4 [31:0] $end
$var wire 32 ' r3 [31:0] $end
$var wire 32 ( r2 [31:0] $end
$var wire 32 ) r1 [31:0] $end
$var wire 32 * r0 [31:0] $end
$var wire 3 + cc [2:0] $end
$var reg 9 , addr [8:0] $end
$var reg 1 - clock $end
$var reg 1 . flg $end
$var reg 4 / rID [3:0] $end
$var reg 32 0 wdata [31:0] $end
$var reg 1 1 working $end
$var reg 1 2 wr $end
$scope module processor $end
$var wire 32 3 F_read [31:0] $end
$var wire 9 4 addr [8:0] $end
$var wire 1 - clock $end
$var wire 1 5 e_halt $end
$var wire 32 6 e_valA [31:0] $end
$var wire 32 7 e_valB [31:0] $end
$var wire 4 8 rID [3:0] $end
$var wire 32 9 valE [31:0] $end
$var wire 32 : wdata [31:0] $end
$var wire 1 1 working $end
$var wire 1 2 wr $end
$var wire 32 ; rdata [31:0] $end
$var wire 32 < r7 [31:0] $end
$var wire 32 = r6 [31:0] $end
$var wire 32 > r5 [31:0] $end
$var wire 32 ? r4 [31:0] $end
$var wire 32 @ r3 [31:0] $end
$var wire 32 A r2 [31:0] $end
$var wire 32 B r1 [31:0] $end
$var wire 32 C r0 [31:0] $end
$var wire 32 D f_rdata [31:0] $end
$var wire 1 E f_rd $end
$var wire 9 F f_addr [8:0] $end
$var wire 32 G e_valE [31:0] $end
$var wire 4 H e_alufun [3:0] $end
$var wire 32 I d_valB [31:0] $end
$var wire 32 J d_valA [31:0] $end
$var wire 1 K d_halt $end
$var wire 3 L cc [2:0] $end
$var reg 1 M D_halt $end
$var reg 4 N D_icode [3:0] $end
$var reg 4 O D_ifun [3:0] $end
$var reg 4 P D_rA [3:0] $end
$var reg 4 Q D_rB [3:0] $end
$var reg 32 R D_valA [31:0] $end
$var reg 32 S D_valB [31:0] $end
$var reg 16 T D_valC [15:0] $end
$var reg 4 U E_dstE [3:0] $end
$var reg 4 V E_dstM [3:0] $end
$var reg 1 W E_halt $end
$var reg 32 X E_valE [31:0] $end
$var reg 32 Y E_valM [31:0] $end
$var reg 9 Z PC [8:0] $end
$var reg 4 [ d_icode [3:0] $end
$var reg 4 \ d_ifun [3:0] $end
$var reg 4 ] d_rA [3:0] $end
$var reg 4 ^ d_rB [3:0] $end
$var reg 16 _ d_valC [15:0] $end
$var reg 1 ` e_reg_rst $end
$var reg 4 a w_dstE [3:0] $end
$var reg 4 b w_dstM [3:0] $end
$var reg 32 c w_valE [31:0] $end
$var reg 32 d w_valM [31:0] $end
$scope module alu $end
$var wire 32 e A [31:0] $end
$var wire 32 f B [31:0] $end
$var wire 32 g E [31:0] $end
$var wire 32 h aluA [31:0] $end
$var wire 32 i aluB [31:0] $end
$var wire 4 j alufun [3:0] $end
$var wire 32 k valE [31:0] $end
$var wire 3 l cc [2:0] $end
$var wire 1 m ZF $end
$var wire 1 n SF $end
$var wire 1 o OF $end
$upscope $end
$scope module ram $end
$var wire 9 p addr [8:0] $end
$var wire 1 - clock $end
$var wire 1 E rd $end
$var wire 32 q wdata [31:0] $end
$var wire 1 2 wr $end
$var reg 32 r rdata [31:0] $end
$upscope $end
$scope module regfile $end
$var wire 1 - clock $end
$var wire 4 s dstE [3:0] $end
$var wire 4 t dstM [3:0] $end
$var wire 4 u rA [3:0] $end
$var wire 4 v rB [3:0] $end
$var wire 1 ` reset $end
$var wire 32 w valE [31:0] $end
$var wire 32 x valM [31:0] $end
$var wire 32 y valB [31:0] $end
$var wire 32 z valA [31:0] $end
$var wire 32 { r7 [31:0] $end
$var wire 32 | r6 [31:0] $end
$var wire 32 } r5 [31:0] $end
$var wire 32 ~ r4 [31:0] $end
$var wire 32 !" r3 [31:0] $end
$var wire 32 "" r2 [31:0] $end
$var wire 32 #" r1 [31:0] $end
$var wire 32 $" r0 [31:0] $end
$var reg 32 %" r_r0 [31:0] $end
$var reg 32 &" r_r1 [31:0] $end
$var reg 32 '" r_r2 [31:0] $end
$var reg 32 (" r_r3 [31:0] $end
$var reg 32 )" r_r4 [31:0] $end
$var reg 32 *" r_r5 [31:0] $end
$var reg 32 +" r_r6 [31:0] $end
$var reg 32 ," r_r7 [31:0] $end
$upscope $end
$upscope $end
$upscope $end
$enddefinitions $end
#0
$dumpvars
bx ,"
bx +"
bx *"
bx )"
bx ("
bx '"
bx &"
bx %"
bx $"
bx #"
bx ""
bx !"
bx ~
bx }
bx |
bx {
bx z
bx y
bz x
bz w
bz v
bz u
bz t
bz s
bz r
b0 q
b0 p
xo
xn
xm
bx l
bx k
bx j
bz i
bz h
bx g
bz f
bz e
bz d
bz c
bz b
bz a
1`
bz _
bz ^
bz ]
bz \
bz [
b0 Z
bz Y
bz X
zW
bz V
bz U
bz T
bz S
bz R
bz Q
bz P
bz O
bz N
zM
bx L
xK
bx J
bx I
bx H
bx G
b0 F
0E
bz D
bx C
bx B
bx A
bx @
bx ?
bx >
bx =
bx <
bz ;
b0 :
bx 9
b1111 8
bz 7
bz 6
z5
b0 4
bz 3
02
01
b0 0
b1111 /
0.
0-
b0 ,
bx +
bx *
bx )
bx (
bx '
bx &
bx %
bx $
bx #
bz "
bx !
$end
#1000
bx X
b0 #
b0 <
b0 {
b0 ,"
b0 $
b0 =
b0 |
b0 +"
b0 %
b0 >
b0 }
b0 *"
b0 &
b0 ?
b0 ~
b0 )"
b0 '
b0 @
b0 !"
b0 ("
b0 (
b0 A
b0 ""
b0 '"
b0 )
b0 B
b0 #"
b0 &"
b0 *
b0 C
b0 $"
b0 %"
1-
#2000
b10000111100000000000010000000 0
b10000111100000000000010000000 :
b10000111100000000000010000000 q
12
0`
0-
#3000
bx c
bx w
1-
#4000
b1 F
b1 p
b10000111100010000000010000001 0
b10000111100010000000010000001 :
b10000111100010000000010000001 q
b1 ,
b1 4
0-
#5000
1-
#6000
b10 F
b10 p
b10000111100100000000010000010 0
b10000111100100000000010000010 :
b10000111100100000000010000010 q
b10 ,
b10 4
0-
#7000
1-
#8000
b11 F
b11 p
b10000111100110000000010000011 0
b10000111100110000000010000011 :
b10000111100110000000010000011 q
b11 ,
b11 4
0-
#9000
1-
#10000
b100 F
b100 p
b10000111101000000000010000100 0
b10000111101000000000010000100 :
b10000111101000000000010000100 q
b100 ,
b100 4
0-
#11000
1-
#12000
b101 F
b101 p
b10000111101010000000010000101 0
b10000111101010000000010000101 :
b10000111101010000000010000101 q
b101 ,
b101 4
0-
#13000
1-
#14000
b110 F
b110 p
b10000111101100000000010000110 0
b10000111101100000000010000110 :
b10000111101100000000010000110 q
b110 ,
b110 4
0-
#15000
1-
#16000
b111 F
b111 p
b10000111101110000000010000111 0
b10000111101110000000010000111 :
b10000111101110000000010000111 q
b111 ,
b111 4
0-
#17000
1-
#18000
b1000 F
b1000 p
b100000000000010000000000000000 0
b100000000000010000000000000000 :
b100000000000010000000000000000 q
b1000 ,
b1000 4
0-
#19000
1-
#20000
b1001 F
b1001 p
b10001000000000000000000000000 0
b10001000000000000000000000000 :
b10001000000000000000000000000 q
b1001 ,
b1001 4
0-
#21000
1-
#22000
b1010 F
b1010 p
b1010 ,
b1010 4
0-
#23000
1-
#24000
b1011 F
b1011 p
b100001001000110000000000000000 0
b100001001000110000000000000000 :
b100001001000110000000000000000 q
b1011 ,
b1011 4
0-
#25000
1-
#26000
b1100 F
b1100 p
b10010000000000000000000000000 0
b10010000000000000000000000000 :
b10010000000000000000000000000 q
b1100 ,
b1100 4
0-
#27000
1-
#28000
b1101 F
b1101 p
b1101 ,
b1101 4
0-
#29000
1-
#30000
b1110 F
b1110 p
b100010010001010000000000000000 0
b100010010001010000000000000000 :
b100010010001010000000000000000 q
b1110 ,
b1110 4
0-
#31000
1-
#32000
b1111 F
b1111 p
b10001000000000000000000000000 0
b10001000000000000000000000000 :
b10001000000000000000000000000 q
b1111 ,
b1111 4
0-
#33000
1-
#34000
b10000 F
b10000 p
b10010000000000000000000000000 0
b10010000000000000000000000000 :
b10010000000000000000000000000 q
b10000 ,
b10000 4
0-
#35000
1-
#36000
b10001 F
b10001 p
b100011011001110000000000000000 0
b100011011001110000000000000000 :
b100011011001110000000000000000 q
b10001 ,
b10001 4
0-
#37000
1-
#38000
b0 F
b0 p
b0 0
b0 :
b0 q
02
b0 ,
b0 4
0-
#39000
1E
11
1-
#40000
0-
#41000
b1 F
b1 p
b10000111100000000000010000000 3
b10000111100000000000010000000 D
b10000111100000000000010000000 r
b1 Z
x5
xM
bx f
bx 7
bx S
bx i
bx e
bx 6
bx R
bx h
1-
#42000
0-
#43000
0K
b0 I
b0 y
bz J
bz z
b10 F
b10 p
xW
b10000000 _
b0 ^
b0 v
b1111 ]
b1111 u
b0 \
b1 [
b10 Z
b10000111100010000000010000001 3
b10000111100010000000010000001 D
b10000111100010000000010000001 r
1-
#44000
0-
#45000
b11 F
b11 p
bz H
bz j
b10000111100100000000010000010 3
b10000111100100000000010000010 D
b10000111100100000000010000010 r
b11 Z
05
0M
b0 f
b0 7
b0 S
b0 i
bz e
bz 6
bz R
bz h
b10000000 T
b0 Q
b1111 P
b0 O
b1 N
b10000001 _
b1 ^
b1 v
1-
#46000
0-
#47000
b100 F
b100 p
0W
b1111 U
b10000000 Y
b0 V
b10000001 T
b1 Q
b10000010 _
b10 ^
b10 v
b100 Z
b10000111100110000000010000011 3
b10000111100110000000010000011 D
b10000111100110000000010000011 r
1-
#48000
0-
#49000
b101 F
b101 p
b10000111101000000000010000100 3
b10000111101000000000010000100 D
b10000111101000000000010000100 r
b101 Z
b10000010 T
b10 Q
b10000011 _
b11 ^
b11 v
b10000001 Y
b1 V
b1111 a
b1111 s
b10000000 d
b10000000 x
b0 b
b0 t
1-
#50000
0-
#51000
b110 F
b110 p
b10000001 d
b10000001 x
b1 b
b1 t
b10000010 Y
b10 V
b10000011 T
b11 Q
b10000100 _
b100 ^
b100 v
b110 Z
b10000111101010000000010000101 3
b10000111101010000000010000101 D
b10000111101010000000010000101 r
b10000000 *
b10000000 C
b10000000 $"
b10000000 %"
1-
#52000
0-
#53000
b111 F
b111 p
b10000111101100000000010000110 3
b10000111101100000000010000110 D
b10000111101100000000010000110 r
b111 Z
b10000100 T
b100 Q
b10000101 _
b101 ^
b101 v
b10000011 Y
b11 V
b10000010 d
b10000010 x
b10 b
b10 t
b10000001 )
b10000001 B
b10000001 #"
b10000001 &"
1-
#54000
0-
#55000
b1000 F
b1000 p
b10000011 d
b10000011 x
b11 b
b11 t
b10000100 Y
b100 V
b10000101 T
b101 Q
b10000110 _
b110 ^
b110 v
b1000 Z
b10000111101110000000010000111 3
b10000111101110000000010000111 D
b10000111101110000000010000111 r
b10000010 (
b10000010 A
b10000010 ""
b10000010 '"
1-
#56000
0-
#57000
b1001 F
b1001 p
b100000000000010000000000000000 3
b100000000000010000000000000000 D
b100000000000010000000000000000 r
b1001 Z
b10000110 T
b110 Q
b10000111 _
b111 ^
b111 v
b10000101 Y
b101 V
b10000100 d
b10000100 x
b100 b
b100 t
b10000011 '
b10000011 @
b10000011 !"
b10000011 ("
1-
#58000
0-
#59000
b10000001 I
b10000001 y
b10000000 J
b10000000 z
b1010 F
b1010 p
b10000101 d
b10000101 x
b101 b
b101 t
b10000110 Y
b110 V
b10000111 T
b111 Q
b0 _
b1 ^
b1 v
b0 ]
b0 u
b10 [
b1010 Z
b10001000000000000000000000000 3
b10001000000000000000000000000 D
b10001000000000000000000000000 r
b10000100 &
b10000100 ?
b10000100 ~
b10000100 )"
1-
#60000
0-
#61000
0o
0n
b0 +
b0 L
b0 l
0m
1K
b1011 F
b1011 p
b100000001 g
b100000001 !
b100000001 9
b100000001 G
b100000001 k
b0 H
b0 j
b10000000 I
b10000000 y
b1011 Z
b10000001 f
b10000001 7
b10000001 S
b10000001 i
b10000000 e
b10000000 6
b10000000 R
b10000000 h
b0 T
b1 Q
b0 P
b10 N
b0 ^
b0 v
b1 \
b1 [
b10000111 Y
b111 V
b10000110 d
b10000110 x
b110 b
b110 t
b10000101 %
b10000101 >
b10000101 }
b10000101 *"
1-
#62000
0-
#63000
xo
xn
bx +
bx L
bx l
xm
bx g
bx !
bx 9
bx G
bx k
bx H
bx j
b1100 F
b1100 p
b10000111 d
b10000111 x
b111 b
b111 t
b100000001 X
b0 U
bz Y
bz V
15
1M
bz f
bz 7
bz S
bz i
bz e
bz 6
bz R
bz h
bz T
bz Q
bz P
bz N
bz O
b1100 Z
b100001001000110000000000000000 3
b100001001000110000000000000000 D
b100001001000110000000000000000 r
b10000110 $
b10000110 =
b10000110 |
b10000110 +"
1-
#64000
0-
#65000
0K
b1101 F
b1101 p
b10000011 I
b10000011 y
b10000010 J
b10000010 z
b10010000000000000000000000000 3
b10010000000000000000000000000 D
b10010000000000000000000000000 r
b1101 Z
b11 ^
b11 v
b10 ]
b10 u
b10 [
1W
bx X
bz U
b100000001 c
b100000001 w
b0 a
b0 s
bz d
bz x
bz b
bz t
b10000111 #
b10000111 <
b10000111 {
b10000111 ,"
1-
#66000
0-
#67000
0o
1n
b10 +
b10 L
b10 l
0m
b11111111111111111111111111111111 g
b11111111111111111111111111111111 !
b11111111111111111111111111111111 9
b11111111111111111111111111111111 G
b11111111111111111111111111111111 k
b1 H
b1 j
b100000001 I
b100000001 y
b100000001 J
b100000001 z
b1110 F
b1110 p
bx c
bx w
bz a
bz s
05
0M
b10000011 f
b10000011 7
b10000011 S
b10000011 i
b10000010 e
b10000010 6
b10000010 R
b10000010 h
b0 T
b11 Q
b10 P
b1 O
b10 N
b0 ^
b0 v
b0 ]
b0 u
b10 \
b1 [
b1110 Z
b100000001 *
b100000001 C
b100000001 $"
b100000001 %"
1-
#68000
0-
#69000
0n
0o
b0 +
b0 L
b0 l
0m
b100000001 g
b100000001 !
b100000001 9
b100000001 G
b100000001 k
b10 H
b10 j
b1111 F
b1111 p
b100010010001010000000000000000 3
b100010010001010000000000000000 D
b100010010001010000000000000000 r
b1111 Z
b100000001 f
b100000001 7
b100000001 S
b100000001 i
b100000001 e
b100000001 6
b100000001 R
b100000001 h
b0 Q
b0 P
b10 O
0W
b11111111111111111111111111111111 X
b10 U
1-
#70000
0-
#71000
b10000101 I
b10000101 y
b10000100 J
b10000100 z
b10000 F
b10000 p
b11111111111111111111111111111111 c
b11111111111111111111111111111111 w
b10 a
b10 s
b100000001 X
b0 U
b101 ^
b101 v
b100 ]
b100 u
b10 [
b10000 Z
b10001000000000000000000000000 3
b10001000000000000000000000000 D
b10001000000000000000000000000 r
1-
#72000
0-
#73000
b10000100 g
b10000100 !
b10000100 9
b10000100 G
b10000100 k
1K
b10001 F
b10001 p
b100000001 I
b100000001 y
b100000001 J
b100000001 z
b10010000000000000000000000000 3
b10010000000000000000000000000 D
b10010000000000000000000000000 r
b10001 Z
b10000101 f
b10000101 7
b10000101 S
b10000101 i
b10000100 e
b10000100 6
b10000100 R
b10000100 h
b101 Q
b100 P
b0 ^
b0 v
b0 ]
b0 u
b1 \
b1 [
b100000001 c
b100000001 w
b0 a
b0 s
b11111111111111111111111111111111 (
b11111111111111111111111111111111 A
b11111111111111111111111111111111 ""
b11111111111111111111111111111111 '"
1-
#74000
0-
#75000
xo
xn
bx +
bx L
bx l
xm
bx g
bx !
bx 9
bx G
bx k
0K
bx H
bx j
b10010 F
b10010 p
b10000100 X
b100 U
15
1M
bz f
bz 7
bz S
bz i
bz e
bz 6
bz R
bz h
bz T
bz Q
bz P
bz N
bz O
b10 \
b10010 Z
b100011011001110000000000000000 3
b100011011001110000000000000000 D
b100011011001110000000000000000 r
1-
#76000
0-
#77000
0o
0n
b0 +
b0 L
b0 l
0m
b100000001 g
b100000001 !
b100000001 9
b100000001 G
b100000001 k
b10 H
b10 j
b10011 F
b10011 p
b10000111 I
b10000111 y
b10000110 J
b10000110 z
bx 3
bx D
bx r
b10011 Z
05
0M
b100000001 f
b100000001 7
b100000001 S
b100000001 i
b100000001 e
b100000001 6
b100000001 R
b100000001 h
b0 T
b0 Q
b0 P
b10 N
b10 O
b111 ^
b111 v
b110 ]
b110 u
b11 \
b10 [
1W
bx X
bz U
b10000100 c
b10000100 w
b100 a
b100 s
1-
#78000
0-
#79000
b1 g
b1 !
b1 9
b1 G
b1 k
b11 H
b11 j
xK
bx I
bx y
bx J
bx z
b10100 F
b10100 p
bx c
bx w
bz a
bz s
0W
b100000001 X
b0 U
b10000111 f
b10000111 7
b10000111 S
b10000111 i
b10000110 e
b10000110 6
b10000110 R
b10000110 h
b111 Q
b110 P
b11 O
bx _
bx ^
bx v
bx ]
bx u
bx \
bx [
b10100 Z
1-
#80000
0-
#81000
xo
xn
bx +
bx L
bx l
xm
bx g
bx !
bx 9
bx G
bx k
b10101 F
b10101 p
bx H
bx j
b10101 Z
x5
xM
bx f
bx 7
bx S
bx i
bx e
bx 6
bx R
bx h
bx T
bx Q
bx P
bx O
bx N
b1 X
b110 U
b100000001 c
b100000001 w
b0 a
b0 s
1-
#82000
0-
#83000
b10110 F
b10110 p
b1 c
b1 w
b110 a
b110 s
xW
bx X
bx U
b10110 Z
1-
#84000
0-
#85000
b10111 F
b10111 p
b10111 Z
bx c
bx w
bx a
bx s
b1 $
b1 =
b1 |
b1 +"
1-
#86000
0-
#87000
b11000 F
b11000 p
b11000 Z
1-
#88000
0-
#89000
b11001 F
b11001 p
b11001 Z
1-
#90000
0-
#91000
b11010 F
b11010 p
b11010 Z
1-
#92000
0-
#93000
b11011 F
b11011 p
b11011 Z
1-
#94000
0-
#95000
0E
b0 F
b0 p
b11100 Z
1.
01
1-
#96000
0-
#97000
b100000001 "
b100000001 ;
bz 3
bz D
bz r
b0 /
b0 8
1-
#98000
0-
#99000
b10000001 "
b10000001 ;
b1 /
b1 8
1-
#100000
0-
#101000
b11111111111111111111111111111111 "
b11111111111111111111111111111111 ;
b10 /
b10 8
1-
#102000
0-
#103000
b10000011 "
b10000011 ;
b11 /
b11 8
1-
#104000
0-
#105000
b10000100 "
b10000100 ;
b100 /
b100 8
1-
#106000
0-
#107000
b10000101 "
b10000101 ;
b101 /
b101 8
1-
#108000
0-
#109000
b1 "
b1 ;
b110 /
b110 8
1-
#110000
0-
#111000
b10000111 "
b10000111 ;
b111 /
b111 8
1-
#112000
0-
#113000
bz "
bz ;
b1000 /
b1000 8
1-
#114000
0-
#115000
b1001 /
b1001 8
1-
#116000
0-
#117000
b1010 /
b1010 8
1-
#118000
0-
#119000
b1011 /
b1011 8
1-
#120000
0-
#121000
b1100 /
b1100 8
1-
#122000
0-
#123000
b1101 /
b1101 8
1-
#124000
0-
#125000
b1110 /
b1110 8
1-
#126000
0-
#127000
b1111 /
b1111 8
1-
#128000
0-
#129000
b100000001 "
b100000001 ;
b0 /
b0 8
1-
#130000
0-
#131000
b10000001 "
b10000001 ;
b1 /
b1 8
1-
#132000
0-
#133000
b11111111111111111111111111111111 "
b11111111111111111111111111111111 ;
b10 /
b10 8
1-
#134000
0-
#135000
b10000011 "
b10000011 ;
b11 /
b11 8
1-
#136000
0-
#137000
b10000100 "
b10000100 ;
b100 /
b100 8
1-
#138000
0-
#139000
b10000101 "
b10000101 ;
b101 /
b101 8
1-
#140000
0-
#141000
b1 "
b1 ;
b110 /
b110 8
1-
#142000
0-
#143000
b10000111 "
b10000111 ;
b111 /
b111 8
1-
#144000
0-
#145000
bz "
bz ;
b1000 /
b1000 8
1-
#146000
0-
#147000
b1001 /
b1001 8
1-
#148000
0-
#149000
b1010 /
b1010 8
1-
#150000
0-
#151000
b1011 /
b1011 8
1-
#152000
0-
#153000
b1100 /
b1100 8
1-
#154000
0-
#155000
b1101 /
b1101 8
1-
#156000
0-
#157000
b1110 /
b1110 8
1-
#158000
0-
#159000
b1111 /
b1111 8
1-
#160000
0-
#161000
b100000001 "
b100000001 ;
b0 /
b0 8
1-
#162000
0-
#163000
b10000001 "
b10000001 ;
b1 /
b1 8
1-
#164000
0-
#165000
b11111111111111111111111111111111 "
b11111111111111111111111111111111 ;
b10 /
b10 8
1-
#166000
0-
#167000
b10000011 "
b10000011 ;
b11 /
b11 8
1-
#168000
0-
#169000
b10000100 "
b10000100 ;
b100 /
b100 8
1-
#170000
0-
#171000
b10000101 "
b10000101 ;
b101 /
b101 8
1-
#172000
0-
#173000
b1 "
b1 ;
b110 /
b110 8
1-
#174000
0-
#175000
b10000111 "
b10000111 ;
b111 /
b111 8
1-
#176000
0-
#177000
bz "
bz ;
b1000 /
b1000 8
1-
#178000
0-
#179000
b1001 /
b1001 8
1-
#180000
0-
#181000
b1010 /
b1010 8
1-
#182000
0-
#183000
b1011 /
b1011 8
1-
#184000
0-
#185000
b1100 /
b1100 8
1-
#186000
0-
#187000
b1101 /
b1101 8
1-
#188000
0-
#189000
b1110 /
b1110 8
1-
#190000
0-
#191000
b1111 /
b1111 8
1-
#192000
0-
#193000
b100000001 "
b100000001 ;
b0 /
b0 8
1-
