tb/Pics/EXTask1/pro_tbe1_nop.vcd
$date
	Thu Jun 02 00:35:26 2022
$end
$version
	Icarus Verilog
$end
$timescale
	10ps
$end
$scope module pro_tb4 $end
$var wire 32 ! valE [31:0] $end
$var wire 32 " rdata [31:0] $end
$var wire 32 # r7 [31:0] $end
$var wire 32 $ r6 [31:0] $end
$var wire 32 % r5 [31:0] $end
$var wire 32 & r4 [31:0] $end
$var wire 32 ' r3 [31:0] $end
$var wire 32 ( r2 [31:0] $end
$var wire 32 ) r1 [31:0] $end
$var wire 32 * r0 [31:0] $end
$var wire 3 + cc [2:0] $end
$var reg 9 , addr [8:0] $end
$var reg 1 - clock $end
$var reg 1 . flg $end
$var reg 4 / rID [3:0] $end
$var reg 32 0 wdata [31:0] $end
$var reg 1 1 working $end
$var reg 1 2 wr $end
$scope module processor $end
$var wire 32 3 F_read [31:0] $end
$var wire 9 4 addr [8:0] $end
$var wire 1 - clock $end
$var wire 32 5 e_valA [31:0] $end
$var wire 32 6 e_valB [31:0] $end
$var wire 4 7 rID [3:0] $end
$var wire 32 8 valE [31:0] $end
$var wire 32 9 wdata [31:0] $end
$var wire 1 1 working $end
$var wire 1 2 wr $end
$var wire 32 : rdata [31:0] $end
$var wire 32 ; r7 [31:0] $end
$var wire 32 < r6 [31:0] $end
$var wire 32 = r5 [31:0] $end
$var wire 32 > r4 [31:0] $end
$var wire 32 ? r3 [31:0] $end
$var wire 32 @ r2 [31:0] $end
$var wire 32 A r1 [31:0] $end
$var wire 32 B r0 [31:0] $end
$var wire 32 C f_rdata [31:0] $end
$var wire 1 D f_rd $end
$var wire 9 E f_addr [8:0] $end
$var wire 32 F e_valE [31:0] $end
$var wire 4 G e_alufun [3:0] $end
$var wire 32 H d_valB [31:0] $end
$var wire 32 I d_valA [31:0] $end
$var wire 1 J d_halt $end
$var wire 3 K cc [2:0] $end
$var reg 1 L D_halt $end
$var reg 4 M D_icode [3:0] $end
$var reg 4 N D_ifun [3:0] $end
$var reg 4 O D_rA [3:0] $end
$var reg 4 P D_rB [3:0] $end
$var reg 32 Q D_valA [31:0] $end
$var reg 32 R D_valB [31:0] $end
$var reg 16 S D_valC [15:0] $end
$var reg 4 T E_dstE [3:0] $end
$var reg 4 U E_dstM [3:0] $end
$var reg 1 V E_halt $end
$var reg 32 W E_valE [31:0] $end
$var reg 32 X E_valM [31:0] $end
$var reg 9 Y PC [8:0] $end
$var reg 4 Z d_icode [3:0] $end
$var reg 4 [ d_ifun [3:0] $end
$var reg 4 \ d_rA [3:0] $end
$var reg 4 ] d_rB [3:0] $end
$var reg 16 ^ d_valC [15:0] $end
$var reg 1 _ e_halt $end
$var reg 1 ` e_reg_rst $end
$var reg 4 a w_dstE [3:0] $end
$var reg 4 b w_dstM [3:0] $end
$var reg 32 c w_valE [31:0] $end
$var reg 32 d w_valM [31:0] $end
$scope module alu $end
$var wire 32 e A [31:0] $end
$var wire 32 f B [31:0] $end
$var wire 32 g E [31:0] $end
$var wire 32 h aluA [31:0] $end
$var wire 32 i aluB [31:0] $end
$var wire 4 j alufun [3:0] $end
$var wire 32 k valE [31:0] $end
$var wire 3 l cc [2:0] $end
$var wire 1 m ZF $end
$var wire 1 n SF $end
$var wire 1 o OF $end
$upscope $end
$scope module ram $end
$var wire 9 p addr [8:0] $end
$var wire 1 - clock $end
$var wire 1 D rd $end
$var wire 32 q wdata [31:0] $end
$var wire 1 2 wr $end
$var reg 32 r rdata [31:0] $end
$upscope $end
$scope module regfile $end
$var wire 1 - clock $end
$var wire 4 s dstE [3:0] $end
$var wire 4 t dstM [3:0] $end
$var wire 4 u rA [3:0] $end
$var wire 4 v rB [3:0] $end
$var wire 1 ` reset $end
$var wire 32 w valE [31:0] $end
$var wire 32 x valM [31:0] $end
$var wire 32 y valB [31:0] $end
$var wire 32 z valA [31:0] $end
$var wire 32 { r7 [31:0] $end
$var wire 32 | r6 [31:0] $end
$var wire 32 } r5 [31:0] $end
$var wire 32 ~ r4 [31:0] $end
$var wire 32 !" r3 [31:0] $end
$var wire 32 "" r2 [31:0] $end
$var wire 32 #" r1 [31:0] $end
$var wire 32 $" r0 [31:0] $end
$var reg 32 %" r_r0 [31:0] $end
$var reg 32 &" r_r1 [31:0] $end
$var reg 32 '" r_r2 [31:0] $end
$var reg 32 (" r_r3 [31:0] $end
$var reg 32 )" r_r4 [31:0] $end
$var reg 32 *" r_r5 [31:0] $end
$var reg 32 +" r_r6 [31:0] $end
$var reg 32 ," r_r7 [31:0] $end
$upscope $end
$upscope $end
$upscope $end
$enddefinitions $end
#0
$dumpvars
bx ,"
bx +"
bx *"
bx )"
bx ("
bx '"
bx &"
bx %"
bx $"
bx #"
bx ""
bx !"
bx ~
bx }
bx |
bx {
bx z
bx y
bz x
bz w
bz v
bz u
bz t
bz s
bz r
b0 q
b0 p
xo
xn
xm
bx l
bx k
bx j
bz i
bz h
bx g
bz f
bz e
bz d
bz c
bz b
bz a
1`
z_
bz ^
bz ]
bz \
bz [
bz Z
b0 Y
bz X
bz W
zV
bz U
bz T
bz S
bz R
bz Q
bz P
bz O
bz N
bz M
zL
bx K
xJ
bx I
bx H
bx G
bx F
b0 E
0D
bz C
bx B
bx A
bx @
bx ?
bx >
bx =
bx <
bx ;
bz :
b0 9
bx 8
b1111 7
bz 6
bz 5
b0 4
bz 3
02
01
b0 0
b1111 /
0.
0-
b0 ,
bx +
bx *
bx )
bx (
bx '
bx &
bx %
bx $
bx #
bz "
bx !
$end
#1000
bx W
b0 #
b0 ;
b0 {
b0 ,"
b0 $
b0 <
b0 |
b0 +"
b0 %
b0 =
b0 }
b0 *"
b0 &
b0 >
b0 ~
b0 )"
b0 '
b0 ?
b0 !"
b0 ("
b0 (
b0 @
b0 ""
b0 '"
b0 )
b0 A
b0 #"
b0 &"
b0 *
b0 B
b0 $"
b0 %"
1-
#2000
b10000111100000000000010000000 0
b10000111100000000000010000000 9
b10000111100000000000010000000 q
12
0`
0-
#3000
bx c
bx w
1-
#4000
b1 E
b1 p
b10000111100010000000010000001 0
b10000111100010000000010000001 9
b10000111100010000000010000001 q
b1 ,
b1 4
0-
#5000
1-
#6000
b10 E
b10 p
b10000111100100000000010000010 0
b10000111100100000000010000010 9
b10000111100100000000010000010 q
b10 ,
b10 4
0-
#7000
1-
#8000
b11 E
b11 p
b10000111100110000000010000011 0
b10000111100110000000010000011 9
b10000111100110000000010000011 q
b11 ,
b11 4
0-
#9000
1-
#10000
b100 E
b100 p
b10000111101000000000010000100 0
b10000111101000000000010000100 9
b10000111101000000000010000100 q
b100 ,
b100 4
0-
#11000
1-
#12000
b101 E
b101 p
b10000111101010000000010000101 0
b10000111101010000000010000101 9
b10000111101010000000010000101 q
b101 ,
b101 4
0-
#13000
1-
#14000
b110 E
b110 p
b10000111101100000000010000110 0
b10000111101100000000010000110 9
b10000111101100000000010000110 q
b110 ,
b110 4
0-
#15000
1-
#16000
b111 E
b111 p
b10000111101110000000010000111 0
b10000111101110000000010000111 9
b10000111101110000000010000111 q
b111 ,
b111 4
0-
#17000
1-
#18000
b1000 E
b1000 p
b100000000000010000000000000000 0
b100000000000010000000000000000 9
b100000000000010000000000000000 q
b1000 ,
b1000 4
0-
#19000
1-
#20000
b1001 E
b1001 p
b100001001000110000000000000000 0
b100001001000110000000000000000 9
b100001001000110000000000000000 q
b1001 ,
b1001 4
0-
#21000
1-
#22000
b1010 E
b1010 p
b100010010001010000000000000000 0
b100010010001010000000000000000 9
b100010010001010000000000000000 q
b1010 ,
b1010 4
0-
#23000
1-
#24000
b1011 E
b1011 p
b100011011001110000000000000000 0
b100011011001110000000000000000 9
b100011011001110000000000000000 q
b1011 ,
b1011 4
0-
#25000
1-
#26000
b1100 E
b1100 p
b10010000000000000000000000000 0
b10010000000000000000000000000 9
b10010000000000000000000000000 q
b1100 ,
b1100 4
0-
#27000
1-
#28000
b1101 E
b1101 p
b100010011101100000000000000000 0
b100010011101100000000000000000 9
b100010011101100000000000000000 q
b1101 ,
b1101 4
0-
#29000
1-
#30000
b1110 E
b1110 p
b100000001100100000000000000000 0
b100000001100100000000000000000 9
b100000001100100000000000000000 q
b1110 ,
b1110 4
0-
#31000
1-
#32000
b1111 E
b1111 p
b100011000100000000000000000000 0
b100011000100000000000000000000 9
b100011000100000000000000000000 q
b1111 ,
b1111 4
0-
#33000
1-
#34000
b0 E
b0 p
b0 0
b0 9
b0 q
02
b0 ,
b0 4
0-
#35000
1D
11
1-
#36000
0-
#37000
0J
b10000111100000000000010000000 3
b10000111100000000000010000000 C
b10000111100000000000010000000 r
xL
bx f
bx 6
bx R
bx i
bx e
bx 5
bx Q
bx h
1-
#38000
0-
#39000
b0 H
b0 y
bz I
bz z
b1 E
b1 p
x_
0L
b10000000 ^
b0 ]
b0 v
b1111 \
b1111 u
b0 [
b1 Z
b1 Y
1-
#40000
0-
#41000
b10 E
b10 p
bz G
bz j
b10000111100010000000010000001 3
b10000111100010000000010000001 C
b10000111100010000000010000001 r
b10 Y
b0 f
b0 6
b0 R
b0 i
bz e
bz 5
bz Q
bz h
b10000000 S
b0 P
b1111 O
b0 N
b1 M
xV
0_
1-
#42000
0-
#43000
b11 E
b11 p
0V
b1111 T
b10000000 X
b0 U
b10000001 ^
b1 ]
b1 v
b11 Y
b10000111100100000000010000010 3
b10000111100100000000010000010 C
b10000111100100000000010000010 r
1-
#44000
0-
#45000
b100 E
b100 p
b10000111100110000000010000011 3
b10000111100110000000010000011 C
b10000111100110000000010000011 r
b100 Y
b10000001 S
b1 P
b10000010 ^
b10 ]
b10 v
b1111 a
b1111 s
b10000000 d
b10000000 x
b0 b
b0 t
1-
#46000
0-
#47000
b101 E
b101 p
b10000001 X
b1 U
b10000010 S
b10 P
b10000011 ^
b11 ]
b11 v
b101 Y
b10000111101000000000010000100 3
b10000111101000000000010000100 C
b10000111101000000000010000100 r
b10000000 *
b10000000 B
b10000000 $"
b10000000 %"
1-
#48000
0-
#49000
b110 E
b110 p
b10000111101010000000010000101 3
b10000111101010000000010000101 C
b10000111101010000000010000101 r
b110 Y
b10000011 S
b11 P
b10000100 ^
b100 ]
b100 v
b10000010 X
b10 U
b10000001 d
b10000001 x
b1 b
b1 t
1-
#50000
0-
#51000
b111 E
b111 p
b10000010 d
b10000010 x
b10 b
b10 t
b10000011 X
b11 U
b10000100 S
b100 P
b10000101 ^
b101 ]
b101 v
b111 Y
b10000111101100000000010000110 3
b10000111101100000000010000110 C
b10000111101100000000010000110 r
b10000001 )
b10000001 A
b10000001 #"
b10000001 &"
1-
#52000
0-
#53000
b1000 E
b1000 p
b10000111101110000000010000111 3
b10000111101110000000010000111 C
b10000111101110000000010000111 r
b1000 Y
b10000101 S
b101 P
b10000110 ^
b110 ]
b110 v
b10000100 X
b100 U
b10000011 d
b10000011 x
b11 b
b11 t
b10000010 (
b10000010 @
b10000010 ""
b10000010 '"
1-
#54000
0-
#55000
b1001 E
b1001 p
b10000100 d
b10000100 x
b100 b
b100 t
b10000101 X
b101 U
b10000110 S
b110 P
b10000111 ^
b111 ]
b111 v
b1001 Y
b100000000000010000000000000000 3
b100000000000010000000000000000 C
b100000000000010000000000000000 r
b10000011 '
b10000011 ?
b10000011 !"
b10000011 ("
1-
#56000
0-
#57000
b10000001 H
b10000001 y
b1010 E
b1010 p
b10000000 I
b10000000 z
b100001001000110000000000000000 3
b100001001000110000000000000000 C
b100001001000110000000000000000 r
b1010 Y
b10000111 S
b111 P
b0 ^
b1 ]
b1 v
b0 \
b0 u
b10 Z
b10000110 X
b110 U
b10000101 d
b10000101 x
b101 b
b101 t
b10000100 &
b10000100 >
b10000100 ~
b10000100 )"
1-
#58000
0-
#59000
0o
0n
b0 +
b0 K
b0 l
0m
b10000011 H
b10000011 y
b100000001 g
b100000001 !
b100000001 8
b100000001 F
b100000001 k
b0 G
b0 j
b10000010 I
b10000010 z
b1011 E
b1011 p
b10000110 d
b10000110 x
b110 b
b110 t
b10000111 X
b111 U
b10000001 f
b10000001 6
b10000001 R
b10000001 i
b10000000 e
b10000000 5
b10000000 Q
b10000000 h
b0 S
b1 P
b0 O
b10 M
b11 ]
b11 v
b10 \
b10 u
b1 [
b1011 Y
b100010010001010000000000000000 3
b100010010001010000000000000000 C
b100010010001010000000000000000 r
b10000101 %
b10000101 =
b10000101 }
b10000101 *"
1-
#60000
0-
#61000
b10000101 H
b10000101 y
1n
b10000100 I
b10000100 z
b10 +
b10 K
b10 l
0m
b1100 E
b1100 p
b11111111111111111111111111111111 g
b11111111111111111111111111111111 !
b11111111111111111111111111111111 8
b11111111111111111111111111111111 F
b11111111111111111111111111111111 k
b1 G
b1 j
b100011011001110000000000000000 3
b100011011001110000000000000000 C
b100011011001110000000000000000 r
b1100 Y
b10000011 f
b10000011 6
b10000011 R
b10000011 i
b10000010 e
b10000010 5
b10000010 Q
b10000010 h
b11 P
b10 O
b1 N
b101 ]
b101 v
b100 \
b100 u
b10 [
b100000001 W
b0 T
bz X
bz U
b10000111 d
b10000111 x
b111 b
b111 t
b10000110 $
b10000110 <
b10000110 |
b10000110 +"
1-
#62000
0-
#63000
0n
b10000111 H
b10000111 y
b10000110 I
b10000110 z
b10000100 g
b10000100 !
b10000100 8
b10000100 F
b10000100 k
b0 +
b0 K
b0 l
0o
b10 G
b10 j
b1101 E
b1101 p
b100000001 c
b100000001 w
b0 a
b0 s
bz d
bz x
bz b
bz t
b11111111111111111111111111111111 W
b10 T
b10000101 f
b10000101 6
b10000101 R
b10000101 i
b10000100 e
b10000100 5
b10000100 Q
b10000100 h
b101 P
b100 O
b10 N
b111 ]
b111 v
b110 \
b110 u
b11 [
b1101 Y
b10010000000000000000000000000 3
b10010000000000000000000000000 C
b10010000000000000000000000000 r
b10000111 #
b10000111 ;
b10000111 {
b10000111 ,"
1-
#64000
0-
#65000
b1 g
b1 !
b1 8
b1 F
b1 k
b11 G
b11 j
b1110 E
b1110 p
b100000001 H
b100000001 y
b100000001 I
b100000001 z
b100010011101100000000000000000 3
b100010011101100000000000000000 C
b100010011101100000000000000000 r
b1110 Y
b10000111 f
b10000111 6
b10000111 R
b10000111 i
b10000110 e
b10000110 5
b10000110 Q
b10000110 h
b111 P
b110 O
b11 N
b0 ]
b0 v
b0 \
b0 u
b10 [
b1 Z
b10000100 W
b100 T
b11111111111111111111111111111111 c
b11111111111111111111111111111111 w
b10 a
b10 s
b100000001 *
b100000001 B
b100000001 $"
b100000001 %"
1-
#66000
0-
#67000
b100000001 g
b100000001 !
b100000001 8
b100000001 F
b100000001 k
b10 G
b10 j
b10000110 H
b10000110 y
b10000111 I
b10000111 z
b1111 E
b1111 p
b10000100 c
b10000100 w
b100 a
b100 s
b1 W
b110 T
b100000001 f
b100000001 6
b100000001 R
b100000001 i
b100000001 e
b100000001 5
b100000001 Q
b100000001 h
b0 P
b0 O
b10 N
b110 ]
b110 v
b111 \
b111 u
b10 Z
b1111 Y
b100000001100100000000000000000 3
b100000001100100000000000000000 C
b100000001100100000000000000000 r
b11111111111111111111111111111111 (
b11111111111111111111111111111111 @
b11111111111111111111111111111111 ""
b11111111111111111111111111111111 '"
1-
#68000
0-
#69000
b10000110 g
b10000110 !
b10000110 8
b10000110 F
b10000110 k
b10000011 I
b10000011 z
b11111111111111111111111111111111 H
b11111111111111111111111111111111 y
b10000 E
b10000 p
b100011000100000000000000000000 3
b100011000100000000000000000000 C
b100011000100000000000000000000 r
b10000 Y
b10000110 f
b10000110 6
b10000110 R
b10000110 i
b10000111 e
b10000111 5
b10000111 Q
b10000111 h
b110 P
b111 O
b10 ]
b10 v
b11 \
b11 u
b0 [
b100000001 W
b0 T
b1 c
b1 w
b110 a
b110 s
1-
#70000
0-
#71000
xJ
b10000010 g
b10000010 !
b10000010 8
b10000010 F
b10000010 k
b10000001 I
b10000001 z
b0 G
b0 j
b100000001 H
b100000001 y
b10001 E
b10001 p
b100000001 c
b100000001 w
b0 a
b0 s
b10000110 W
b111 T
b11111111111111111111111111111111 f
b11111111111111111111111111111111 6
b11111111111111111111111111111111 R
b11111111111111111111111111111111 i
b10000011 e
b10000011 5
b10000011 Q
b10000011 h
b10 P
b11 O
b0 N
b0 ]
b0 v
b1 \
b1 u
b11 [
b10001 Y
bx 3
bx C
bx r
b1 $
b1 <
b1 |
b1 +"
1-
#72000
0-
#73000
0o
0n
b0 +
b0 K
b0 l
0m
b110000000 g
b110000000 !
b110000000 8
b110000000 F
b110000000 k
b11 G
b11 j
bx H
bx y
bx I
bx z
xL
b100000001 f
b100000001 6
b100000001 R
b100000001 i
b10000001 e
b10000001 5
b10000001 Q
b10000001 h
b0 P
b1 O
b11 N
bx ^
bx ]
bx v
bx \
bx u
bx [
bx Z
b10000010 W
b11 T
b10000110 c
b10000110 w
b111 a
b111 s
1-
#74000
0-
#75000
xo
xn
bx +
bx K
bx l
xm
bx g
bx !
bx 8
bx F
bx k
bx G
bx j
b10000010 c
b10000010 w
b11 a
b11 s
x_
b110000000 W
b1 T
bx f
bx 6
bx R
bx i
bx e
bx 5
bx Q
bx h
bx S
bx P
bx O
bx N
bx M
b10000110 #
b10000110 ;
b10000110 {
b10000110 ,"
1-
#76000
0-
#77000
xV
bx W
bx T
b110000000 c
b110000000 w
b1 a
b1 s
b10000010 '
b10000010 ?
b10000010 !"
b10000010 ("
1-
#78000
0-
#79000
bx c
bx w
bx a
bx s
b110000000 )
b110000000 A
b110000000 #"
b110000000 &"
1-
#80000
0-
#81000
1-
#82000
0-
#83000
1-
#84000
0-
#85000
1-
#86000
0-
#87000
1-
#88000
0-
#89000
1-
#90000
0-
#91000
0D
b0 E
b0 p
1.
01
1-
#92000
0-
#93000
b100000001 "
b100000001 :
bz 3
bz C
bz r
b0 /
b0 7
1-
#94000
0-
#95000
b110000000 "
b110000000 :
b1 /
b1 7
1-
#96000
0-
#97000
b11111111111111111111111111111111 "
b11111111111111111111111111111111 :
b10 /
b10 7
1-
#98000
0-
#99000
b10000010 "
b10000010 :
b11 /
b11 7
1-
#100000
0-
#101000
b10000100 "
b10000100 :
b100 /
b100 7
1-
#102000
0-
#103000
b10000101 "
b10000101 :
b101 /
b101 7
1-
#104000
0-
#105000
b1 "
b1 :
b110 /
b110 7
1-
#106000
0-
#107000
b10000110 "
b10000110 :
b111 /
b111 7
1-
#108000
0-
#109000
bz "
bz :
b1000 /
b1000 7
1-
#110000
0-
#111000
b1001 /
b1001 7
1-
#112000
0-
#113000
b1010 /
b1010 7
1-
#114000
0-
#115000
b1011 /
b1011 7
1-
#116000
0-
#117000
b1100 /
b1100 7
1-
#118000
0-
#119000
b1101 /
b1101 7
1-
#120000
0-
#121000
b1110 /
b1110 7
1-
#122000
0-
#123000
b1111 /
b1111 7
1-
#124000
0-
#125000
b100000001 "
b100000001 :
b0 /
b0 7
1-
#126000
0-
#127000
b110000000 "
b110000000 :
b1 /
b1 7
1-
#128000
0-
#129000
b11111111111111111111111111111111 "
b11111111111111111111111111111111 :
b10 /
b10 7
1-
#130000
0-
#131000
b10000010 "
b10000010 :
b11 /
b11 7
1-
#132000
0-
#133000
b10000100 "
b10000100 :
b100 /
b100 7
1-
#134000
0-
#135000
b10000101 "
b10000101 :
b101 /
b101 7
1-
#136000
0-
#137000
b1 "
b1 :
b110 /
b110 7
1-
#138000
0-
#139000
b10000110 "
b10000110 :
b111 /
b111 7
1-
#140000
0-
#141000
bz "
bz :
b1000 /
b1000 7
1-
#142000
0-
#143000
b1001 /
b1001 7
1-
#144000
0-
#145000
b1010 /
b1010 7
1-
#146000
0-
#147000
b1011 /
b1011 7
1-
#148000
0-
#149000
b1100 /
b1100 7
1-
#150000
0-
#151000
b1101 /
b1101 7
1-
#152000
0-
#153000
b1110 /
b1110 7
1-
#154000
0-
#155000
b1111 /
b1111 7
1-
#156000
0-
#157000
b100000001 "
b100000001 :
b0 /
b0 7
1-
#158000
0-
#159000
b110000000 "
b110000000 :
b1 /
b1 7
1-
#160000
0-
#161000
b11111111111111111111111111111111 "
b11111111111111111111111111111111 :
b10 /
b10 7
1-
#162000
0-
#163000
b10000010 "
b10000010 :
b11 /
b11 7
1-
#164000
0-
#165000
b10000100 "
b10000100 :
b100 /
b100 7
1-
#166000
0-
#167000
b10000101 "
b10000101 :
b101 /
b101 7
1-
#168000
0-
#169000
b1 "
b1 :
b110 /
b110 7
1-
#170000
0-
#171000
b10000110 "
b10000110 :
b111 /
b111 7
1-
#172000
0-
#173000
bz "
bz :
b1000 /
b1000 7
1-
#174000
0-
#175000
b1001 /
b1001 7
1-
#176000
0-
#177000
b1010 /
b1010 7
1-
#178000
0-
#179000
b1011 /
b1011 7
1-
#180000
0-
#181000
b1100 /
b1100 7
1-
#182000
0-
#183000
b1101 /
b1101 7
1-
#184000
0-
#185000
b1110 /
b1110 7
1-
#186000
0-
#187000
b1111 /
b1111 7
1-
#188000
0-
#189000
b100000001 "
b100000001 :
b0 /
b0 7
1-
