tb/Pics/Task5/pro_tb5.vcd
$date
	Sat Jun 11 19:21:43 2022
$end
$version
	Icarus Verilog
$end
$timescale
	10ps
$end
$scope module pro_tb2 $end
$var wire 32 ! valE [31:0] $end
$var wire 32 " rdata [31:0] $end
$var wire 32 # r7 [31:0] $end
$var wire 32 $ r6 [31:0] $end
$var wire 32 % r5 [31:0] $end
$var wire 32 & r4 [31:0] $end
$var wire 32 ' r3 [31:0] $end
$var wire 32 ( r2 [31:0] $end
$var wire 32 ) r1 [31:0] $end
$var wire 32 * r0 [31:0] $end
$var wire 3 + cc [2:0] $end
$var reg 32 , addr [31:0] $end
$var reg 1 - clock $end
$var reg 1 . flg $end
$var reg 4 / rID [3:0] $end
$var reg 32 0 wdata [31:0] $end
$var reg 1 1 working $end
$var reg 1 2 wr $end
$scope module processor $end
$var wire 32 3 F_read [31:0] $end
$var wire 32 4 addr [31:0] $end
$var wire 1 - clock $end
$var wire 4 5 e_dstE [3:0] $end
$var wire 1 6 e_halt $end
$var wire 32 7 e_valA [31:0] $end
$var wire 32 8 e_valB [31:0] $end
$var wire 4 9 rID [3:0] $end
$var wire 32 : valE [31:0] $end
$var wire 4 ; w_dstE [3:0] $end
$var wire 4 < w_dstM [3:0] $end
$var wire 32 = w_valE [31:0] $end
$var wire 32 > w_valM [31:0] $end
$var wire 32 ? wdata [31:0] $end
$var wire 1 1 working $end
$var wire 1 2 wr $end
$var wire 32 @ rdata [31:0] $end
$var wire 32 A r7 [31:0] $end
$var wire 32 B r6 [31:0] $end
$var wire 32 C r5 [31:0] $end
$var wire 32 D r4 [31:0] $end
$var wire 32 E r3 [31:0] $end
$var wire 32 F r2 [31:0] $end
$var wire 32 G r1 [31:0] $end
$var wire 32 H r0 [31:0] $end
$var wire 32 I f_rdata [31:0] $end
$var wire 1 J f_rd $end
$var wire 32 K f_addr [31:0] $end
$var wire 32 L e_valM [31:0] $end
$var wire 32 M e_valE [31:0] $end
$var wire 4 N e_dstM [3:0] $end
$var wire 4 O e_alufun [3:0] $end
$var wire 1 P e_ZF $end
$var wire 1 Q e_SF $end
$var wire 1 R e_OF $end
$var wire 16 S d_valC [15:0] $end
$var wire 32 T d_valB_reg [31:0] $end
$var wire 32 U d_valB [31:0] $end
$var wire 32 V d_valA_reg [31:0] $end
$var wire 32 W d_valA [31:0] $end
$var wire 4 X d_rB [3:0] $end
$var wire 4 Y d_rA [3:0] $end
$var wire 32 Z d_jpc [31:0] $end
$var wire 1 [ d_jflg $end
$var wire 4 \ d_ifun [3:0] $end
$var wire 4 ] d_icode [3:0] $end
$var wire 1 ^ d_halt $end
$var wire 3 _ cc [2:0] $end
$var reg 1 ` D_halt $end
$var reg 4 a D_icode [3:0] $end
$var reg 4 b D_ifun [3:0] $end
$var reg 1 c D_jflg $end
$var reg 4 d D_rA [3:0] $end
$var reg 4 e D_rB [3:0] $end
$var reg 32 f D_valA [31:0] $end
$var reg 32 g D_valB [31:0] $end
$var reg 16 h D_valC [15:0] $end
$var reg 4 i E_dstE [3:0] $end
$var reg 4 j E_dstM [3:0] $end
$var reg 1 k E_halt $end
$var reg 32 l E_valE [31:0] $end
$var reg 32 m E_valM [31:0] $end
$var reg 32 n PC [31:0] $end
$var reg 1 o e_reg_rst $end
$scope module alu $end
$var wire 32 p A [31:0] $end
$var wire 32 q B [31:0] $end
$var wire 32 r E [31:0] $end
$var wire 32 s aluA [31:0] $end
$var wire 32 t aluB [31:0] $end
$var wire 4 u alufun [3:0] $end
$var wire 32 v valE [31:0] $end
$var wire 3 w cc [2:0] $end
$var wire 1 x ZF $end
$var wire 1 y SF $end
$var wire 1 z OF $end
$upscope $end
$scope module ram $end
$var wire 32 { addr [31:0] $end
$var wire 1 - clock $end
$var wire 1 J rd $end
$var wire 32 | wdata [31:0] $end
$var wire 1 2 wr $end
$var reg 32 } rdata [31:0] $end
$upscope $end
$scope module regfile $end
$var wire 1 - clock $end
$var wire 4 ~ dstE [3:0] $end
$var wire 4 !" dstM [3:0] $end
$var wire 4 "" rA [3:0] $end
$var wire 4 #" rB [3:0] $end
$var wire 1 o reset $end
$var wire 32 $" valE [31:0] $end
$var wire 32 %" valM [31:0] $end
$var wire 32 &" valB [31:0] $end
$var wire 32 '" valA [31:0] $end
$var wire 32 (" r7 [31:0] $end
$var wire 32 )" r6 [31:0] $end
$var wire 32 *" r5 [31:0] $end
$var wire 32 +" r4 [31:0] $end
$var wire 32 ," r3 [31:0] $end
$var wire 32 -" r2 [31:0] $end
$var wire 32 ." r1 [31:0] $end
$var wire 32 /" r0 [31:0] $end
$var reg 32 0" r_r0 [31:0] $end
$var reg 32 1" r_r1 [31:0] $end
$var reg 32 2" r_r2 [31:0] $end
$var reg 32 3" r_r3 [31:0] $end
$var reg 32 4" r_r4 [31:0] $end
$var reg 32 5" r_r5 [31:0] $end
$var reg 32 6" r_r6 [31:0] $end
$var reg 32 7" r_r7 [31:0] $end
$upscope $end
$upscope $end
$upscope $end
$enddefinitions $end
#0
$dumpvars
bx 7"
bx 6"
bx 5"
bx 4"
bx 3"
bx 2"
bx 1"
bx 0"
bx /"
bx ."
bx -"
bx ,"
bx +"
bx *"
bx )"
bx ("
bx '"
bx &"
bz %"
bz $"
bz #"
bz ""
bz !"
bz ~
bz }
b0 |
b0 {
xz
xy
xx
bx w
bx v
bx u
bz t
bz s
bx r
bz q
bz p
1o
b0 n
bz m
bz l
zk
bz j
bz i
bz h
bz g
bz f
bz e
bz d
0c
bz b
bz a
z`
bx _
x^
bz ]
bz \
0[
b0zzzzzzzzzzzzzzzzzzzzzzzz Z
bz Y
bz X
bx W
bx V
bx U
bx T
bz S
xR
xQ
xP
bx O
bx N
bx M
b0zzzzzzzzzzzzzzzz L
b0 K
0J
bz I
bx H
bx G
bx F
bx E
bx D
bx C
bx B
bx A
bz @
b0 ?
bz >
bz =
bz <
bz ;
bx :
b1111 9
bz 8
bz 7
z6
bz 5
b0 4
bz 3
02
01
b0 0
b1111 /
0.
0-
b0 ,
bx +
bx *
bx )
bx (
bx '
bx &
bx %
bx $
bx #
bz "
bx !
$end
#1000
bx =
bx l
bx $"
b1111 <
b1111 j
b1111 !"
b0 #
b0 A
b0 ("
b0 7"
b0 $
b0 B
b0 )"
b0 6"
b0 %
b0 C
b0 *"
b0 5"
b0 &
b0 D
b0 +"
b0 4"
b0 '
b0 E
b0 ,"
b0 3"
b0 (
b0 F
b0 -"
b0 2"
b0 )
b0 G
b0 ."
b0 1"
b0 *
b0 H
b0 /"
b0 0"
1-
#2000
b10000111100000000000010000000 0
b10000111100000000000010000000 ?
b10000111100000000000010000000 |
12
0o
0-
#3000
1-
#4000
b1 K
b1 {
b10000111100010000000010000001 0
b10000111100010000000010000001 ?
b10000111100010000000010000001 |
b1 ,
b1 4
0-
#5000
1-
#6000
b10 K
b10 {
b10000111100100000000010000010 0
b10000111100100000000010000010 ?
b10000111100100000000010000010 |
b10 ,
b10 4
0-
#7000
1-
#8000
b11 K
b11 {
b10000111100110000000010000011 0
b10000111100110000000010000011 ?
b10000111100110000000010000011 |
b11 ,
b11 4
0-
#9000
1-
#10000
b100 K
b100 {
b10000111101000000000010000100 0
b10000111101000000000010000100 ?
b10000111101000000000010000100 |
b100 ,
b100 4
0-
#11000
1-
#12000
b101 K
b101 {
b10000111101010000000010000101 0
b10000111101010000000010000101 ?
b10000111101010000000010000101 |
b101 ,
b101 4
0-
#13000
1-
#14000
b110 K
b110 {
b10000111101100000000010000110 0
b10000111101100000000010000110 ?
b10000111101100000000010000110 |
b110 ,
b110 4
0-
#15000
1-
#16000
b111 K
b111 {
b10000111101110000000010000111 0
b10000111101110000000010000111 ?
b10000111101110000000010000111 |
b111 ,
b111 4
0-
#17000
1-
#18000
b1000 K
b1000 {
b100000000000010000000000000000 0
b100000000000010000000000000000 ?
b100000000000010000000000000000 |
b1000 ,
b1000 4
0-
#19000
1-
#20000
b1001 K
b1001 {
b100001001000110000000000000000 0
b100001001000110000000000000000 ?
b100001001000110000000000000000 |
b1001 ,
b1001 4
0-
#21000
1-
#22000
b1010 K
b1010 {
b100010010001010000000000000000 0
b100010010001010000000000000000 ?
b100010010001010000000000000000 |
b1010 ,
b1010 4
0-
#23000
1-
#24000
b1011 K
b1011 {
b100011011001110000000000000000 0
b100011011001110000000000000000 ?
b100011011001110000000000000000 |
b1011 ,
b1011 4
0-
#25000
1-
#26000
b1100 K
b1100 {
b100001010101000000000000000000 0
b100001010101000000000000000000 ?
b100001010101000000000000000000 |
b1100 ,
b1100 4
0-
#27000
1-
#28000
b1101 K
b1101 {
b100010011101100000000000000000 0
b100010011101100000000000000000 ?
b100010011101100000000000000000 |
b1101 ,
b1101 4
0-
#29000
1-
#30000
b1110 K
b1110 {
b100000001100100000000000000000 0
b100000001100100000000000000000 ?
b100000001100100000000000000000 |
b1110 ,
b1110 4
0-
#31000
1-
#32000
b1111 K
b1111 {
b100011000100000000000000000000 0
b100011000100000000000000000000 ?
b100011000100000000000000000000 |
b1111 ,
b1111 4
0-
#33000
1-
#34000
b10000 K
b10000 {
b100000001101010000000000000000 0
b100000001101010000000000000000 ?
b100000001101010000000000000000 |
b10000 ,
b10000 4
0-
#35000
1-
#36000
b10001 K
b10001 {
b100001001001000000000000000000 0
b100001001001000000000000000000 ?
b100001001001000000000000000000 |
b10001 ,
b10001 4
0-
#37000
1-
#38000
b10010 K
b10010 {
b100011000001100000000000000000 0
b100011000001100000000000000000 ?
b100011000001100000000000000000 |
b10010 ,
b10010 4
0-
#39000
1-
#40000
b10011 K
b10011 {
b100010000101110000000000000000 0
b100010000101110000000000000000 ?
b100010000101110000000000000000 |
b10011 ,
b10011 4
0-
#41000
1-
#42000
b0 K
b0 {
b0 0
b0 ?
b0 |
02
b0 ,
b0 4
0-
#43000
x[
1J
11
1-
#44000
0-
#45000
0[
0^
b0 T
b0 &"
bz V
bz '"
b0 \
b1 ]
b0 X
b0 #"
b1111 Y
b1111 ""
b111100000000000010000000 Z
b10000000 S
b1 K
b1 {
b10000111100000000000010000000 3
b10000111100000000000010000000 I
b10000111100000000000010000000 }
b1 n
x6
x`
bx q
bx 8
bx g
bx t
bx p
bx 7
bx f
bx s
1-
#46000
0-
#47000
b1 X
b1 #"
bx U
b0 N
bz O
bz u
b10 K
b10 {
b111100010000000010000001 Z
b10000001 S
xk
06
0`
b10000000 L
b10000000 h
b0 e
b1111 5
b1111 d
b0 b
b1 a
b10 n
b10000111100010000000010000001 3
b10000111100010000000010000001 I
b10000111100010000000010000001 }
1-
#48000
0-
#49000
b10 X
b10 #"
b0 U
b111100100000000010000010 Z
b10000010 S
b11 K
b11 {
b1 N
b10000111100100000000010000010 3
b10000111100100000000010000010 I
b10000111100100000000010000010 }
b11 n
b10000001 L
b10000001 h
b1 e
0k
b1111 ;
b1111 i
b1111 ~
b10000000 >
b10000000 m
b10000000 %"
b0 <
b0 j
b0 !"
1-
#50000
0-
#51000
b0 U
b11 X
b11 #"
b10 N
b100 K
b100 {
b111100110000000010000011 Z
b10000011 S
b10000001 >
b10000001 m
b10000001 %"
b1 <
b1 j
b1 !"
b10000010 L
b10000010 h
b10 e
b0 q
b0 8
b0 g
b0 t
b100 n
b10000111100110000000010000011 3
b10000111100110000000010000011 I
b10000111100110000000010000011 }
b10000000 *
b10000000 H
b10000000 /"
b10000000 0"
1-
#52000
0-
#53000
b100 X
b100 #"
b0 U
b111101000000000010000100 Z
b10000100 S
b101 K
b101 {
b11 N
b10000111101000000000010000100 3
b10000111101000000000010000100 I
b10000111101000000000010000100 }
b101 n
b10000011 L
b10000011 h
b11 e
b10000010 >
b10000010 m
b10000010 %"
b10 <
b10 j
b10 !"
b10000001 )
b10000001 G
b10000001 ."
b10000001 1"
1-
#54000
0-
#55000
b0 U
b101 X
b101 #"
b100 N
b110 K
b110 {
b111101010000000010000101 Z
b10000101 S
b10000011 >
b10000011 m
b10000011 %"
b11 <
b11 j
b11 !"
b10000100 L
b10000100 h
b100 e
b110 n
b10000111101010000000010000101 3
b10000111101010000000010000101 I
b10000111101010000000010000101 }
b10000010 (
b10000010 F
b10000010 -"
b10000010 2"
1-
#56000
0-
#57000
b110 X
b110 #"
b0 U
b111101100000000010000110 Z
b10000110 S
b111 K
b111 {
b101 N
b10000111101100000000010000110 3
b10000111101100000000010000110 I
b10000111101100000000010000110 }
b111 n
b10000101 L
b10000101 h
b101 e
b10000100 >
b10000100 m
b10000100 %"
b100 <
b100 j
b100 !"
b10000011 '
b10000011 E
b10000011 ,"
b10000011 3"
1-
#58000
0-
#59000
b0 U
b111 X
b111 #"
b110 N
b1000 K
b1000 {
b111101110000000010000111 Z
b10000111 S
b10000101 >
b10000101 m
b10000101 %"
b101 <
b101 j
b101 !"
b10000110 L
b10000110 h
b110 e
b1000 n
b10000111101110000000010000111 3
b10000111101110000000010000111 I
b10000111101110000000010000111 }
b10000100 &
b10000100 D
b10000100 +"
b10000100 4"
1-
#60000
0-
#61000
b10000000 W
b10000001 T
b10000001 &"
b10000000 V
b10000000 '"
b10 ]
b1 X
b1 #"
b0 Y
b0 ""
b10000001 U
b10000000000000000 Z
b0 S
b1001 K
b1001 {
b111 N
b100000000000010000000000000000 3
b100000000000010000000000000000 I
b100000000000010000000000000000 }
b1001 n
b10000111 L
b10000111 h
b111 e
b10000110 >
b10000110 m
b10000110 %"
b110 <
b110 j
b110 !"
b10000101 %
b10000101 C
b10000101 *"
b10000101 5"
1-
#62000
0-
#63000
b10000011 U
0R
0z
b10000011 T
b10000011 &"
0Q
b10000010 V
b10000010 '"
0P
0y
b1 \
b11 X
b11 #"
b1000110000000000000000 Z
b10 Y
b10 ""
b0 +
b0 _
b0 w
0x
b10000010 W
b100000001 r
b100000001 !
b100000001 :
b100000001 M
b100000001 v
b1111 N
b0 O
b0 u
b1010 K
b1010 {
b10000111 >
b10000111 m
b10000111 %"
b111 <
b111 j
b111 !"
b0 L
b0 h
b1 e
b0 5
b0 d
b10000001 q
b10000001 8
b10000001 g
b10000001 t
b10000000 p
b10000000 7
b10000000 f
b10000000 s
b10 a
b1010 n
b100001001000110000000000000000 3
b100001001000110000000000000000 I
b100001001000110000000000000000 }
b10000110 $
b10000110 B
b10000110 )"
b10000110 6"
1-
#64000
0-
#65000
b10000101 U
b10000101 T
b10000101 &"
b10000100 V
b10000100 '"
1Q
b10 \
b101 X
b101 #"
b10001010000000000000000 Z
b100 Y
b100 ""
0P
1y
b10 +
b10 _
b10 w
0x
b1011 K
b1011 {
b10000100 W
b11111111111111111111111111111111 r
b11111111111111111111111111111111 !
b11111111111111111111111111111111 :
b11111111111111111111111111111111 M
b11111111111111111111111111111111 v
b1 O
b1 u
b100010010001010000000000000000 3
b100010010001010000000000000000 I
b100010010001010000000000000000 }
b1011 n
b11 e
b10 5
b10 d
b10000011 q
b10000011 8
b10000011 g
b10000011 t
b10000010 p
b10000010 7
b10000010 f
b10000010 s
b1 b
b100000001 =
b100000001 l
b100000001 $"
b0 ;
b0 i
b0 ~
bz >
bz m
bz %"
b1111 <
b1111 j
b1111 !"
b10000111 #
b10000111 A
b10000111 ("
b10000111 7"
1-
#66000
0-
#67000
b10000111 U
b10000111 T
b10000111 &"
b10000110 V
b10000110 '"
0Q
0y
0R
b10000100 r
b10000100 !
b10000100 :
b10000100 M
b10000100 v
b0 +
b0 _
b0 w
0z
b11 \
b111 X
b111 #"
b11001110000000000000000 Z
b110 Y
b110 ""
b10 O
b10 u
b10000110 W
b1100 K
b1100 {
b11111111111111111111111111111111 =
b11111111111111111111111111111111 l
b11111111111111111111111111111111 $"
b10 ;
b10 i
b10 ~
b101 e
b100 5
b100 d
b10000101 q
b10000101 8
b10000101 g
b10000101 t
b10000100 p
b10000100 7
b10000100 f
b10000100 s
b10 b
b1100 n
b100011011001110000000000000000 3
b100011011001110000000000000000 I
b100011011001110000000000000000 }
b100000001 *
b100000001 H
b100000001 /"
b100000001 0"
1-
#68000
0-
#69000
b10000101 V
b10000101 '"
b10000100 T
b10000100 &"
b10000100 U
b1 r
b1 !
b1 :
b1 M
b1 v
b1 \
b100 X
b100 #"
b10101000000000000000000 Z
b101 Y
b101 ""
b11 O
b11 u
b1101 K
b1101 {
b10000101 W
b100001010101000000000000000000 3
b100001010101000000000000000000 I
b100001010101000000000000000000 }
b1101 n
b111 e
b110 5
b110 d
b10000111 q
b10000111 8
b10000111 g
b10000111 t
b10000110 p
b10000110 7
b10000110 f
b10000110 s
b11 b
b10000100 =
b10000100 l
b10000100 $"
b100 ;
b100 i
b100 ~
b11111111111111111111111111111111 (
b11111111111111111111111111111111 F
b11111111111111111111111111111111 -"
b11111111111111111111111111111111 2"
1-
#70000
0-
#71000
b10000111 V
b10000111 '"
b10000110 T
b10000110 &"
b1 U
b10 \
b110 X
b110 #"
b11101100000000000000000 Z
b111 Y
b111 ""
b1 O
b1 u
b10000111 W
b1110 K
b1110 {
b1 =
b1 l
b1 $"
b110 ;
b110 i
b110 ~
b100 e
b101 5
b101 d
b10000100 q
b10000100 8
b10000100 g
b10000100 t
b10000101 p
b10000101 7
b10000101 f
b10000101 s
b1 b
b1110 n
b100010011101100000000000000000 3
b100010011101100000000000000000 I
b100010011101100000000000000000 }
1-
#72000
0-
#73000
b10000011 V
b10000011 '"
b11111111111111111111111111111111 T
b11111111111111111111111111111111 &"
b0 \
b10 X
b10 #"
b1100100000000000000000 Z
b11 Y
b11 ""
b11111111111111111111111111111111 U
b1 r
b1 !
b1 :
b1 M
b1 v
b10 O
b10 u
b1111 K
b1111 {
b10000011 W
b100000001100100000000000000000 3
b100000001100100000000000000000 I
b100000001100100000000000000000 }
b1111 n
b110 e
b111 5
b111 d
b1 q
b1 8
b1 g
b1 t
b10000111 p
b10000111 7
b10000111 f
b10000111 s
b10 b
b101 ;
b101 i
b101 ~
b1 $
b1 B
b1 )"
b1 6"
1-
#74000
0-
#75000
b100000001 U
b10000001 V
b10000001 '"
b100000001 T
b100000001 &"
b11 \
b0 X
b0 #"
b100000000000000000000 Z
b1 Y
b1 ""
b10000010 r
b10000010 !
b10000010 :
b10000010 M
b10000010 v
b10000001 W
b0 O
b0 u
b10000 K
b10000 {
b111 ;
b111 i
b111 ~
b10 e
b11 5
b11 d
b11111111111111111111111111111111 q
b11111111111111111111111111111111 8
b11111111111111111111111111111111 g
b11111111111111111111111111111111 t
b10000011 p
b10000011 7
b10000011 f
b10000011 s
b0 b
b10000 n
b100011000100000000000000000000 3
b100011000100000000000000000000 I
b100011000100000000000000000000 }
b1 %
b1 C
b1 *"
b1 5"
1-
#76000
0-
#77000
b1 U
0R
0z
b10000011 V
b10000011 '"
b1 T
b1 &"
0Q
b0 \
b101 X
b101 #"
b1101010000000000000000 Z
b11 Y
b11 ""
0P
0y
b0 +
b0 _
b0 w
0x
b10001 K
b10001 {
b10000010 W
b110000000 r
b110000000 !
b110000000 :
b110000000 M
b110000000 v
b11 O
b11 u
b100000001101010000000000000000 3
b100000001101010000000000000000 I
b100000001101010000000000000000 }
b10001 n
b0 e
b1 5
b1 d
b100000001 q
b100000001 8
b100000001 g
b100000001 t
b10000001 p
b10000001 7
b10000001 f
b10000001 s
b11 b
b10000010 =
b10000010 l
b10000010 $"
b11 ;
b11 i
b11 ~
b1 #
b1 A
b1 ("
b1 7"
1-
#78000
0-
#79000
b10000100 U
b10000100 T
b10000100 &"
b11111111111111111111111111111111 V
b11111111111111111111111111111111 '"
b1 \
b100 X
b100 #"
b1001000000000000000000 Z
b10 Y
b10 ""
b10000011 r
b10000011 !
b10000011 :
b10000011 M
b10000011 v
b11111111111111111111111111111111 W
b0 O
b0 u
b10010 K
b10010 {
b110000000 =
b110000000 l
b110000000 $"
b1 ;
b1 i
b1 ~
b101 e
b11 5
b11 d
b1 q
b1 8
b1 g
b1 t
b10000010 p
b10000010 7
b10000010 f
b10000010 s
b0 b
b10010 n
b100001001001000000000000000000 3
b100001001001000000000000000000 I
b100001001001000000000000000000 }
b10000010 '
b10000010 E
b10000010 ,"
b10000010 3"
1-
#80000
0-
#81000
b1 U
b1 T
b1 &"
0R
0z
b100000001 V
b100000001 '"
1Q
b11 \
b110 X
b110 #"
b1100000000000000000 Z
b0 Y
b0 ""
0P
1y
b10 +
b10 _
b10 w
0x
b10011 K
b10011 {
b100000001 W
b11111111111111111111111101111011 r
b11111111111111111111111101111011 !
b11111111111111111111111101111011 :
b11111111111111111111111101111011 M
b11111111111111111111111101111011 v
b1 O
b1 u
b100011000001100000000000000000 3
b100011000001100000000000000000 I
b100011000001100000000000000000 }
b10011 n
b100 e
b10 5
b10 d
b10000100 q
b10000100 8
b10000100 g
b10000100 t
b11111111111111111111111111111111 p
b11111111111111111111111111111111 7
b11111111111111111111111111111111 f
b11111111111111111111111111111111 s
b1 b
b10000011 =
b10000011 l
b10000011 $"
b11 ;
b11 i
b11 ~
b110000000 )
b110000000 G
b110000000 ."
b110000000 1"
1-
#82000
0-
#83000
0R
0P
0z
0Q
0x
b0 +
b0 _
b0 w
0y
b110000000 V
b110000000 '"
b10 \
b111 X
b111 #"
b101110000000000000000 Z
b1 Y
b1 ""
b100000000 r
b100000000 !
b100000000 :
b100000000 M
b100000000 v
b11 O
b11 u
b110000000 W
b10100 K
b10100 {
b11111111111111111111111101111011 =
b11111111111111111111111101111011 l
b11111111111111111111111101111011 $"
b10 ;
b10 i
b10 ~
b110 e
b0 5
b0 d
b1 q
b1 8
b1 g
b1 t
b100000001 p
b100000001 7
b100000001 f
b100000001 s
b11 b
b10100 n
b100010000101110000000000000000 3
b100010000101110000000000000000 I
b100010000101110000000000000000 }
b10000011 '
b10000011 E
b10000011 ,"
b10000011 3"
1-
#84000
0-
#85000
1P
b100 +
b100 _
b100 w
1x
x[
b0 r
b0 !
b0 :
b0 M
b0 v
x^
bx U
bx T
bx &"
bx V
bx '"
bx \
bx ]
bx X
bx #"
bx Y
bx ""
b10 O
b10 u
b0xxxxxxxxxxxxxxxxxxxxxxxx Z
bx S
b10101 K
b10101 {
bx W
bx 3
bx I
bx }
b10101 n
b111 e
b1 5
b1 d
b110000000 p
b110000000 7
b110000000 f
b110000000 s
b10 b
b100000000 =
b100000000 l
b100000000 $"
b0 ;
b0 i
b0 ~
b11111111111111111111111101111011 (
b11111111111111111111111101111011 F
b11111111111111111111111101111011 -"
b11111111111111111111111101111011 2"
1-
#86000
0-
#87000
xR
xz
xQ
xP
xy
bx +
bx _
bx w
xx
bx r
bx !
bx :
bx M
bx v
bx N
bx O
bx u
b10110 K
b10110 {
b0 =
b0 l
b0 $"
b1 ;
b1 i
b1 ~
x6
x`
b0xxxxxxxxxxxxxxxx L
bx h
bx e
bx 5
bx d
bx q
bx 8
bx g
bx t
bx p
bx 7
bx f
bx s
bx b
bx a
b10110 n
b100000000 *
b100000000 H
b100000000 /"
b100000000 0"
1-
#88000
0-
#89000
b10111 K
b10111 {
b10111 n
xk
bx =
bx l
bx $"
bx ;
bx i
bx ~
b0 )
b0 G
b0 ."
b0 1"
1-
#90000
0-
#91000
b11000 K
b11000 {
b11000 n
1-
#92000
0-
#93000
b11001 K
b11001 {
b11001 n
1-
#94000
0-
#95000
b11010 K
b11010 {
b11010 n
1-
#96000
0-
#97000
b11011 K
b11011 {
b11011 n
1-
#98000
0-
#99000
0[
0J
b0 K
b0 {
b11100 n
1.
01
1-
#100000
0-
#101000
bz \
bz ]
bz X
bz #"
bz Y
bz ""
b0zzzzzzzzzzzzzzzzzzzzzzzz Z
bz S
b100000000 "
b100000000 @
bz 3
bz I
bz }
b0 /
b0 9
1-
#102000
0-
#103000
b0 "
b0 @
b1 /
b1 9
1-
#104000
0-
#105000
b11111111111111111111111101111011 "
b11111111111111111111111101111011 @
b10 /
b10 9
1-
#106000
0-
#107000
b10000011 "
b10000011 @
b11 /
b11 9
1-
#108000
0-
#109000
b10000100 "
b10000100 @
b100 /
b100 9
1-
#110000
0-
#111000
b1 "
b1 @
b101 /
b101 9
1-
#112000
0-
#113000
b110 /
b110 9
1-
#114000
0-
#115000
b111 /
b111 9
1-
#116000
0-
#117000
bz "
bz @
b1000 /
b1000 9
1-
#118000
0-
#119000
b1001 /
b1001 9
1-
#120000
0-
#121000
b1010 /
b1010 9
1-
#122000
0-
#123000
b1011 /
b1011 9
1-
#124000
0-
#125000
b1100 /
b1100 9
1-
#126000
0-
#127000
b1101 /
b1101 9
1-
#128000
0-
#129000
b1110 /
b1110 9
1-
#130000
0-
#131000
b1111 /
b1111 9
1-
#132000
0-
#133000
b100000000 "
b100000000 @
b0 /
b0 9
1-
#134000
0-
#135000
b0 "
b0 @
b1 /
b1 9
1-
#136000
0-
#137000
b11111111111111111111111101111011 "
b11111111111111111111111101111011 @
b10 /
b10 9
1-
#138000
0-
#139000
b10000011 "
b10000011 @
b11 /
b11 9
1-
#140000
0-
#141000
b10000100 "
b10000100 @
b100 /
b100 9
1-
#142000
0-
#143000
b1 "
b1 @
b101 /
b101 9
1-
#144000
0-
#145000
b110 /
b110 9
1-
#146000
0-
#147000
b111 /
b111 9
1-
#148000
0-
#149000
bz "
bz @
b1000 /
b1000 9
1-
#150000
0-
#151000
b1001 /
b1001 9
1-
#152000
0-
#153000
b1010 /
b1010 9
1-
#154000
0-
#155000
b1011 /
b1011 9
1-
#156000
0-
#157000
b1100 /
b1100 9
1-
#158000
0-
#159000
b1101 /
b1101 9
1-
#160000
0-
#161000
b1110 /
b1110 9
1-
#162000
0-
#163000
b1111 /
b1111 9
1-
#164000
0-
#165000
b100000000 "
b100000000 @
b0 /
b0 9
1-
#166000
0-
#167000
b0 "
b0 @
b1 /
b1 9
1-
#168000
0-
#169000
b11111111111111111111111101111011 "
b11111111111111111111111101111011 @
b10 /
b10 9
1-
#170000
0-
#171000
b10000011 "
b10000011 @
b11 /
b11 9
1-
#172000
0-
#173000
b10000100 "
b10000100 @
b100 /
b100 9
1-
#174000
0-
#175000
b1 "
b1 @
b101 /
b101 9
1-
#176000
0-
#177000
b110 /
b110 9
1-
#178000
0-
#179000
b111 /
b111 9
1-
#180000
0-
#181000
bz "
bz @
b1000 /
b1000 9
1-
#182000
0-
#183000
b1001 /
b1001 9
1-
#184000
0-
#185000
b1010 /
b1010 9
1-
#186000
0-
#187000
b1011 /
b1011 9
1-
#188000
0-
#189000
b1100 /
b1100 9
1-
#190000
0-
#191000
b1101 /
b1101 9
1-
#192000
0-
#193000
b1110 /
b1110 9
1-
#194000
0-
#195000
b1111 /
b1111 9
1-
#196000
0-
#197000
b100000000 "
b100000000 @
b0 /
b0 9
1-
