tb/Pics/Task2/pro_tb2.vcd
$date
	Sat Jun 11 19:24:29 2022
$end
$version
	Icarus Verilog
$end
$timescale
	10ps
$end
$scope module pro_tb2 $end
$var wire 32 ! valE [31:0] $end
$var wire 32 " rdata [31:0] $end
$var wire 32 # r7 [31:0] $end
$var wire 32 $ r6 [31:0] $end
$var wire 32 % r5 [31:0] $end
$var wire 32 & r4 [31:0] $end
$var wire 32 ' r3 [31:0] $end
$var wire 32 ( r2 [31:0] $end
$var wire 32 ) r1 [31:0] $end
$var wire 32 * r0 [31:0] $end
$var wire 3 + cc [2:0] $end
$var reg 32 , addr [31:0] $end
$var reg 1 - clock $end
$var reg 1 . flg $end
$var reg 4 / rID [3:0] $end
$var reg 32 0 wdata [31:0] $end
$var reg 1 1 working $end
$var reg 1 2 wr $end
$scope module processor $end
$var wire 32 3 F_read [31:0] $end
$var wire 32 4 addr [31:0] $end
$var wire 1 - clock $end
$var wire 4 5 e_dstE [3:0] $end
$var wire 1 6 e_halt $end
$var wire 32 7 e_valA [31:0] $end
$var wire 32 8 e_valB [31:0] $end
$var wire 4 9 rID [3:0] $end
$var wire 32 : valE [31:0] $end
$var wire 4 ; w_dstE [3:0] $end
$var wire 4 < w_dstM [3:0] $end
$var wire 32 = w_valE [31:0] $end
$var wire 32 > w_valM [31:0] $end
$var wire 32 ? wdata [31:0] $end
$var wire 1 1 working $end
$var wire 1 2 wr $end
$var wire 32 @ rdata [31:0] $end
$var wire 32 A r7 [31:0] $end
$var wire 32 B r6 [31:0] $end
$var wire 32 C r5 [31:0] $end
$var wire 32 D r4 [31:0] $end
$var wire 32 E r3 [31:0] $end
$var wire 32 F r2 [31:0] $end
$var wire 32 G r1 [31:0] $end
$var wire 32 H r0 [31:0] $end
$var wire 32 I f_rdata [31:0] $end
$var wire 1 J f_rd $end
$var wire 32 K f_addr [31:0] $end
$var wire 32 L e_valM [31:0] $end
$var wire 32 M e_valE [31:0] $end
$var wire 4 N e_dstM [3:0] $end
$var wire 4 O e_alufun [3:0] $end
$var wire 1 P e_ZF $end
$var wire 1 Q e_SF $end
$var wire 1 R e_OF $end
$var wire 16 S d_valC [15:0] $end
$var wire 32 T d_valB_reg [31:0] $end
$var wire 32 U d_valB [31:0] $end
$var wire 32 V d_valA_reg [31:0] $end
$var wire 32 W d_valA [31:0] $end
$var wire 4 X d_rB [3:0] $end
$var wire 4 Y d_rA [3:0] $end
$var wire 32 Z d_jpc [31:0] $end
$var wire 1 [ d_jflg $end
$var wire 4 \ d_ifun [3:0] $end
$var wire 4 ] d_icode [3:0] $end
$var wire 1 ^ d_halt $end
$var wire 3 _ cc [2:0] $end
$var reg 1 ` D_halt $end
$var reg 4 a D_icode [3:0] $end
$var reg 4 b D_ifun [3:0] $end
$var reg 1 c D_jflg $end
$var reg 4 d D_rA [3:0] $end
$var reg 4 e D_rB [3:0] $end
$var reg 32 f D_valA [31:0] $end
$var reg 32 g D_valB [31:0] $end
$var reg 16 h D_valC [15:0] $end
$var reg 4 i E_dstE [3:0] $end
$var reg 4 j E_dstM [3:0] $end
$var reg 1 k E_halt $end
$var reg 32 l E_valE [31:0] $end
$var reg 32 m E_valM [31:0] $end
$var reg 32 n PC [31:0] $end
$var reg 1 o e_reg_rst $end
$scope module alu $end
$var wire 32 p A [31:0] $end
$var wire 32 q B [31:0] $end
$var wire 32 r E [31:0] $end
$var wire 32 s aluA [31:0] $end
$var wire 32 t aluB [31:0] $end
$var wire 4 u alufun [3:0] $end
$var wire 32 v valE [31:0] $end
$var wire 3 w cc [2:0] $end
$var wire 1 x ZF $end
$var wire 1 y SF $end
$var wire 1 z OF $end
$upscope $end
$scope module ram $end
$var wire 32 { addr [31:0] $end
$var wire 1 - clock $end
$var wire 1 J rd $end
$var wire 32 | wdata [31:0] $end
$var wire 1 2 wr $end
$var reg 32 } rdata [31:0] $end
$upscope $end
$scope module regfile $end
$var wire 1 - clock $end
$var wire 4 ~ dstE [3:0] $end
$var wire 4 !" dstM [3:0] $end
$var wire 4 "" rA [3:0] $end
$var wire 4 #" rB [3:0] $end
$var wire 1 o reset $end
$var wire 32 $" valE [31:0] $end
$var wire 32 %" valM [31:0] $end
$var wire 32 &" valB [31:0] $end
$var wire 32 '" valA [31:0] $end
$var wire 32 (" r7 [31:0] $end
$var wire 32 )" r6 [31:0] $end
$var wire 32 *" r5 [31:0] $end
$var wire 32 +" r4 [31:0] $end
$var wire 32 ," r3 [31:0] $end
$var wire 32 -" r2 [31:0] $end
$var wire 32 ." r1 [31:0] $end
$var wire 32 /" r0 [31:0] $end
$var reg 32 0" r_r0 [31:0] $end
$var reg 32 1" r_r1 [31:0] $end
$var reg 32 2" r_r2 [31:0] $end
$var reg 32 3" r_r3 [31:0] $end
$var reg 32 4" r_r4 [31:0] $end
$var reg 32 5" r_r5 [31:0] $end
$var reg 32 6" r_r6 [31:0] $end
$var reg 32 7" r_r7 [31:0] $end
$upscope $end
$upscope $end
$upscope $end
$enddefinitions $end
#0
$dumpvars
bx 7"
bx 6"
bx 5"
bx 4"
bx 3"
bx 2"
bx 1"
bx 0"
bx /"
bx ."
bx -"
bx ,"
bx +"
bx *"
bx )"
bx ("
bx '"
bx &"
bz %"
bz $"
bz #"
bz ""
bz !"
bz ~
bz }
b0 |
b0 {
xz
xy
xx
bx w
bx v
bx u
bz t
bz s
bx r
bz q
bz p
1o
b0 n
bz m
bz l
zk
bz j
bz i
bz h
bz g
bz f
bz e
bz d
0c
bz b
bz a
z`
bx _
x^
bz ]
bz \
0[
b0zzzzzzzzzzzzzzzzzzzzzzzz Z
bz Y
bz X
bx W
bx V
bx U
bx T
bz S
xR
xQ
xP
bx O
bx N
bx M
b0zzzzzzzzzzzzzzzz L
b0 K
0J
bz I
bx H
bx G
bx F
bx E
bx D
bx C
bx B
bx A
bx @
b0 ?
bz >
bz =
bz <
bz ;
bx :
bx 9
bz 8
bz 7
z6
bz 5
b0 4
bz 3
02
01
b0 0
bx /
0.
0-
b0 ,
bx +
bx *
bx )
bx (
bx '
bx &
bx %
bx $
bx #
bx "
bx !
$end
#1000
bx =
bx l
bx $"
b1111 <
b1111 j
b1111 !"
b0 #
b0 A
b0 ("
b0 7"
b0 $
b0 B
b0 )"
b0 6"
b0 %
b0 C
b0 *"
b0 5"
b0 &
b0 D
b0 +"
b0 4"
b0 '
b0 E
b0 ,"
b0 3"
b0 (
b0 F
b0 -"
b0 2"
b0 )
b0 G
b0 ."
b0 1"
b0 *
b0 H
b0 /"
b0 0"
1-
#2000
b10000111100000000000010000000 0
b10000111100000000000010000000 ?
b10000111100000000000010000000 |
12
0o
0-
#3000
1-
#4000
b1 K
b1 {
b10000111100010000000010000001 0
b10000111100010000000010000001 ?
b10000111100010000000010000001 |
b1 ,
b1 4
0-
#5000
1-
#6000
b10 K
b10 {
b10000111100100000000010000010 0
b10000111100100000000010000010 ?
b10000111100100000000010000010 |
b10 ,
b10 4
0-
#7000
1-
#8000
b11 K
b11 {
b10000111100110000000010000011 0
b10000111100110000000010000011 ?
b10000111100110000000010000011 |
b11 ,
b11 4
0-
#9000
1-
#10000
b100 K
b100 {
b10000111101000000000010000100 0
b10000111101000000000010000100 ?
b10000111101000000000010000100 |
b100 ,
b100 4
0-
#11000
1-
#12000
b101 K
b101 {
b10000111101010000000010000101 0
b10000111101010000000010000101 ?
b10000111101010000000010000101 |
b101 ,
b101 4
0-
#13000
1-
#14000
b110 K
b110 {
b10000111101100000000010000110 0
b10000111101100000000010000110 ?
b10000111101100000000010000110 |
b110 ,
b110 4
0-
#15000
1-
#16000
b111 K
b111 {
b10000111101110000000010000111 0
b10000111101110000000010000111 ?
b10000111101110000000010000111 |
b111 ,
b111 4
0-
#17000
1-
#18000
b0 K
b0 {
b0 0
b0 ?
b0 |
02
b0 ,
b0 4
0-
#19000
x[
1J
11
1-
#20000
0-
#21000
0[
0^
b0 T
b0 &"
bz V
bz '"
b0 \
b1 ]
b0 X
b0 #"
b1111 Y
b1111 ""
b111100000000000010000000 Z
b10000000 S
b1 K
b1 {
b10000111100000000000010000000 3
b10000111100000000000010000000 I
b10000111100000000000010000000 }
b1 n
x6
x`
bx q
bx 8
bx g
bx t
bx p
bx 7
bx f
bx s
1-
#22000
0-
#23000
b1 X
b1 #"
bx U
b0 N
bz O
bz u
b10 K
b10 {
b111100010000000010000001 Z
b10000001 S
xk
06
0`
b10000000 L
b10000000 h
b0 e
b1111 5
b1111 d
b0 b
b1 a
b10 n
b10000111100010000000010000001 3
b10000111100010000000010000001 I
b10000111100010000000010000001 }
1-
#24000
0-
#25000
b10 X
b10 #"
b0 U
b111100100000000010000010 Z
b10000010 S
b11 K
b11 {
b1 N
b10000111100100000000010000010 3
b10000111100100000000010000010 I
b10000111100100000000010000010 }
b11 n
b10000001 L
b10000001 h
b1 e
0k
b1111 ;
b1111 i
b1111 ~
b10000000 >
b10000000 m
b10000000 %"
b0 <
b0 j
b0 !"
1-
#26000
0-
#27000
b0 U
b11 X
b11 #"
b10 N
b100 K
b100 {
b111100110000000010000011 Z
b10000011 S
b10000001 >
b10000001 m
b10000001 %"
b1 <
b1 j
b1 !"
b10000010 L
b10000010 h
b10 e
b0 q
b0 8
b0 g
b0 t
b100 n
b10000111100110000000010000011 3
b10000111100110000000010000011 I
b10000111100110000000010000011 }
b10000000 *
b10000000 H
b10000000 /"
b10000000 0"
1-
#28000
0-
#29000
b100 X
b100 #"
b0 U
b111101000000000010000100 Z
b10000100 S
b101 K
b101 {
b11 N
b10000111101000000000010000100 3
b10000111101000000000010000100 I
b10000111101000000000010000100 }
b101 n
b10000011 L
b10000011 h
b11 e
b10000010 >
b10000010 m
b10000010 %"
b10 <
b10 j
b10 !"
b10000001 )
b10000001 G
b10000001 ."
b10000001 1"
1-
#30000
0-
#31000
b0 U
b101 X
b101 #"
b100 N
b110 K
b110 {
b111101010000000010000101 Z
b10000101 S
b10000011 >
b10000011 m
b10000011 %"
b11 <
b11 j
b11 !"
b10000100 L
b10000100 h
b100 e
b110 n
b10000111101010000000010000101 3
b10000111101010000000010000101 I
b10000111101010000000010000101 }
b10000010 (
b10000010 F
b10000010 -"
b10000010 2"
1-
#32000
0-
#33000
b110 X
b110 #"
b0 U
b111101100000000010000110 Z
b10000110 S
b111 K
b111 {
b101 N
b10000111101100000000010000110 3
b10000111101100000000010000110 I
b10000111101100000000010000110 }
b111 n
b10000101 L
b10000101 h
b101 e
b10000100 >
b10000100 m
b10000100 %"
b100 <
b100 j
b100 !"
b10000011 '
b10000011 E
b10000011 ,"
b10000011 3"
1-
#34000
0-
#35000
b0 U
b111 X
b111 #"
b110 N
b1000 K
b1000 {
b111101110000000010000111 Z
b10000111 S
b10000101 >
b10000101 m
b10000101 %"
b101 <
b101 j
b101 !"
b10000110 L
b10000110 h
b110 e
b1000 n
b10000111101110000000010000111 3
b10000111101110000000010000111 I
b10000111101110000000010000111 }
b10000100 &
b10000100 D
b10000100 +"
b10000100 4"
1-
#36000
0-
#37000
x[
x^
bx T
bx &"
bx V
bx '"
bx \
bx ]
bx X
bx #"
bx Y
bx ""
bx U
b0xxxxxxxxxxxxxxxxxxxxxxxx Z
bx S
b1001 K
b1001 {
b111 N
bx 3
bx I
bx }
b1001 n
b10000111 L
b10000111 h
b111 e
b10000110 >
b10000110 m
b10000110 %"
b110 <
b110 j
b110 !"
b10000101 %
b10000101 C
b10000101 *"
b10000101 5"
1-
#38000
0-
#39000
bx N
bx O
bx u
b1010 K
b1010 {
b10000111 >
b10000111 m
b10000111 %"
b111 <
b111 j
b111 !"
x6
x`
b0xxxxxxxxxxxxxxxx L
bx h
bx e
bx 5
bx d
bx q
bx 8
bx g
bx t
bx b
bx a
b1010 n
b10000110 $
b10000110 B
b10000110 )"
b10000110 6"
1-
#40000
0-
#41000
b1011 K
b1011 {
b1011 n
xk
bx ;
bx i
bx ~
bz >
bz m
bz %"
b1111 <
b1111 j
b1111 !"
b10000111 #
b10000111 A
b10000111 ("
b10000111 7"
1-
#42000
0-
#43000
b1100 K
b1100 {
b1100 n
1-
#44000
0-
#45000
b1101 K
b1101 {
b1101 n
1-
#46000
0-
#47000
b1110 K
b1110 {
b1110 n
1-
#48000
0-
#49000
b1111 K
b1111 {
b1111 n
1-
#50000
0-
#51000
b10000 K
b10000 {
b10000 n
1-
#52000
0-
#53000
b10001 K
b10001 {
b10001 n
1-
#54000
0-
#55000
b10010 K
b10010 {
b10010 n
1-
#56000
0-
#57000
b10011 K
b10011 {
b10011 n
1-
#58000
0-
#59000
b10100 K
b10100 {
b10100 n
1-
#60000
0-
#61000
b10101 K
b10101 {
b10101 n
1-
#62000
0-
#63000
b10110 K
b10110 {
b10110 n
1-
#64000
0-
#65000
b10111 K
b10111 {
b10111 n
1-
#66000
0-
#67000
b11000 K
b11000 {
b11000 n
1-
