tb/pro_tb3.vcd
$date
	Sun May 29 22:24:57 2022
$end
$version
	Icarus Verilog
$end
$timescale
	10ps
$end
$scope module pro_tb2 $end
$var wire 16 ! valC [15:0] $end
$var wire 32 " valB [31:0] $end
$var wire 32 # valA [31:0] $end
$var wire 4 $ rB [3:0] $end
$var wire 4 % rA [3:0] $end
$var wire 32 & r7 [31:0] $end
$var wire 32 ' r6 [31:0] $end
$var wire 32 ( r5 [31:0] $end
$var wire 32 ) r4 [31:0] $end
$var wire 32 * r3 [31:0] $end
$var wire 32 + r2 [31:0] $end
$var wire 32 , r1 [31:0] $end
$var wire 32 - r0 [31:0] $end
$var wire 4 . ifun [3:0] $end
$var wire 4 / icode [3:0] $end
$var reg 9 0 addr [8:0] $end
$var reg 1 1 clock $end
$var reg 32 2 wdata [31:0] $end
$var reg 1 3 working $end
$var reg 1 4 wr $end
$scope module processor $end
$var wire 9 5 addr [8:0] $end
$var wire 1 1 clock $end
$var wire 32 6 wdata [31:0] $end
$var wire 1 3 working $end
$var wire 1 4 wr $end
$var wire 32 7 valB [31:0] $end
$var wire 32 8 valA [31:0] $end
$var wire 32 9 read_w [31:0] $end
$var wire 4 : rB [3:0] $end
$var wire 4 ; rA [3:0] $end
$var wire 32 < r7 [31:0] $end
$var wire 32 = r6 [31:0] $end
$var wire 32 > r5 [31:0] $end
$var wire 32 ? r4 [31:0] $end
$var wire 32 @ r3 [31:0] $end
$var wire 32 A r2 [31:0] $end
$var wire 32 B r1 [31:0] $end
$var wire 32 C r0 [31:0] $end
$var wire 4 D ifun [3:0] $end
$var wire 4 E icode [3:0] $end
$var wire 9 F addr_w [8:0] $end
$var reg 9 G PC [8:0] $end
$var reg 4 H dstM [3:0] $end
$var reg 1 I read $end
$var reg 1 J reg_rst $end
$var reg 16 K valC [15:0] $end
$var reg 32 L valM [31:0] $end
$scope module ram $end
$var wire 9 M addr [8:0] $end
$var wire 1 1 clock $end
$var wire 1 I rd $end
$var wire 32 N wdata [31:0] $end
$var wire 1 4 wr $end
$var reg 32 O rdata [31:0] $end
$upscope $end
$scope module regfile $end
$var wire 1 1 clock $end
$var wire 4 P dstE [3:0] $end
$var wire 4 Q dstM [3:0] $end
$var wire 4 R rA [3:0] $end
$var wire 4 S rB [3:0] $end
$var wire 1 J reset $end
$var wire 32 T valE [31:0] $end
$var wire 32 U valM [31:0] $end
$var reg 32 V r0 [31:0] $end
$var reg 32 W r1 [31:0] $end
$var reg 32 X r2 [31:0] $end
$var reg 32 Y r3 [31:0] $end
$var reg 32 Z r4 [31:0] $end
$var reg 32 [ r5 [31:0] $end
$var reg 32 \ r6 [31:0] $end
$var reg 32 ] r7 [31:0] $end
$var reg 32 ^ valA [31:0] $end
$var reg 32 _ valB [31:0] $end
$upscope $end
$upscope $end
$upscope $end
$enddefinitions $end
#0
$dumpvars
bx _
bx ^
bx ]
bx \
bx [
bx Z
bx Y
bx X
bx W
bx V
b0 U
bz T
bz S
bz R
b0 Q
bz P
bz O
b0 N
b0 M
b0 L
bx K
1J
0I
b0 H
b0 G
b0 F
bz E
bz D
bx C
bx B
bx A
bx @
bx ?
bx >
bx =
bx <
bz ;
bz :
bz 9
bx 8
bx 7
b0 6
b0 5
04
03
b0 2
01
b0 0
bz /
bz .
bx -
bx ,
bx +
bx *
bx )
bx (
bx '
bx &
bz %
bz $
bx #
bx "
bx !
$end
#1000
b0 &
b0 <
b0 ]
b0 '
b0 =
b0 \
b0 (
b0 >
b0 [
b0 )
b0 ?
b0 Z
b0 *
b0 @
b0 Y
b0 +
b0 A
b0 X
b0 ,
b0 B
b0 W
b0 -
b0 C
b0 V
b0 "
b0 7
b0 _
b0 #
b0 8
b0 ^
11
#2000
bz "
bz 7
bz _
bz #
bz 8
bz ^
b10000111100000000000010000000 2
b10000111100000000000010000000 6
b10000111100000000000010000000 N
14
0J
01
#3000
11
#4000
b1 F
b1 M
b10000111100010000000010000001 2
b10000111100010000000010000001 6
b10000111100010000000010000001 N
b1 0
b1 5
01
#5000
11
#6000
b10 F
b10 M
b10000111100100000000010000010 2
b10000111100100000000010000010 6
b10000111100100000000010000010 N
b10 0
b10 5
01
#7000
11
#8000
b11 F
b11 M
b10000111100110000000010000011 2
b10000111100110000000010000011 6
b10000111100110000000010000011 N
b11 0
b11 5
01
#9000
11
#10000
b100 F
b100 M
b10000111101000000000010000100 2
b10000111101000000000010000100 6
b10000111101000000000010000100 N
b100 0
b100 5
01
#11000
11
#12000
b101 F
b101 M
b10000111101010000000010000101 2
b10000111101010000000010000101 6
b10000111101010000000010000101 N
b101 0
b101 5
01
#13000
11
#14000
b110 F
b110 M
b10000111101100000000010000110 2
b10000111101100000000010000110 6
b10000111101100000000010000110 N
b110 0
b110 5
01
#15000
11
#16000
b111 F
b111 M
b10000111101110000000010000111 2
b10000111101110000000010000111 6
b10000111101110000000010000111 N
b111 0
b111 5
01
#17000
11
#18000
b1000 F
b1000 M
b100000000000010000000000000000 2
b100000000000010000000000000000 6
b100000000000010000000000000000 N
b1000 0
b1000 5
01
#19000
11
#20000
b1001 F
b1001 M
b100001001000110000000000000000 2
b100001001000110000000000000000 6
b100001001000110000000000000000 N
b1001 0
b1001 5
01
#21000
11
#22000
b1010 F
b1010 M
b100010010001010000000000000000 2
b100010010001010000000000000000 6
b100010010001010000000000000000 N
b1010 0
b1010 5
01
#23000
11
#24000
b1011 F
b1011 M
b100011011001110000000000000000 2
b100011011001110000000000000000 6
b100011011001110000000000000000 N
b1011 0
b1011 5
01
#25000
11
#26000
b0 F
b0 M
b0 2
b0 6
b0 N
04
b0 0
b0 5
01
#27000
13
11
#28000
01
#29000
b0 $
b0 :
b0 S
b1111 %
b1111 ;
b1111 R
b0 .
b0 D
b1 /
b1 E
b1 F
b1 M
b10000111100000000000010000000 9
b10000111100000000000010000000 O
bz !
bz K
b1 G
1I
11
#30000
01
#31000
b10 F
b10 M
b1 $
b1 :
b1 S
b10000000 L
b10000000 U
b10000000 !
b10000000 K
b10 G
b10000111100010000000010000001 9
b10000111100010000000010000001 O
b0 "
b0 7
b0 _
11
#32000
01
#33000
b10 $
b10 :
b10 S
b11 F
b11 M
b10000111100100000000010000010 9
b10000111100100000000010000010 O
b10000001 L
b10000001 U
b1 H
b1 Q
b10000001 !
b10000001 K
b11 G
b10000000 -
b10000000 C
b10000000 V
11
#34000
01
#35000
b100 F
b100 M
b11 $
b11 :
b11 S
b10000010 L
b10000010 U
b10 H
b10 Q
b10000010 !
b10000010 K
b100 G
b10000111100110000000010000011 9
b10000111100110000000010000011 O
b10000001 ,
b10000001 B
b10000001 W
11
#36000
01
#37000
b100 $
b100 :
b100 S
b101 F
b101 M
b10000111101000000000010000100 9
b10000111101000000000010000100 O
b10000011 L
b10000011 U
b11 H
b11 Q
b10000011 !
b10000011 K
b101 G
b10000010 +
b10000010 A
b10000010 X
11
#38000
01
#39000
b110 F
b110 M
b101 $
b101 :
b101 S
b10000100 L
b10000100 U
b100 H
b100 Q
b10000100 !
b10000100 K
b110 G
b10000111101010000000010000101 9
b10000111101010000000010000101 O
b10000011 *
b10000011 @
b10000011 Y
11
#40000
01
#41000
b110 $
b110 :
b110 S
b111 F
b111 M
b10000111101100000000010000110 9
b10000111101100000000010000110 O
b10000101 L
b10000101 U
b101 H
b101 Q
b10000101 !
b10000101 K
b111 G
b10000100 )
b10000100 ?
b10000100 Z
11
#42000
01
#43000
b1000 F
b1000 M
b111 $
b111 :
b111 S
b10000110 L
b10000110 U
b110 H
b110 Q
b10000110 !
b10000110 K
b1000 G
b10000111101110000000010000111 9
b10000111101110000000010000111 O
b10000101 (
b10000101 >
b10000101 [
11
#44000
01
#45000
b1 $
b1 :
b1 S
b0 %
b0 ;
b0 R
b10 /
b10 E
b1001 F
b1001 M
b100000000000010000000000000000 9
b100000000000010000000000000000 O
b10000111 L
b10000111 U
b111 H
b111 Q
b10000111 !
b10000111 K
b1001 G
b10000110 '
b10000110 =
b10000110 \
11
#46000
01
#47000
b1010 F
b1010 M
b11 $
b11 :
b11 S
b10 %
b10 ;
b10 R
b1 .
b1 D
b0 !
b0 K
b1010 G
b100001001000110000000000000000 9
b100001001000110000000000000000 O
b10000001 "
b10000001 7
b10000001 _
b10000000 #
b10000000 8
b10000000 ^
b10000111 &
b10000111 <
b10000111 ]
11
#48000
01
#49000
b101 $
b101 :
b101 S
b100 %
b100 ;
b100 R
b10 .
b10 D
b1011 F
b1011 M
b100010010001010000000000000000 9
b100010010001010000000000000000 O
b1011 G
b10000011 "
b10000011 7
b10000011 _
b10000010 #
b10000010 8
b10000010 ^
11
#50000
01
#51000
b1100 F
b1100 M
b111 $
b111 :
b111 S
b110 %
b110 ;
b110 R
b11 .
b11 D
b1100 G
b100011011001110000000000000000 9
b100011011001110000000000000000 O
b10000101 "
b10000101 7
b10000101 _
b10000100 #
b10000100 8
b10000100 ^
11
#52000
01
#53000
bx $
bx :
bx S
bx %
bx ;
bx R
bx .
bx D
bx /
bx E
b1101 F
b1101 M
bx 9
bx O
b1101 G
b10000111 "
b10000111 7
b10000111 _
b10000110 #
b10000110 8
b10000110 ^
11
#54000
01
#55000
b1110 F
b1110 M
bx !
bx K
b1110 G
bz "
bz 7
bz _
bz #
bz 8
bz ^
11
#56000
01
#57000
b1111 F
b1111 M
b1111 G
11
#58000
01
#59000
b10000 F
b10000 M
b10000 G
11
#60000
01
#61000
b10001 F
b10001 M
b10001 G
11
#62000
01
#63000
b10010 F
b10010 M
b10010 G
11
#64000
01
#65000
b10011 F
b10011 M
b10011 G
11
#66000
01
#67000
b10100 F
b10100 M
b10100 G
11
#68000
01
#69000
b10101 F
b10101 M
b10101 G
11
#70000
01
#71000
b10110 F
b10110 M
b10110 G
11
#72000
01
#73000
b10111 F
b10111 M
b10111 G
11
#74000
01
#75000
b11000 F
b11000 M
b11000 G
11
