tb/pro_tb2.vcd
$date
	Sun May 29 21:14:48 2022
$end
$version
	Icarus Verilog
$end
$timescale
	10ps
$end
$scope module pro_tb2 $end
$var wire 16 ! valC [15:0] $end
$var wire 4 " rB [3:0] $end
$var wire 4 # rA [3:0] $end
$var wire 32 $ r7 [31:0] $end
$var wire 32 % r6 [31:0] $end
$var wire 32 & r5 [31:0] $end
$var wire 32 ' r4 [31:0] $end
$var wire 32 ( r3 [31:0] $end
$var wire 32 ) r2 [31:0] $end
$var wire 32 * r1 [31:0] $end
$var wire 32 + r0 [31:0] $end
$var wire 4 , ifun [3:0] $end
$var wire 4 - icode [3:0] $end
$var reg 9 . addr [8:0] $end
$var reg 1 / clock $end
$var reg 32 0 wdata [31:0] $end
$var reg 1 1 working $end
$var reg 1 2 wr $end
$scope module processor $end
$var wire 9 3 addr [8:0] $end
$var wire 1 / clock $end
$var wire 32 4 wdata [31:0] $end
$var wire 1 1 working $end
$var wire 1 2 wr $end
$var wire 16 5 valC [15:0] $end
$var wire 32 6 read_w [31:0] $end
$var wire 4 7 rB [3:0] $end
$var wire 4 8 rA [3:0] $end
$var wire 32 9 r7 [31:0] $end
$var wire 32 : r6 [31:0] $end
$var wire 32 ; r5 [31:0] $end
$var wire 32 < r4 [31:0] $end
$var wire 32 = r3 [31:0] $end
$var wire 32 > r2 [31:0] $end
$var wire 32 ? r1 [31:0] $end
$var wire 32 @ r0 [31:0] $end
$var wire 4 A ifun [3:0] $end
$var wire 4 B icode [3:0] $end
$var wire 9 C addr_w [8:0] $end
$var reg 9 D PC [8:0] $end
$var reg 4 E dstM [3:0] $end
$var reg 1 F read $end
$var reg 1 G reg_rst $end
$var reg 32 H valM [31:0] $end
$scope module ram $end
$var wire 9 I addr [8:0] $end
$var wire 1 / clock $end
$var wire 1 F rd $end
$var wire 32 J wdata [31:0] $end
$var wire 1 2 wr $end
$var reg 32 K rdata [31:0] $end
$upscope $end
$scope module regfile $end
$var wire 1 / clock $end
$var wire 4 L dstE [3:0] $end
$var wire 4 M dstM [3:0] $end
$var wire 1 G reset $end
$var wire 32 N valE [31:0] $end
$var wire 32 O valM [31:0] $end
$var reg 32 P r0 [31:0] $end
$var reg 32 Q r1 [31:0] $end
$var reg 32 R r2 [31:0] $end
$var reg 32 S r3 [31:0] $end
$var reg 32 T r4 [31:0] $end
$var reg 32 U r5 [31:0] $end
$var reg 32 V r6 [31:0] $end
$var reg 32 W r7 [31:0] $end
$upscope $end
$upscope $end
$upscope $end
$enddefinitions $end
#0
$dumpvars
bx W
bx V
bx U
bx T
bx S
bx R
bx Q
bx P
b0 O
bz N
b0 M
bz L
bz K
b0 J
b0 I
b0 H
1G
0F
b0 E
b0 D
b0 C
bz B
bz A
bx @
bx ?
bx >
bx =
bx <
bx ;
bx :
bx 9
bz 8
bz 7
bz 6
bz 5
b0 4
b0 3
02
01
b0 0
0/
b0 .
bz -
bz ,
bx +
bx *
bx )
bx (
bx '
bx &
bx %
bx $
bz #
bz "
bz !
$end
#1000
b0 $
b0 9
b0 W
b0 %
b0 :
b0 V
b0 &
b0 ;
b0 U
b0 '
b0 <
b0 T
b0 (
b0 =
b0 S
b0 )
b0 >
b0 R
b0 *
b0 ?
b0 Q
b0 +
b0 @
b0 P
1/
#2000
b10000111100000000000010000000 0
b10000111100000000000010000000 4
b10000111100000000000010000000 J
12
0G
0/
#3000
1/
#4000
b1 C
b1 I
b10000111100010000000010000001 0
b10000111100010000000010000001 4
b10000111100010000000010000001 J
b1 .
b1 3
0/
#5000
1/
#6000
b10 C
b10 I
b10000111100100000000010000010 0
b10000111100100000000010000010 4
b10000111100100000000010000010 J
b10 .
b10 3
0/
#7000
1/
#8000
b11 C
b11 I
b10000111100110000000010000011 0
b10000111100110000000010000011 4
b10000111100110000000010000011 J
b11 .
b11 3
0/
#9000
1/
#10000
b100 C
b100 I
b10000111101000000000010000100 0
b10000111101000000000010000100 4
b10000111101000000000010000100 J
b100 .
b100 3
0/
#11000
1/
#12000
b101 C
b101 I
b10000111101010000000010000101 0
b10000111101010000000010000101 4
b10000111101010000000010000101 J
b101 .
b101 3
0/
#13000
1/
#14000
b110 C
b110 I
b10000111101100000000010000110 0
b10000111101100000000010000110 4
b10000111101100000000010000110 J
b110 .
b110 3
0/
#15000
1/
#16000
b111 C
b111 I
b10000111101110000000010000111 0
b10000111101110000000010000111 4
b10000111101110000000010000111 J
b111 .
b111 3
0/
#17000
1/
#18000
b0 C
b0 I
b0 0
b0 4
b0 J
02
b0 .
b0 3
0/
#19000
11
1/
#20000
0/
#21000
b10000000 !
b10000000 5
b0 "
b0 7
b1111 #
b1111 8
b0 ,
b0 A
b1 -
b1 B
b1 C
b1 I
b10000111100000000000010000000 6
b10000111100000000000010000000 K
b1 D
1F
1/
#22000
0/
#23000
b10 C
b10 I
b10000001 !
b10000001 5
b1 "
b1 7
b10000000 H
b10000000 O
b10 D
b10000111100010000000010000001 6
b10000111100010000000010000001 K
1/
#24000
0/
#25000
b10000010 !
b10000010 5
b10 "
b10 7
b11 C
b11 I
b10000111100100000000010000010 6
b10000111100100000000010000010 K
b10000001 H
b10000001 O
b1 E
b1 M
b11 D
b10000000 +
b10000000 @
b10000000 P
1/
#26000
0/
#27000
b100 C
b100 I
b10000011 !
b10000011 5
b11 "
b11 7
b10000010 H
b10000010 O
b10 E
b10 M
b100 D
b10000111100110000000010000011 6
b10000111100110000000010000011 K
b10000001 *
b10000001 ?
b10000001 Q
1/
#28000
0/
#29000
b10000100 !
b10000100 5
b100 "
b100 7
b101 C
b101 I
b10000111101000000000010000100 6
b10000111101000000000010000100 K
b10000011 H
b10000011 O
b11 E
b11 M
b101 D
b10000010 )
b10000010 >
b10000010 R
1/
#30000
0/
#31000
b110 C
b110 I
b10000101 !
b10000101 5
b101 "
b101 7
b10000100 H
b10000100 O
b100 E
b100 M
b110 D
b10000111101010000000010000101 6
b10000111101010000000010000101 K
b10000011 (
b10000011 =
b10000011 S
1/
#32000
0/
#33000
b10000110 !
b10000110 5
b110 "
b110 7
b111 C
b111 I
b10000111101100000000010000110 6
b10000111101100000000010000110 K
b10000101 H
b10000101 O
b101 E
b101 M
b111 D
b10000100 '
b10000100 <
b10000100 T
1/
#34000
0/
#35000
b1000 C
b1000 I
b10000111 !
b10000111 5
b111 "
b111 7
b10000110 H
b10000110 O
b110 E
b110 M
b1000 D
b10000111101110000000010000111 6
b10000111101110000000010000111 K
b10000101 &
b10000101 ;
b10000101 U
1/
#36000
0/
#37000
bx !
bx 5
bx "
bx 7
bx #
bx 8
bx ,
bx A
bx -
bx B
b1001 C
b1001 I
bx 6
bx K
b10000111 H
b10000111 O
b111 E
b111 M
b1001 D
b10000110 %
b10000110 :
b10000110 V
1/
#38000
0/
#39000
b1010 C
b1010 I
b1010 D
b10000111 $
b10000111 9
b10000111 W
1/
#40000
0/
#41000
b1011 C
b1011 I
b1011 D
1/
#42000
0/
#43000
b1100 C
b1100 I
b1100 D
1/
#44000
0/
#45000
b1101 C
b1101 I
b1101 D
1/
#46000
0/
#47000
b1110 C
b1110 I
b1110 D
1/
